,0,1,2,3,4,5,classifier_score,divider,fcst_grade,fcst_y,norm,regressor_score,site
2016,0.15,0.13,0.02,0.13,0.23,0.34,0.3,"[-45.5, -21.2, -11.0, -0.4, 35.5]",5,8.0,43.8,0.03,呼玛
2016,0.2,0.18,0.09,0.04,0.19,0.3,0.29,"[-41.75, -25.0, -4.5, 9.0, 63.75]",5,36.8,32.0,0.24,博克图
2016,0.38,0.38,0.0,0.0,0.06,0.18,0.22,"[-49.0, -19.0, 1.0, 16.0, 56.25]",0,-28.9,23.3,-0.25,海拉尔
2016,0.16,0.03,0.01,0.29,0.0,0.51,0.31,"[-26.0, 3.8, 25.0, 42.0, 82.0]",5,115.8,25.3,0.2,图里河
2016,0.23,0.11,0.34,0.08,0.12,0.12,0.3,"[-44.0, -12.4, -2.0, 9.0, 40.75]",2,-18.3,35.7,0.27,嫩江
2016,0.0,0.86,0.14,0.0,0.0,0.0,0.16,"[-50.75, -34.0, -21.0, 11.2, 56.5]",1,-46.8,31.8,-0.58,齐齐哈尔
2016,0.03,0.06,0.08,0.06,0.06,0.71,0.32,"[-42.5, -23.6, -18.0, 5.6, 24.25]",5,127.4,44.9,0.05,海伦
2016,0.0,0.0,0.0,0.0,0.17,0.83,0.22,"[-38.5, -20.6, -2.0, 18.0, 35.0]",5,67.3,46.8,-0.36,富锦
2016,0.23,0.68,0.0,0.03,0.06,0.0,0.19,"[-36.0, -21.6, -9.0, 8.6, 28.5]",1,-32.7,48.5,-0.01,佳木斯
2016,0.31,0.23,0.08,0.08,0.15,0.15,0.26,"[-37.75, -10.6, -2.0, 6.6, 23.5]",0,-13.3,55.1,0.11,鸡西
2016,0.02,0.08,0.0,0.0,0.02,0.88,0.31,"[-38.75, -19.0, -4.0, 1.0, 33.75]",5,73.6,39.5,-0.31,哈尔滨
2016,0.35,0.16,0.21,0.01,0.2,0.07,0.26,"[-39.5, -25.0, -18.5, -3.0, 27.0]",0,-24.6,57.7,0.21,牡丹江
2016,0.0,0.0,0.0,0.02,0.27,0.71,0.33,"[-75.0, -24.2, -9.0, 8.8, 36.75]",5,188.7,31.8,0.01,乌兰浩特
2016,0.03,0.29,0.08,0.22,0.04,0.34,0.23,"[-47.0, -15.4, -6.0, 20.0, 37.75]",5,42.2,29.9,0.19,通辽
2016,0.0,0.04,0.04,0.0,0.01,0.91,0.37,"[-41.0, -27.0, -8.0, 0.6, 15.0]",5,174.1,50.4,-0.05,长春
2016,0.77,0.14,0.01,0.0,0.06,0.02,0.29,"[-44.75, -30.0, -18.0, -5.4, 25.75]",0,-45.4,58.9,-0.08,延吉
2016,0.67,0.17,0.0,0.0,0.0,0.17,0.23,"[-36.25, -21.0, -14.5, -2.6, 15.75]",0,-38.3,82.7,0.05,通化
2016,0.14,0.14,0.01,0.21,0.12,0.38,0.41,"[-38.0, -12.6, 3.0, 17.8, 49.5]",5,17.8,53.1,0.14,沈阳
2016,0.0,0.0,0.0,0.0,0.0,1.0,0.15,"[-47.0, -33.0, -26.0, -16.4, 12.5]",5,188.0,43.8,0.09,朝阳
2016,0.0,0.83,0.0,0.0,0.17,0.0,0.26,"[-52.5, -31.6, -19.5, -9.4, 9.75]",1,-34.8,56.0,-0.61,营口
2016,0.07,0.14,0.08,0.13,0.28,0.3,0.39,"[-53.0, -31.6, -18.0, -11.0, 10.5]",5,6.8,79.5,0.19,丹东
2016,0.03,0.03,0.0,0.13,0.28,0.53,0.33,"[-62.5, -33.6, -20.0, -10.4, 25.5]",5,97.6,49.9,0.21,大连
2016,0.51,0.0,0.0,0.49,0.0,0.0,0.3,"[-60.0, -36.0, -22.0, -9.6, 41.0]",0,-66.4,25.1,-0.31,林东
2016,0.01,0.15,0.0,0.02,0.21,0.61,0.26,"[-62.0, -33.0, -14.0, -0.8, 50.0]",5,99.3,23.9,0.15,锡林浩特
2016,0.32,0.36,0.05,0.0,0.04,0.23,0.26,"[-54.0, -36.0, -25.0, -7.0, 34.5]",1,-62.4,17.2,0.03,朱日和
2016,0.13,0.0,0.04,0.0,0.37,0.46,0.27,"[-36.0, -18.2, -5.0, 5.0, 23.75]",5,44.1,29.5,0.05,多伦
2016,0.2,0.0,0.0,0.17,0.11,0.52,0.29,"[-49.0, -35.6, -27.5, -14.0, 22.0]",5,19.2,39.3,0.05,赤峰
2016,0.04,0.03,0.03,0.15,0.16,0.59,0.3,"[-46.0, -29.0, -15.0, -2.4, 33.0]",5,46.2,49.2,0.07,承德
2016,0.4,0.0,0.0,0.0,0.16,0.44,0.22,"[-49.75, -23.2, -7.0, -1.0, 29.75]",5,0.5,33.3,-0.16,张家口
2016,0.2,0.0,0.11,0.0,0.04,0.65,0.32,"[-66.75, -48.8, -16.0, 2.4, 40.0]",5,74.8,32.1,-0.01,呼和浩特
2016,0.12,0.0,0.0,0.01,0.07,0.8,0.3,"[-73.0, -60.0, -40.0, 0.2, 41.0]",5,119.8,24.9,0.31,包头
2016,0.01,0.04,0.0,0.0,0.01,0.94,0.28,"[-82.0, -65.0, -56.0, -21.0, 32.0]",5,209.9,11.3,0.06,陕坝
2016,0.01,0.05,0.09,0.09,0.32,0.44,0.2,"[-65.0, -32.6, -18.5, -8.0, 14.5]",5,26.5,37.6,0.14,北京
2016,0.04,0.11,0.01,0.27,0.28,0.29,0.28,"[-53.75, -37.0, -14.0, 6.4, 27.25]",5,46.2,36.5,0.07,天津
2016,0.02,0.11,0.0,0.0,0.0,0.87,0.3,"[-57.0, -49.0, -42.5, -16.8, 16.75]",5,91.4,41.5,-0.11,石家庄
2016,0.34,0.03,0.07,0.19,0.1,0.27,0.22,"[-58.0, -29.0, -12.5, 0.0, 28.0]",0,-34.7,38.2,0.08,德州
2016,0.02,0.0,0.0,0.34,0.1,0.54,0.3,"[-69.0, -56.2, -41.5, -28.0, 22.75]",5,85.5,44.5,-0.07,邢台
2016,0.02,0.03,0.0,0.0,0.1,0.85,0.17,"[-76.0, -28.6, -12.5, -1.8, 27.0]",5,117.9,46.4,-0.25,安阳
2016,0.02,0.04,0.18,0.25,0.06,0.45,0.37,"[-54.5, -41.0, -25.0, -6.0, 17.5]",5,7.6,47.9,-0.02,烟台
2016,0.05,0.03,0.01,0.09,0.09,0.73,0.36,"[-57.5, -35.2, -13.5, 1.4, 22.75]",5,56.6,60.7,0.06,青岛
2016,0.11,0.0,0.69,0.0,0.2,0.0,0.24,"[-55.25, -40.6, -15.5, -0.4, 21.0]",2,-15.3,46.1,-0.41,潍坊
2016,0.0,0.0,0.28,0.02,0.33,0.37,0.28,"[-70.0, -52.4, -39.0, -26.2, 1.5]",5,68.7,64.2,-0.02,济南
2016,0.01,0.0,0.0,0.02,0.14,0.83,0.19,"[-67.5, -40.0, -35.5, -16.6, 18.75]",5,115.1,76.4,-0.11,临沂
2016,0.0,0.02,0.0,0.25,0.16,0.57,0.26,"[-65.0, -35.6, -25.0, -8.8, 13.0]",5,121.6,59.2,0.0,荷泽
2016,0.29,0.19,0.24,0.01,0.27,0.0,0.29,"[-57.75, -29.4, -15.5, 8.0, 31.0]",0,-23.7,62.9,0.01,新浦
2016,0.3,0.55,0.03,0.0,0.11,0.01,0.34,"[-38.0, -26.6, -10.5, 22.0, 48.25]",1,-26.7,64.1,0.07,清江
2016,0.14,0.56,0.01,0.0,0.06,0.23,0.19,"[-69.0, -50.0, -28.5, -6.2, 21.5]",1,-34.3,68.9,0.01,徐州
2016,0.56,0.22,0.03,0.06,0.01,0.12,0.34,"[-50.5, -35.2, -14.5, 5.2, 39.75]",0,-45.9,72.4,-0.11,蚌埠
2016,0.0,0.44,0.0,0.04,0.0,0.52,0.24,"[-47.0, -22.0, -8.0, 12.4, 42.0]",5,31.6,85.9,-0.05,阜阳
2016,0.0,0.22,0.01,0.07,0.01,0.69,0.34,"[-66.0, -50.8, -43.0, -30.2, 6.25]",5,104.6,63.8,0.02,郑州
2016,0.0,0.0,0.03,0.0,0.0,0.97,0.18,"[-49.75, -25.8, -15.0, -6.0, 15.0]",5,191.0,78.5,-0.34,南阳
2016,0.23,0.17,0.05,0.04,0.24,0.27,0.25,"[-31.5, -16.0, -2.5, 8.6, 33.0]",5,10.7,113.7,0.4,信阳
2016,0.0,0.0,0.0,1.0,0.0,0.0,0.38,"[-37.75, -22.6, -13.0, -1.4, 12.0]",3,-8.0,83.9,0.16,东台
2016,0.69,0.0,0.01,0.0,0.3,0.0,0.29,"[-50.25, -20.4, -1.0, 9.4, 43.25]",0,-36.3,87.3,-0.04,南京
2016,0.02,0.0,0.02,0.03,0.48,0.45,0.27,"[-38.0, -21.0, 1.5, 14.6, 38.0]",4,41.5,92.0,0.03,合肥
2016,0.33,0.23,0.16,0.07,0.12,0.09,0.42,"[-28.25, -8.6, 7.0, 26.8, 51.5]",0,7.8,91.6,0.15,上海
2016,0.39,0.23,0.03,0.1,0.19,0.06,0.28,"[-14.75, -5.2, 12.0, 20.8, 40.25]",0,-6.0,128.8,-0.08,杭州
2016,0.42,0.27,0.02,0.2,0.04,0.05,0.14,"[-29.25, -12.6, 2.5, 21.0, 48.5]",0,-7.8,166.8,-0.04,安庆
2016,0.41,0.18,0.15,0.02,0.14,0.1,0.31,"[-25.0, -16.8, -10.5, 0.2, 26.0]",0,10.8,227.7,-0.02,屯溪
2016,0.09,0.01,0.01,0.0,0.4,0.49,0.36,"[-25.25, -8.6, 6.0, 11.8, 26.75]",5,69.7,185.9,0.37,九江
2016,0.0,0.08,0.0,0.0,0.3,0.62,0.31,"[-32.0, -13.0, -7.0, 2.0, 17.25]",5,47.4,167.1,0.08,汉口
2016,0.06,0.01,0.05,0.0,0.16,0.72,0.38,"[-25.75, -12.8, -2.0, 8.8, 22.25]",5,109.2,117.3,0.31,钟祥
2016,0.01,0.12,0.35,0.12,0.18,0.22,0.36,"[-24.0, -10.6, 4.5, 12.8, 27.0]",2,11.0,175.7,0.14,岳阳
2016,0.01,0.04,0.07,0.08,0.01,0.79,0.39,"[-21.75, -3.6, 5.5, 11.8, 28.0]",5,31.3,126.8,0.13,宜昌
2016,0.09,0.01,0.22,0.0,0.23,0.45,0.33,"[-26.5, -14.0, 0.0, 13.4, 45.25]",5,55.4,172.7,0.08,常德
2016,0.32,0.39,0.0,0.03,0.2,0.06,0.3,"[-23.0, 0.2, 6.5, 17.2, 40.5]",1,-16.7,113.9,-0.04,宁波
2016,0.38,0.12,0.06,0.01,0.26,0.17,0.36,"[-20.0, -1.8, 17.5, 30.8, 50.0]",0,20.7,209.2,0.13,衢县
2016,0.03,0.43,0.02,0.09,0.13,0.3,0.27,"[-27.5, -9.6, 0.0, 12.2, 28.5]",1,24.3,194.3,-0.11,温州
2016,0.1,0.0,0.11,0.0,0.35,0.44,0.26,"[-31.25, -4.6, 10.5, 25.0, 46.25]",5,94.5,246.5,-0.07,浦城
2016,0.01,0.0,0.01,0.07,0.11,0.8,0.37,"[-21.75, 2.0, 9.0, 15.8, 35.5]",5,56.9,188.8,0.11,福州
2016,0.33,0.0,0.0,0.0,0.67,0.0,0.09,"[-25.25, -7.8, 1.0, 10.8, 29.0]",4,-10.9,253.2,-0.32,永安
2016,0.04,0.14,0.0,0.06,0.35,0.41,0.34,"[-22.0, -6.2, 2.0, 18.6, 38.75]",5,42.0,255.9,-0.04,贵溪
2016,0.13,0.3,0.18,0.1,0.06,0.23,0.38,"[-16.5, 4.0, 12.5, 19.8, 43.0]",1,30.3,222.4,0.17,南昌
2016,0.0,0.0,0.0,0.67,0.33,0.0,0.28,"[-16.5, 2.0, 7.5, 12.8, 45.75]",3,13.2,256.0,-0.34,广昌
2016,0.14,0.57,0.06,0.0,0.19,0.04,0.24,"[-15.5, -1.0, 7.5, 17.8, 44.75]",1,-5.9,211.6,0.09,吉安
2016,0.0,0.03,0.0,0.02,0.22,0.73,0.27,"[-21.25, -14.2, -2.5, 12.8, 34.25]",5,44.8,220.8,-0.05,赣州
2016,0.14,0.54,0.0,0.27,0.05,0.0,0.17,"[-19.0, -2.6, 8.0, 21.6, 42.25]",1,-16.0,189.1,-0.16,长沙
2016,0.14,0.17,0.2,0.04,0.0,0.45,0.22,"[-33.5, -8.8, 0.0, 11.0, 27.5]",5,24.9,199.9,-0.36,衡阳
2016,0.76,0.0,0.0,0.24,0.0,0.0,0.2,"[-18.25, -0.8, 2.5, 12.0, 29.0]",0,-27.8,187.5,-0.51,郴县
2016,0.14,0.16,0.07,0.39,0.19,0.05,0.3,"[-28.75, -8.2, 5.5, 15.8, 49.25]",3,1.6,191.9,0.14,零陵
2016,0.18,0.11,0.21,0.02,0.12,0.36,0.4,"[-14.0, -0.6, 9.0, 14.8, 28.25]",5,20.2,187.0,0.11,芷江
2016,0.03,0.04,0.09,0.18,0.3,0.36,0.23,"[-36.5, -22.2, -11.0, -2.2, 25.0]",5,10.8,173.0,0.14,夏门
2016,0.0,0.85,0.0,0.0,0.0,0.15,0.23,"[-15.5, 2.0, 8.0, 30.0, 56.0]",1,9.5,182.5,-0.57,梅县
2016,0.22,0.15,0.23,0.02,0.25,0.13,0.23,"[-41.5, -19.8, -5.0, 4.8, 37.25]",4,-1.2,206.3,0.02,汕头
2016,0.0,0.0,0.0,0.0,0.0,1.0,0.33,"[-23.0, -8.6, 1.5, 15.0, 35.25]",5,91.4,247.9,0.0,曲江
2016,0.0,1.0,0.0,0.0,0.0,0.0,0.24,"[-26.75, -7.0, 4.5, 19.2, 50.5]",1,-17.5,291.9,-0.56,河源
2016,0.0,0.0,0.31,0.0,0.0,0.69,0.3,"[-20.5, -7.0, 6.5, 14.4, 36.75]",5,37.0,247.4,0.02,广州
2016,0.0,0.03,0.0,0.0,0.08,0.89,0.3,"[-47.0, -39.8, -27.0, -4.8, 20.25]",5,168.6,432.5,-0.05,阳江
2016,0.25,0.16,0.04,0.05,0.0,0.5,0.26,"[-43.25, -23.0, -12.5, -5.2, 9.75]",5,-13.6,210.2,0.05,湛江
2016,0.34,0.37,0.08,0.06,0.09,0.06,0.31,"[-23.5, -14.8, -5.0, 5.8, 22.25]",1,-16.5,186.8,0.25,海口
2016,0.0,0.0,0.0,0.0,0.0,1.0,0.34,"[-22.0, -10.4, 1.0, 16.4, 30.0]",5,54.1,323.2,0.01,桂林
2016,0.0,0.0,0.04,0.16,0.32,0.48,0.3,"[-29.0, -14.8, -3.5, 7.4, 23.25]",5,23.1,238.6,-0.15,柳州
2016,0.0,0.46,0.0,0.0,0.52,0.02,0.31,"[-18.25, -7.0, 2.5, 10.6, 28.0]",4,-8.3,248.3,0.14,悟州
2016,0.36,0.31,0.18,0.06,0.06,0.03,0.34,"[-27.25, -12.8, -4.5, 3.0, 18.0]",0,-16.7,176.3,0.02,南宁
2016,0.0,0.02,0.0,0.0,0.84,0.14,0.21,"[-37.0, -23.6, -7.5, 3.0, 27.0]",4,30.1,133.6,-0.51,北海
2016,0.0,0.0,0.86,0.0,0.0,0.14,0.26,"[-31.0, -15.6, 0.5, 14.6, 46.0]",2,-0.7,147.2,-0.62,百色
2016,0.09,0.1,0.03,0.19,0.4,0.19,0.34,"[-14.25, 2.4, 10.5, 16.6, 25.75]",4,33.3,153.4,0.07,遵义
2016,0.38,0.17,0.04,0.29,0.05,0.07,0.44,"[-17.25, 2.2, 10.5, 25.8, 48.0]",0,-11.2,151.0,0.38,贵阳
2016,0.46,0.0,0.03,0.08,0.14,0.29,0.23,"[-21.25, -8.6, 0.5, 11.4, 40.0]",0,3.7,96.7,0.05,毕节
2016,0.34,0.52,0.01,0.1,0.0,0.03,0.19,"[-26.25, -10.8, 3.0, 13.0, 26.5]",1,-19.7,159.7,-0.16,兴仁
2016,0.18,0.11,0.0,0.01,0.25,0.45,0.23,"[-20.0, -9.8, -3.0, 10.8, 27.5]",5,22.0,190.3,-0.02,榕江
2016,0.07,0.0,0.0,0.0,0.0,0.93,0.27,"[-21.75, -11.8, -5.5, 4.8, 25.25]",5,70.7,187.1,0.0,恩施
2016,0.01,0.05,0.34,0.04,0.4,0.16,0.3,"[-30.0, -21.6, -10.5, 1.8, 23.25]",4,48.6,163.1,-0.15,达县
2016,0.02,0.13,0.05,0.04,0.14,0.62,0.28,"[-23.0, -6.0, 1.0, 11.0, 24.0]",5,53.4,191.9,0.18,酉阳
2016,0.57,0.0,0.0,0.43,0.0,0.0,0.12,"[-34.0, -15.0, -3.0, 10.0, 27.25]",0,-22.1,149.0,-0.4,重庆
2016,0.01,0.0,0.13,0.0,0.35,0.51,0.31,"[-33.75, -20.0, -8.0, 6.0, 48.0]",5,64.0,116.5,-0.08,南充
2016,0.08,0.02,0.06,0.03,0.12,0.69,0.29,"[-34.25, -23.8, -14.0, -5.0, 16.25]",5,15.3,112.1,0.13,内江
2016,0.01,0.01,0.0,0.0,0.01,0.97,0.36,"[-41.5, -27.2, -16.0, -3.2, 21.25]",5,210.0,80.3,0.16,绵阳
2016,0.0,0.0,0.0,0.56,0.0,0.44,0.25,"[-29.75, -8.6, 2.5, 11.0, 41.5]",3,29.0,76.5,-0.72,成都
2016,0.3,0.11,0.31,0.04,0.08,0.16,0.31,"[-29.0, -19.6, -6.5, 11.2, 36.5]",2,-13.2,100.7,0.12,宜宾
2016,0.01,0.05,0.28,0.19,0.23,0.24,0.39,"[-22.0, -13.0, -6.5, 1.8, 20.25]",2,56.8,130.2,0.15,雅安
2016,0.36,0.28,0.04,0.05,0.14,0.13,0.34,"[-25.5, -14.4, -7.0, 2.0, 20.0]",0,-15.4,109.7,0.04,康定
2016,0.13,0.08,0.01,0.01,0.77,0.0,0.3,"[-44.25, -19.8, -13.5, 6.2, 29.25]",4,7.1,87.1,-0.18,西昌
2016,0.0,0.0,0.0,0.04,0.0,0.96,0.28,"[-52.5, -38.0, -29.5, -18.6, 6.5]",5,38.7,91.5,-0.21,会理
2016,0.52,0.43,0.01,0.02,0.02,0.0,0.33,"[-55.0, -32.6, -24.0, 3.8, 38.5]",0,-51.0,64.2,0.08,丽江
2016,0.54,0.34,0.03,0.0,0.06,0.03,0.3,"[-67.0, -45.6, -30.0, -13.6, 6.0]",0,-57.9,90.8,0.09,大理
2016,0.22,0.14,0.02,0.02,0.15,0.45,0.36,"[-59.5, -38.0, -25.0, -11.6, 20.0]",5,19.0,93.7,0.23,保山
2016,0.38,0.24,0.17,0.05,0.04,0.12,0.27,"[-49.25, -25.0, -7.0, 9.8, 38.75]",0,-33.7,86.2,0.2,昆明
2016,0.42,0.04,0.02,0.08,0.43,0.01,0.41,"[-58.25, -34.4, -11.5, -1.2, 20.75]",4,-36.3,107.3,-0.02,临沧
2016,0.0,0.23,0.0,0.0,0.04,0.73,0.17,"[-43.0, -25.0, -13.5, 1.4, 35.0]",5,52.1,102.6,-0.09,蒙自
2016,0.06,0.17,0.0,0.06,0.28,0.43,0.34,"[-46.5, -32.0, -16.5, -5.0, 28.25]",5,49.1,144.7,0.05,景洪
2016,0.29,0.19,0.04,0.05,0.01,0.42,0.22,"[-21.75, -11.6, -3.0, 6.8, 12.25]",5,-0.6,77.6,0.25,甘孜
2016,0.33,0.45,0.14,0.0,0.07,0.01,0.27,"[-62.0, -47.0, -13.5, 1.6, 25.5]",1,-46.8,63.0,-0.1,德钦
2016,0.05,0.1,0.03,0.11,0.0,0.71,0.33,"[-31.0, -15.0, -5.5, 8.0, 25.5]",5,126.0,41.7,0.09,昌都
2016,0.12,0.04,0.05,0.04,0.29,0.46,0.36,"[-63.0, -35.0, -30.0, 0.8, 18.75]",5,52.8,29.2,0.08,拉萨
2016,0.0,0.23,0.0,0.0,0.1,0.67,0.25,"[-35.0, -18.0, -4.0, 16.4, 49.5]",5,66.8,53.7,-0.45,西安
2016,0.05,0.21,0.01,0.16,0.12,0.45,0.24,"[-37.5, -18.4, -4.0, 7.6, 31.0]",5,29.6,54.8,0.11,天水
2016,0.02,0.1,0.02,0.34,0.18,0.34,0.42,"[-25.5, -9.0, 7.0, 20.0, 37.0]",3,22.9,73.6,0.21,岷县
2016,0.0,0.0,0.0,0.22,0.08,0.7,0.18,"[-31.75, -13.8, -3.5, 1.8, 30.5]",5,128.1,89.4,-0.2,汉中
2016,0.0,0.0,0.0,0.0,0.0,1.0,0.12,"[-27.0, -2.8, 6.5, 14.0, 27.5]",5,43.1,87.9,-0.83,安康
2016,0.0,0.03,0.01,0.0,0.34,0.62,0.32,"[-40.0, -20.6, -9.5, 3.6, 26.75]",5,37.5,84.0,0.04,郧县
2016,0.01,0.07,0.11,0.33,0.12,0.36,0.22,"[-53.0, -29.2, -17.0, -1.2, 23.0]",5,47.2,51.1,-0.12,长治
2016,0.0,0.21,0.07,0.41,0.09,0.22,0.4,"[-60.0, -43.0, -28.0, -8.6, 18.0]",3,2.9,37.4,0.28,太原
2016,0.0,0.04,0.14,0.03,0.05,0.74,0.28,"[-64.75, -31.0, -16.0, -4.0, 22.0]",5,87.3,39.2,-0.03,临汾
2016,0.13,0.0,0.04,0.01,0.03,0.79,0.2,"[-66.0, -48.0, -25.5, -14.0, 16.5]",5,117.4,34.8,0.1,榆林
2016,0.04,0.0,0.0,0.09,0.0,0.87,0.36,"[-51.25, -29.0, -6.5, 5.0, 48.25]",5,207.3,42.9,0.11,延安
2016,0.0,0.08,0.0,0.01,0.28,0.63,0.29,"[-37.5, -24.0, -11.0, 0.0, 56.5]",5,51.4,48.9,0.11,西峰镇
2016,1.0,0.0,0.0,0.0,0.0,0.0,0.22,"[-47.75, -26.0, -17.5, 1.6, 34.75]",0,-84.5,38.1,-0.47,兰州
2016,0.02,0.27,0.01,0.11,0.03,0.56,0.34,"[-65.0, -40.0, -13.5, -6.0, 34.0]",5,48.3,20.1,0.13,中宁
2016,0.01,0.1,0.0,0.0,0.02,0.87,0.32,"[-76.0, -64.0, -51.0, -43.0, 11.25]",5,133.4,24.7,0.15,银川
2016,0.02,0.01,0.01,0.0,0.64,0.32,0.34,"[-41.5, -29.0, -14.0, -9.2, 18.5]",4,15.9,52.5,0.02,西宁
2016,0.48,0.09,0.0,0.18,0.07,0.18,0.39,"[-42.5, -16.8, -10.5, 5.4, 26.5]",0,-42.6,64.1,0.1,临夏
2016,0.01,0.0,0.21,0.42,0.11,0.25,0.16,"[-43.0, -25.4, -17.0, -8.0, 16.75]",3,10.5,33.6,-0.1,玛多
2016,0.11,0.39,0.01,0.11,0.14,0.24,0.23,"[-24.0, -8.0, -3.0, 8.0, 31.0]",1,15.1,54.1,0.11,玉树
2016,0.33,0.33,0.02,0.04,0.18,0.1,0.31,"[-61.0, -27.0, -11.0, -6.0, 17.5]",0,-24.4,18.1,0.32,武威
2016,0.0,0.0,0.0,0.01,0.0,0.99,0.18,"[-64.0, -47.6, -27.0, -6.0, 41.75]",5,150.1,13.8,-0.05,张掖
2016,0.6,0.16,0.12,0.0,0.11,0.01,0.27,"[-88.0, -76.0, -64.0, -17.0, 42.0]",0,-81.4,8.4,-0.37,酒泉
2016,,0.22,,0.0,0.59,0.19,0.53,"[-100.0, -81.0, -81.0, -45.8, -3.0]",4,125.8,5.1,0.06,敦煌
2016,,0.04,,,0.03,0.93,0.5,"[-100.0, -100.0, -100.0, -100.0, -32.0]",5,225.3,1.5,-0.07,吐鲁番
2016,0.15,0.01,0.0,0.37,0.24,0.23,0.28,"[-89.0, -78.0, -67.0, -56.0, -9.25]",3,52.8,9.1,-0.04,库车
2016,0.2,0.24,0.08,0.27,0.09,0.12,0.3,"[-91.0, -71.2, -42.0, -21.8, 81.25]",3,-23.7,11.2,0.1,喀什
2016,,0.37,0.02,0.0,0.0,0.61,0.45,"[-100.0, -86.0, -58.0, -33.6, 28.5]",5,87.5,7.2,-0.12,和田
2016,,0.0,0.26,,0.15,0.59,0.45,"[-100.0, -100.0, -74.0, -74.0, -41.5]",5,276.8,3.8,-0.22,且末
2016,,0.56,0.19,,0.21,0.04,0.42,"[-100.0, -100.0, -74.0, -74.0, -48.0]",1,-79.3,3.9,0.14,若羌
2016,,0.01,0.0,,0.37,0.62,0.45,"[-100.0, -72.0, -44.0, -44.0, 47.0]",5,151.2,3.6,0.08,哈密
2016,0.03,0.25,0.01,0.02,0.2,0.49,0.33,"[-63.0, -36.0, -20.0, -7.0, 12.5]",5,36.5,18.9,0.2,阿勒泰
2016,0.03,0.0,0.02,0.02,0.01,0.92,0.31,"[-50.5, -29.2, -18.5, 1.4, 26.5]",5,110.0,31.3,-0.21,塔城
2016,0.0,0.0,0.0,0.01,0.02,0.97,0.23,"[-35.0, -23.2, -12.0, -5.0, 7.0]",5,66.8,26.2,-0.15,乌苏
2016,0.08,0.22,0.04,0.05,0.17,0.44,0.39,"[-47.0, -27.0, -16.5, -2.6, 29.75]",5,17.0,31.7,0.35,伊宁
2016,0.06,0.09,0.01,0.0,0.0,0.84,0.31,"[-47.75, -35.0, -20.0, -7.0, 10.75]",5,82.5,39.9,0.05,乌鲁木齐
