,0,1,2,3,4,5,classifier_score,divider,fcst_grade,fcst_y,norm,regressor_score,site
2016,0.08,0.09,0.1,0.16,0.17,0.4,0.31,"[-45.5, -21.2, -11.0, -0.4, 35.5]",5,1.2,43.8,0.1,呼玛
2016,0.24,0.17,0.05,0.02,0.09,0.43,0.28,"[-41.75, -25.0, -4.5, 9.0, 63.75]",5,57.5,32.0,0.17,博克图
2016,0.36,0.42,0.01,0.02,0.16,0.03,0.23,"[-49.0, -19.0, 1.0, 16.0, 56.25]",1,-33.3,23.3,-0.17,海拉尔
2016,0.23,0.02,0.0,0.09,0.0,0.66,0.27,"[-26.0, 3.8, 25.0, 42.0, 82.0]",5,105.8,25.3,0.27,图里河
2016,0.38,0.15,0.27,0.02,0.06,0.12,0.31,"[-44.0, -12.4, -2.0, 9.0, 40.75]",0,-16.2,35.7,0.15,嫩江
2016,0.24,0.69,0.05,0.01,0.0,0.01,0.18,"[-50.75, -34.0, -21.0, 11.2, 56.5]",1,-55.2,31.8,-0.37,齐齐哈尔
2016,0.06,0.19,0.05,0.03,0.2,0.47,0.28,"[-42.5, -23.6, -18.0, 5.6, 24.25]",5,83.5,44.9,0.07,海伦
2016,0.0,0.0,0.0,0.0,0.31,0.69,0.22,"[-38.5, -20.6, -2.0, 18.0, 35.0]",5,61.0,46.8,-0.17,富锦
2016,0.31,0.49,0.0,0.07,0.13,0.0,0.25,"[-36.0, -21.6, -9.0, 8.6, 28.5]",1,-34.4,48.5,0.09,佳木斯
2016,0.33,0.22,0.08,0.08,0.15,0.15,0.28,"[-37.75, -10.6, -2.0, 6.6, 23.5]",0,-14.4,55.1,0.1,鸡西
2016,0.0,0.07,0.0,0.0,0.02,0.91,0.31,"[-38.75, -19.0, -4.0, 1.0, 33.75]",5,66.4,39.5,-0.18,哈尔滨
2016,0.43,0.14,0.11,0.03,0.25,0.04,0.34,"[-39.5, -25.0, -18.5, -3.0, 27.0]",0,-32.3,57.7,0.11,牡丹江
2016,0.1,0.06,0.02,0.17,0.33,0.32,0.33,"[-75.0, -24.2, -9.0, 8.8, 36.75]",4,82.5,31.8,-0.03,乌兰浩特
2016,0.02,0.38,0.07,0.15,0.1,0.28,0.25,"[-47.0, -15.4, -6.0, 20.0, 37.75]",1,45.3,29.9,0.16,通辽
2016,0.03,0.11,0.21,0.03,0.09,0.53,0.32,"[-41.0, -27.0, -8.0, 0.6, 15.0]",5,136.3,50.4,-0.14,长春
2016,0.59,0.06,0.01,0.0,0.11,0.23,0.3,"[-44.75, -30.0, -18.0, -5.4, 25.75]",0,-34.0,58.9,0.07,延吉
2016,0.68,0.15,0.0,0.0,0.0,0.17,0.29,"[-36.25, -21.0, -14.5, -2.6, 15.75]",0,-38.2,82.7,0.06,通化
2016,0.2,0.03,0.04,0.13,0.07,0.53,0.39,"[-38.0, -12.6, 3.0, 17.8, 49.5]",5,38.7,53.1,0.24,沈阳
2016,0.0,0.0,0.0,0.0,0.03,0.97,0.15,"[-47.0, -33.0, -26.0, -16.4, 12.5]",5,152.0,43.8,0.07,朝阳
2016,0.06,0.6,0.0,0.0,0.34,0.0,0.26,"[-52.5, -31.6, -19.5, -9.4, 9.75]",1,-32.0,56.0,-0.22,营口
2016,0.02,0.1,0.07,0.12,0.52,0.17,0.36,"[-53.0, -31.6, -18.0, -11.0, 10.5]",4,21.8,79.5,0.2,丹东
2016,0.03,0.19,0.02,0.32,0.13,0.31,0.36,"[-62.5, -33.6, -20.0, -10.4, 25.5]",3,42.3,49.9,0.14,大连
2016,0.63,0.28,0.01,0.08,0.0,0.0,0.3,"[-60.0, -36.0, -22.0, -9.6, 41.0]",0,-72.9,25.1,-0.22,林东
2016,0.02,0.19,0.0,0.01,0.38,0.4,0.23,"[-62.0, -33.0, -14.0, -0.8, 50.0]",5,115.4,23.9,0.24,锡林浩特
2016,0.55,0.15,0.01,0.0,0.04,0.25,0.31,"[-54.0, -36.0, -25.0, -7.0, 34.5]",0,-25.7,17.2,0.06,朱日和
2016,0.11,0.1,0.08,0.0,0.51,0.2,0.31,"[-36.0, -18.2, -5.0, 5.0, 23.75]",4,34.4,29.5,0.11,多伦
2016,0.18,0.0,0.0,0.05,0.06,0.71,0.23,"[-49.0, -35.6, -27.5, -14.0, 22.0]",5,15.0,39.3,-0.1,赤峰
2016,0.0,0.03,0.0,0.15,0.19,0.63,0.32,"[-46.0, -29.0, -15.0, -2.4, 33.0]",5,53.5,49.2,0.06,承德
2016,0.33,0.02,0.0,0.0,0.26,0.39,0.19,"[-49.75, -23.2, -7.0, -1.0, 29.75]",5,36.8,33.3,-0.07,张家口
2016,0.09,0.02,0.12,0.0,0.05,0.72,0.32,"[-66.75, -48.8, -16.0, 2.4, 40.0]",5,85.5,32.1,0.1,呼和浩特
2016,0.12,0.0,0.0,0.03,0.13,0.72,0.3,"[-73.0, -60.0, -40.0, 0.2, 41.0]",5,94.6,24.9,0.42,包头
2016,0.07,0.12,0.0,0.02,0.12,0.67,0.28,"[-82.0, -65.0, -56.0, -21.0, 32.0]",5,95.9,11.3,0.11,陕坝
2016,0.0,0.07,0.07,0.03,0.24,0.59,0.17,"[-65.0, -32.6, -18.5, -8.0, 14.5]",5,43.0,37.6,0.15,北京
2016,0.05,0.04,0.0,0.52,0.17,0.22,0.26,"[-53.75, -37.0, -14.0, 6.4, 27.25]",3,62.4,36.5,0.06,天津
2016,0.05,0.21,0.03,0.02,0.07,0.62,0.33,"[-57.0, -49.0, -42.5, -16.8, 16.75]",5,88.3,41.5,-0.13,石家庄
2016,0.36,0.03,0.13,0.12,0.08,0.28,0.25,"[-58.0, -29.0, -12.5, 0.0, 28.0]",0,-23.3,38.2,0.17,德州
2016,0.03,0.0,0.01,0.32,0.2,0.44,0.3,"[-69.0, -56.2, -41.5, -28.0, 22.75]",5,87.4,44.5,0.11,邢台
2016,0.05,0.27,0.01,0.01,0.11,0.55,0.2,"[-76.0, -28.6, -12.5, -1.8, 27.0]",5,102.2,46.4,-0.23,安阳
2016,0.3,0.09,0.23,0.07,0.21,0.1,0.35,"[-54.5, -41.0, -25.0, -6.0, 17.5]",0,-2.9,47.9,-0.02,烟台
2016,0.05,0.05,0.09,0.15,0.24,0.42,0.35,"[-57.5, -35.2, -13.5, 1.4, 22.75]",5,42.3,60.7,0.05,青岛
2016,0.15,0.0,0.59,0.01,0.25,0.0,0.21,"[-55.25, -40.6, -15.5, -0.4, 21.0]",2,-17.6,46.1,-0.38,潍坊
2016,0.01,0.04,0.35,0.01,0.22,0.37,0.21,"[-70.0, -52.4, -39.0, -26.2, 1.5]",5,53.9,64.2,0.03,济南
2016,0.01,0.02,0.0,0.18,0.42,0.37,0.22,"[-67.5, -40.0, -35.5, -16.6, 18.75]",4,71.6,76.4,-0.23,临沂
2016,0.0,0.06,0.02,0.22,0.28,0.42,0.31,"[-65.0, -35.6, -25.0, -8.8, 13.0]",5,81.3,59.2,-0.03,荷泽
2016,0.1,0.17,0.43,0.0,0.3,0.0,0.25,"[-57.75, -29.4, -15.5, 8.0, 31.0]",2,-27.4,62.9,0.02,新浦
2016,0.12,0.68,0.08,0.01,0.11,0.0,0.22,"[-38.0, -26.6, -10.5, 22.0, 48.25]",1,-31.5,64.1,0.15,清江
2016,0.37,0.36,0.01,0.01,0.07,0.18,0.12,"[-69.0, -50.0, -28.5, -6.2, 21.5]",0,-50.1,68.9,-0.04,徐州
2016,0.76,0.14,0.02,0.01,0.02,0.05,0.31,"[-50.5, -35.2, -14.5, 5.2, 39.75]",0,-50.6,72.4,-0.05,蚌埠
2016,0.0,0.53,0.0,0.03,0.02,0.42,0.23,"[-47.0, -22.0, -8.0, 12.4, 42.0]",1,14.3,85.9,0.0,阜阳
2016,0.0,0.3,0.05,0.11,0.05,0.49,0.32,"[-66.0, -50.8, -43.0, -30.2, 6.25]",5,73.6,63.8,0.06,郑州
2016,0.01,0.03,0.21,0.05,0.12,0.58,0.2,"[-49.75, -25.8, -15.0, -6.0, 15.0]",5,126.7,78.5,-0.22,南阳
2016,0.2,0.34,0.03,0.0,0.33,0.1,0.27,"[-31.5, -16.0, -2.5, 8.6, 33.0]",1,-5.8,113.7,0.4,信阳
2016,0.0,0.28,0.0,0.61,0.04,0.07,0.36,"[-37.75, -22.6, -13.0, -1.4, 12.0]",3,-9.5,83.9,0.19,东台
2016,0.51,0.0,0.04,0.01,0.43,0.01,0.24,"[-50.25, -20.4, -1.0, 9.4, 43.25]",0,-26.1,87.3,0.06,南京
2016,0.22,0.04,0.05,0.06,0.19,0.44,0.22,"[-38.0, -21.0, 1.5, 14.6, 38.0]",5,22.6,92.0,0.04,合肥
2016,0.3,0.45,0.07,0.13,0.05,0.0,0.36,"[-28.25, -8.6, 7.0, 26.8, 51.5]",1,-8.9,91.6,0.18,上海
2016,0.46,0.18,0.02,0.05,0.2,0.09,0.27,"[-14.75, -5.2, 12.0, 20.8, 40.25]",0,32.4,128.8,0.06,杭州
2016,0.5,0.14,0.0,0.16,0.17,0.03,0.29,"[-29.25, -12.6, 2.5, 21.0, 48.5]",0,-17.5,166.8,0.08,安庆
2016,0.35,0.18,0.09,0.06,0.13,0.19,0.33,"[-25.0, -16.8, -10.5, 0.2, 26.0]",0,39.6,227.7,0.04,屯溪
2016,0.12,0.08,0.01,0.03,0.44,0.32,0.38,"[-25.25, -8.6, 6.0, 11.8, 26.75]",4,73.3,185.9,0.31,九江
2016,0.01,0.1,0.0,0.01,0.31,0.57,0.34,"[-32.0, -13.0, -7.0, 2.0, 17.25]",5,55.5,167.1,0.1,汉口
2016,0.0,0.03,0.52,0.01,0.04,0.4,0.33,"[-25.75, -12.8, -2.0, 8.8, 22.25]",2,52.1,117.3,0.23,钟祥
2016,0.01,0.18,0.32,0.19,0.18,0.12,0.33,"[-24.0, -10.6, 4.5, 12.8, 27.0]",2,13.3,175.7,0.21,岳阳
2016,0.01,0.06,0.17,0.08,0.14,0.54,0.33,"[-21.75, -3.6, 5.5, 11.8, 28.0]",5,40.6,126.8,0.18,宜昌
2016,0.13,0.07,0.11,0.0,0.39,0.3,0.27,"[-26.5, -14.0, 0.0, 13.4, 45.25]",4,49.2,172.7,0.05,常德
2016,0.34,0.29,0.06,0.05,0.18,0.08,0.28,"[-23.0, 0.2, 6.5, 17.2, 40.5]",0,1.6,113.9,-0.04,宁波
2016,0.38,0.12,0.17,0.04,0.2,0.09,0.31,"[-20.0, -1.8, 17.5, 30.8, 50.0]",0,27.9,209.2,0.08,衢县
2016,0.03,0.55,0.02,0.07,0.06,0.27,0.26,"[-27.5, -9.6, 0.0, 12.2, 28.5]",1,28.7,194.3,-0.09,温州
2016,0.26,0.0,0.07,0.0,0.27,0.4,0.23,"[-31.25, -4.6, 10.5, 25.0, 46.25]",5,53.3,246.5,0.05,浦城
2016,0.02,0.04,0.02,0.03,0.02,0.87,0.34,"[-21.75, 2.0, 9.0, 15.8, 35.5]",5,53.7,188.8,0.13,福州
2016,0.02,0.0,0.0,0.0,0.67,0.31,0.09,"[-25.25, -7.8, 1.0, 10.8, 29.0]",4,39.2,253.2,-0.31,永安
2016,0.02,0.12,0.0,0.1,0.35,0.41,0.33,"[-22.0, -6.2, 2.0, 18.6, 38.75]",5,36.4,255.9,-0.11,贵溪
2016,0.13,0.18,0.16,0.09,0.04,0.4,0.36,"[-16.5, 4.0, 12.5, 19.8, 43.0]",5,36.8,222.4,0.11,南昌
2016,0.0,0.01,0.0,0.7,0.01,0.28,0.28,"[-16.5, 2.0, 7.5, 12.8, 45.75]",3,48.3,256.0,-0.22,广昌
2016,0.14,0.58,0.05,0.08,0.12,0.03,0.25,"[-15.5, -1.0, 7.5, 17.8, 44.75]",1,-6.8,211.6,0.12,吉安
2016,0.01,0.0,0.02,0.02,0.31,0.64,0.28,"[-21.25, -14.2, -2.5, 12.8, 34.25]",5,40.6,220.8,0.06,赣州
2016,0.2,0.42,0.02,0.21,0.14,0.01,0.2,"[-19.0, -2.6, 8.0, 21.6, 42.25]",1,-16.5,189.1,-0.22,长沙
2016,0.06,0.09,0.29,0.04,0.01,0.51,0.2,"[-33.5, -8.8, 0.0, 11.0, 27.5]",5,28.7,199.9,-0.21,衡阳
2016,0.69,0.0,0.0,0.31,0.0,0.0,0.25,"[-18.25, -0.8, 2.5, 12.0, 29.0]",0,-22.3,187.5,-0.33,郴县
2016,0.16,0.2,0.05,0.37,0.19,0.03,0.3,"[-28.75, -8.2, 5.5, 15.8, 49.25]",3,-3.3,191.9,0.09,零陵
2016,0.28,0.17,0.18,0.07,0.09,0.21,0.31,"[-14.0, -0.6, 9.0, 14.8, 28.25]",0,9.0,187.0,0.04,芷江
2016,0.07,0.14,0.09,0.19,0.41,0.1,0.27,"[-36.5, -22.2, -11.0, -2.2, 25.0]",4,11.0,173.0,0.06,夏门
2016,0.09,0.73,0.0,0.0,0.0,0.18,0.21,"[-15.5, 2.0, 8.0, 30.0, 56.0]",1,7.0,182.5,-0.43,梅县
2016,0.17,0.14,0.2,0.09,0.28,0.12,0.2,"[-41.5, -19.8, -5.0, 4.8, 37.25]",4,9.6,206.3,-0.01,汕头
2016,0.0,0.01,0.0,0.0,0.03,0.96,0.35,"[-23.0, -8.6, 1.5, 15.0, 35.25]",5,110.8,247.9,-0.05,曲江
2016,0.03,0.72,0.23,0.0,0.02,0.0,0.25,"[-26.75, -7.0, 4.5, 19.2, 50.5]",1,-13.9,291.9,-0.39,河源
2016,0.06,0.03,0.39,0.02,0.04,0.46,0.33,"[-20.5, -7.0, 6.5, 14.4, 36.75]",5,107.7,247.4,0.05,广州
2016,0.02,0.17,0.02,0.02,0.09,0.68,0.27,"[-47.0, -39.8, -27.0, -4.8, 20.25]",5,130.7,432.5,-0.05,阳江
2016,0.18,0.15,0.07,0.18,0.02,0.4,0.25,"[-43.25, -23.0, -12.5, -5.2, 9.75]",5,-15.0,210.2,0.04,湛江
2016,0.21,0.48,0.15,0.06,0.05,0.05,0.31,"[-23.5, -14.8, -5.0, 5.8, 22.25]",1,-10.2,186.8,0.23,海口
2016,0.0,0.0,0.01,0.25,0.1,0.64,0.34,"[-22.0, -10.4, 1.0, 16.4, 30.0]",5,34.6,323.2,0.16,桂林
2016,0.04,0.0,0.04,0.28,0.24,0.4,0.23,"[-29.0, -14.8, -3.5, 7.4, 23.25]",5,16.0,238.6,-0.11,柳州
2016,0.0,0.5,0.03,0.0,0.43,0.04,0.3,"[-18.25, -7.0, 2.5, 10.6, 28.0]",1,2.0,248.3,0.12,悟州
2016,0.28,0.4,0.26,0.01,0.04,0.01,0.31,"[-27.25, -12.8, -4.5, 3.0, 18.0]",1,-19.4,176.3,0.13,南宁
2016,0.05,0.1,0.03,0.09,0.61,0.12,0.28,"[-37.0, -23.6, -7.5, 3.0, 27.0]",4,6.7,133.6,-0.2,北海
2016,0.19,0.0,0.74,0.0,0.0,0.07,0.28,"[-31.0, -15.6, 0.5, 14.6, 46.0]",2,-14.4,147.2,-0.48,百色
2016,0.06,0.13,0.06,0.12,0.4,0.23,0.3,"[-14.25, 2.4, 10.5, 16.6, 25.75]",4,32.4,153.4,0.07,遵义
2016,0.34,0.21,0.01,0.35,0.05,0.04,0.33,"[-17.25, 2.2, 10.5, 25.8, 48.0]",3,-11.1,151.0,0.39,贵阳
2016,0.42,0.01,0.03,0.21,0.13,0.2,0.2,"[-21.25, -8.6, 0.5, 11.4, 40.0]",0,12.5,96.7,0.03,毕节
2016,0.32,0.45,0.05,0.1,0.01,0.07,0.16,"[-26.25, -10.8, 3.0, 13.0, 26.5]",1,-17.3,159.7,-0.29,兴仁
2016,0.21,0.19,0.03,0.01,0.3,0.26,0.2,"[-20.0, -9.8, -3.0, 10.8, 27.5]",4,9.6,190.3,-0.1,榕江
2016,0.01,0.22,0.06,0.0,0.0,0.71,0.27,"[-21.75, -11.8, -5.5, 4.8, 25.25]",5,52.2,187.1,0.14,恩施
2016,0.01,0.01,0.44,0.09,0.26,0.19,0.31,"[-30.0, -21.6, -10.5, 1.8, 23.25]",2,37.6,163.1,-0.05,达县
2016,0.02,0.04,0.04,0.07,0.43,0.4,0.31,"[-23.0, -6.0, 1.0, 11.0, 24.0]",4,33.7,191.9,0.21,酉阳
2016,0.64,0.01,0.08,0.24,0.03,0.0,0.13,"[-34.0, -15.0, -3.0, 10.0, 27.25]",0,-29.0,149.0,-0.18,重庆
2016,0.0,0.0,0.15,0.0,0.2,0.65,0.28,"[-33.75, -20.0, -8.0, 6.0, 48.0]",5,64.7,116.5,-0.14,南充
2016,0.09,0.0,0.09,0.1,0.17,0.55,0.29,"[-34.25, -23.8, -14.0, -5.0, 16.25]",5,9.5,112.1,0.08,内江
2016,0.1,0.05,0.02,0.01,0.09,0.73,0.31,"[-41.5, -27.2, -16.0, -3.2, 21.25]",5,151.8,80.3,0.13,绵阳
2016,0.27,0.0,0.0,0.66,0.0,0.07,0.25,"[-29.75, -8.6, 2.5, 11.0, 41.5]",3,-7.1,76.5,-0.49,成都
2016,0.23,0.14,0.22,0.09,0.14,0.18,0.29,"[-29.0, -19.6, -6.5, 11.2, 36.5]",0,-11.7,100.7,0.04,宜宾
2016,0.06,0.16,0.13,0.18,0.1,0.37,0.34,"[-22.0, -13.0, -6.5, 1.8, 20.25]",5,50.5,130.2,0.14,雅安
2016,0.38,0.14,0.13,0.15,0.11,0.09,0.24,"[-25.5, -14.4, -7.0, 2.0, 20.0]",0,-11.4,109.7,-0.02,康定
2016,0.11,0.07,0.04,0.08,0.69,0.01,0.23,"[-44.25, -19.8, -13.5, 6.2, 29.25]",4,-4.6,87.1,-0.09,西昌
2016,0.0,0.09,0.0,0.18,0.0,0.73,0.21,"[-52.5, -38.0, -29.5, -18.6, 6.5]",5,30.7,91.5,-0.11,会理
2016,0.32,0.59,0.03,0.0,0.05,0.01,0.33,"[-55.0, -32.6, -24.0, 3.8, 38.5]",1,-52.1,64.2,0.09,丽江
2016,0.46,0.27,0.04,0.11,0.11,0.01,0.32,"[-67.0, -45.6, -30.0, -13.6, 6.0]",0,-52.7,90.8,0.17,大理
2016,0.1,0.1,0.04,0.02,0.11,0.63,0.31,"[-59.5, -38.0, -25.0, -11.6, 20.0]",5,37.9,93.7,0.16,保山
2016,0.32,0.33,0.05,0.15,0.1,0.05,0.36,"[-49.25, -25.0, -7.0, 9.8, 38.75]",1,-24.0,86.2,0.23,昆明
2016,0.44,0.05,0.03,0.04,0.44,0.0,0.37,"[-58.25, -34.4, -11.5, -1.2, 20.75]",0,-36.1,107.3,-0.01,临沧
2016,0.01,0.2,0.0,0.12,0.11,0.56,0.2,"[-43.0, -25.0, -13.5, 1.4, 35.0]",5,74.2,102.6,-0.05,蒙自
2016,0.07,0.23,0.01,0.07,0.28,0.34,0.34,"[-46.5, -32.0, -16.5, -5.0, 28.25]",5,45.8,144.7,0.03,景洪
2016,0.12,0.22,0.01,0.07,0.05,0.53,0.32,"[-21.75, -11.6, -3.0, 6.8, 12.25]",5,1.3,77.6,0.23,甘孜
2016,0.19,0.47,0.21,0.0,0.09,0.04,0.25,"[-62.0, -47.0, -13.5, 1.6, 25.5]",1,-43.7,63.0,-0.01,德钦
2016,0.15,0.13,0.07,0.18,0.02,0.45,0.33,"[-31.0, -15.0, -5.5, 8.0, 25.5]",5,62.3,41.7,0.12,昌都
2016,0.03,0.02,0.07,0.02,0.31,0.55,0.37,"[-63.0, -35.0, -30.0, 0.8, 18.75]",5,51.8,29.2,0.12,拉萨
2016,0.08,0.11,0.01,0.01,0.42,0.37,0.28,"[-35.0, -18.0, -4.0, 16.4, 49.5]",4,65.3,53.7,-0.11,西安
2016,0.19,0.08,0.18,0.14,0.29,0.12,0.19,"[-37.5, -18.4, -4.0, 7.6, 31.0]",4,5.3,54.8,-0.03,天水
2016,0.01,0.34,0.06,0.19,0.26,0.14,0.34,"[-25.5, -9.0, 7.0, 20.0, 37.0]",1,7.1,73.6,0.23,岷县
2016,0.0,0.05,0.05,0.42,0.17,0.31,0.23,"[-31.75, -13.8, -3.5, 1.8, 30.5]",3,88.4,89.4,-0.12,汉中
2016,0.0,0.0,0.0,0.0,0.18,0.82,0.11,"[-27.0, -2.8, 6.5, 14.0, 27.5]",5,38.8,87.9,-0.55,安康
2016,0.0,0.16,0.01,0.02,0.14,0.67,0.37,"[-40.0, -20.6, -9.5, 3.6, 26.75]",5,33.6,84.0,0.09,郧县
2016,0.0,0.04,0.05,0.33,0.08,0.5,0.22,"[-53.0, -29.2, -17.0, -1.2, 23.0]",5,36.7,51.1,-0.23,长治
2016,0.0,0.18,0.08,0.3,0.08,0.36,0.35,"[-60.0, -43.0, -28.0, -8.6, 18.0]",5,27.4,37.4,0.13,太原
2016,0.0,0.08,0.29,0.08,0.11,0.44,0.26,"[-64.75, -31.0, -16.0, -4.0, 22.0]",5,87.8,39.2,0.08,临汾
2016,0.02,0.01,0.09,0.03,0.07,0.78,0.27,"[-66.0, -48.0, -25.5, -14.0, 16.5]",5,100.7,34.8,0.09,榆林
2016,0.06,0.01,0.02,0.22,0.05,0.64,0.23,"[-51.25, -29.0, -6.5, 5.0, 48.25]",5,177.4,42.9,0.08,延安
2016,0.02,0.13,0.04,0.11,0.31,0.39,0.25,"[-37.5, -24.0, -11.0, 0.0, 56.5]",5,27.2,48.9,0.12,西峰镇
2016,0.91,0.09,0.0,0.0,0.0,0.0,0.22,"[-47.75, -26.0, -17.5, 1.6, 34.75]",0,-81.0,38.1,-0.33,兰州
2016,0.03,0.03,0.05,0.25,0.09,0.55,0.36,"[-65.0, -40.0, -13.5, -6.0, 34.0]",5,29.4,20.1,0.19,中宁
2016,0.0,0.12,0.0,0.08,0.09,0.71,0.36,"[-76.0, -64.0, -51.0, -43.0, 11.25]",5,116.4,24.7,0.17,银川
2016,0.05,0.08,0.01,0.0,0.7,0.16,0.4,"[-41.5, -29.0, -14.0, -9.2, 18.5]",4,13.5,52.5,0.07,西宁
2016,0.27,0.13,0.06,0.07,0.22,0.25,0.38,"[-42.5, -16.8, -10.5, 5.4, 26.5]",0,-17.4,64.1,0.12,临夏
2016,0.0,0.0,0.32,0.39,0.09,0.2,0.15,"[-43.0, -25.4, -17.0, -8.0, 16.75]",3,21.0,33.6,-0.11,玛多
2016,0.07,0.32,0.02,0.11,0.22,0.26,0.23,"[-24.0, -8.0, -3.0, 8.0, 31.0]",1,12.0,54.1,0.13,玉树
2016,0.17,0.29,0.05,0.04,0.36,0.09,0.28,"[-61.0, -27.0, -11.0, -6.0, 17.5]",4,-10.7,18.1,0.26,武威
2016,0.0,0.0,0.0,0.27,0.05,0.68,0.28,"[-64.0, -47.6, -27.0, -6.0, 41.75]",5,111.6,13.8,-0.03,张掖
2016,0.46,0.16,0.17,0.11,0.1,0.0,0.11,"[-88.0, -76.0, -64.0, -17.0, 42.0]",0,-74.4,8.4,-0.35,酒泉
2016,,0.14,,0.01,0.43,0.42,0.5,"[-100.0, -81.0, -81.0, -45.8, -3.0]",4,189.7,5.1,0.1,敦煌
2016,,0.02,,,0.22,0.76,0.51,"[-100.0, -100.0, -100.0, -100.0, -32.0]",5,297.6,1.5,0.05,吐鲁番
2016,0.32,0.01,0.0,0.26,0.22,0.19,0.3,"[-89.0, -78.0, -67.0, -56.0, -9.25]",0,172.9,9.1,0.03,库车
2016,0.13,0.21,0.1,0.18,0.13,0.25,0.32,"[-91.0, -71.2, -42.0, -21.8, 81.25]",5,-39.8,11.2,0.12,喀什
2016,,0.49,0.02,0.04,0.01,0.44,0.37,"[-100.0, -86.0, -58.0, -33.6, 28.5]",1,142.2,7.2,-0.21,和田
2016,,0.0,0.29,,0.27,0.44,0.43,"[-100.0, -100.0, -74.0, -74.0, -41.5]",5,313.8,3.8,-0.13,且末
2016,,0.52,0.2,,0.22,0.06,0.42,"[-100.0, -100.0, -74.0, -74.0, -48.0]",1,-27.5,3.9,0.07,若羌
2016,,0.01,0.0,,0.38,0.61,0.45,"[-100.0, -72.0, -44.0, -44.0, 47.0]",5,113.1,3.6,0.15,哈密
2016,0.01,0.23,0.02,0.04,0.11,0.59,0.46,"[-63.0, -36.0, -20.0, -7.0, 12.5]",5,71.3,18.9,0.24,阿勒泰
2016,0.07,0.01,0.08,0.1,0.06,0.68,0.28,"[-50.5, -29.2, -18.5, 1.4, 26.5]",5,90.9,31.3,0.03,塔城
2016,0.0,0.0,0.13,0.03,0.11,0.73,0.25,"[-35.0, -23.2, -12.0, -5.0, 7.0]",5,83.8,26.2,0.04,乌苏
2016,0.16,0.21,0.07,0.03,0.16,0.37,0.39,"[-47.0, -27.0, -16.5, -2.6, 29.75]",5,5.7,31.7,0.38,伊宁
2016,0.1,0.15,0.05,0.14,0.0,0.56,0.33,"[-47.75, -35.0, -20.0, -7.0, 10.75]",5,92.8,39.9,0.15,乌鲁木齐
