\relax 
\providecommand\HyperFirstAtBeginDocument{\AtBeginDocument}
\HyperFirstAtBeginDocument{\ifx\hyper@anchor\@undefined
\global\let\oldcontentsline\contentsline
\gdef\contentsline#1#2#3#4{\oldcontentsline{#1}{#2}{#3}}
\global\let\oldnewlabel\newlabel
\gdef\newlabel#1#2{\newlabelxx{#1}#2}
\gdef\newlabelxx#1#2#3#4#5#6{\oldnewlabel{#1}{{#2}{#3}}}
\AtEndDocument{\ifx\hyper@anchor\@undefined
\let\contentsline\oldcontentsline
\let\newlabel\oldnewlabel
\fi}
\fi}
\global\let\hyper@last\relax 
\gdef\HyperFirstAtBeginDocument#1{#1}
\providecommand*\HyPL@Entry[1]{}
\HyPL@Entry{0<</P(0)>>}
\HyPL@Entry{1<</S/D>>}
\@writefile{toc}{\contentsline {section}{\numberline {1}气候预测的关键科学问题和方法}{2}{section.1}}
\@writefile{toc}{\contentsline {section}{\numberline {2}机器学习 Vs 统计学}{3}{section.2}}
\@writefile{toc}{\contentsline {section}{\numberline {3}机器学习的组合方法}{4}{section.3}}
\@writefile{toc}{\contentsline {section}{\numberline {4}中国降水的气候预测：组合方法的应用}{5}{section.4}}
\@writefile{toc}{\contentsline {section}{\numberline {5}附图}{9}{section.5}}
\expandafter\ifx\csname c@page@totc\endcsname\relax\newcounter{page@totc}\fi\setcounter{page@totc}{10}
\ttl@finishall
