\contentsline {section}{\numberline {1}气候预测的关键科学问题和方法}{2}{section.1}
\contentsline {section}{\numberline {2}机器学习 Vs 统计学}{3}{section.2}
\contentsline {section}{\numberline {3}机器学习的组合方法}{4}{section.3}
\contentsline {section}{\numberline {4}中国降水的气候预测：组合方法的应用}{5}{section.4}
\contentsline {section}{\numberline {5}附图}{9}{section.5}
\contentsfinish 
