,abnorm_percent,fcst_y,real,fcst_grade,0,1,2,3,4,5,site
2012,-12.0,-24.3,2,1,0.07,0.44,0.31,0.04,0.05,0.09,汉中
2013,-6.0,45.4,2,5,0.01,0.08,0.16,0.13,0.11,0.51,汉中
2014,64.0,-14.6,5,3,0.26,0.14,0.11,0.35,0.09,0.05,汉中
2015,-4.0,24.7,2,4,0.0,0.08,0.14,0.09,0.49,0.2,汉中
2016,-26.0,-1.8,1,2,0.15,0.26,0.32,0.15,0.02,0.1,汉中
2012,2.0,32.8,3,4,0.21,0.2,0.02,0.03,0.44,0.1,安康
2013,-66.0,-6.2,0,2,0.04,0.19,0.51,0.04,0.17,0.05,安康
2014,35.0,-3.5,4,2,0.12,0.06,0.51,0.18,0.13,0.0,安康
2015,-17.0,23.2,2,2,0.04,0.0,0.28,0.24,0.2,0.24,安康
2016,28.0,-3.2,4,3,0.17,0.26,0.05,0.28,0.19,0.05,安康
2012,-4.0,-42.9,2,0,0.43,0.41,0.06,0.07,0.0,0.03,郧县
2013,-41.0,12.4,1,4,0.05,0.1,0.23,0.2,0.3,0.12,郧县
2014,48.0,-4.4,4,3,0.06,0.32,0.01,0.45,0.1,0.06,郧县
2015,-52.0,34.8,0,5,0.0,0.13,0.04,0.18,0.16,0.49,郧县
2016,29.0,-2.7,4,4,0.26,0.1,0.18,0.09,0.27,0.1,郧县
