,0,1,2,3,4,5,classifier_score,divider,fcst_grade,fcst_y,norm,regressor_score,site
2016,0.0,1.0,0.0,0.0,0.0,0.0,0.22,"[-50, -20, 0, 20, 50]",1,-43.0,301.9,-0.52,呼玛
2016,0.38,0.08,0.02,0.5,0.02,0.0,0.32,"[-50, -20, 0, 20, 50]",3,-13.0,340.3,-0.03,博克图
2016,0.03,0.04,0.68,0.12,0.12,0.01,0.41,"[-50, -20, 0, 20, 50]",2,-3.1,237.4,0.17,海拉尔
2016,,1.0,0.0,0.0,0.0,0.0,0.24,"[-50, -20, 0, 20, 50]",1,-30.4,293.0,-0.58,图里河
2016,0.01,0.26,0.14,0.37,0.17,0.05,0.26,"[-50, -20, 0, 20, 50]",3,5.2,324.0,-0.07,嫩江
2016,0.0,0.06,0.32,0.24,0.38,0.0,0.28,"[-50, -20, 0, 20, 50]",4,6.4,313.4,0.28,齐齐哈尔
2016,0.0,0.2,0.4,0.02,0.38,0.0,0.22,"[-50, -20, 0, 20, 50]",2,-1.5,366.2,-0.09,海伦
2016,0.01,0.69,0.17,0.05,0.08,0.0,0.31,"[-50, -20, 0, 20, 50]",1,-27.0,296.1,-0.24,富锦
2016,0.01,0.27,0.0,0.27,0.45,0.0,0.39,"[-50, -20, 0, 20, 50]",4,13.4,329.8,0.1,佳木斯
2016,0.0,1.0,0.0,0.0,0.0,0.0,0.4,"[-50, -20, 0, 20, 50]",1,-29.3,334.8,-0.48,鸡西
2016,,0.53,0.33,0.07,0.07,0.0,0.31,"[-50, -20, 0, 20, 50]",1,-18.0,358.5,0.02,哈尔滨
2016,0.1,0.49,0.24,0.17,0.0,0.0,0.33,"[-50, -20, 0, 20, 50]",1,-25.4,345.0,0.01,牡丹江
2016,0.01,0.19,0.29,0.15,0.14,0.22,0.27,"[-50, -20, 0, 20, 50]",2,15.9,319.9,0.04,乌兰浩特
2016,0.08,0.25,0.14,0.16,0.32,0.05,0.31,"[-50, -20, 0, 20, 50]",4,-5.4,259.3,-0.09,通辽
2016,,0.25,0.25,0.5,0.0,0.0,0.2,"[-50, -20, 0, 20, 50]",3,-9.1,396.1,-0.63,长春
2016,0.0,0.12,0.41,0.29,0.18,0.0,0.35,"[-50, -20, 0, 20, 50]",2,-1.4,319.7,-0.35,延吉
2016,,0.04,0.45,0.25,0.11,0.15,0.23,"[-50, -20, 0, 20, 50]",2,17.5,551.3,0.1,通化
2016,0.0,0.02,0.25,0.21,0.41,0.11,0.32,"[-50, -20, 0, 20, 50]",4,26.6,432.5,0.07,沈阳
2016,0.01,0.45,0.45,0.05,0.04,0.0,0.22,"[-50, -20, 0, 20, 50]",1,-23.3,318.6,0.05,朝阳
2016,0.0,1.0,0.0,0.0,0.0,0.0,0.31,"[-50, -20, 0, 20, 50]",1,-31.7,402.7,-0.17,营口
2016,,0.35,0.19,0.21,0.14,0.11,0.32,"[-50, -20, 0, 20, 50]",1,2.1,595.0,0.19,丹东
2016,0.01,0.24,0.07,0.12,0.22,0.34,0.27,"[-50, -20, 0, 20, 50]",5,30.0,352.2,0.38,大连
2016,0.03,0.41,0.54,0.0,0.0,0.02,0.33,"[-50, -20, 0, 20, 50]",2,-13.1,277.6,0.05,林东
2016,0.33,0.05,0.38,0.08,0.13,0.03,0.18,"[-50, -20, 0, 20, 50]",2,-1.0,177.8,-0.03,锡林浩特
2016,0.16,0.13,0.12,0.13,0.45,0.01,0.25,"[-50, -20, 0, 20, 50]",4,2.6,130.7,0.01,朱日和
2016,0.03,0.2,0.16,0.42,0.19,0.0,0.21,"[-50, -20, 0, 20, 50]",3,0.2,250.5,-0.46,多伦
2016,,0.19,0.43,0.19,0.11,0.08,0.27,"[-50, -20, 0, 20, 50]",2,-6.1,237.1,0.16,赤峰
2016,0.14,0.16,0.56,0.12,0.02,0.0,0.18,"[-50, -20, 0, 20, 50]",2,-29.5,335.0,-0.44,承德
2016,0.02,0.59,0.17,0.15,0.07,0.0,0.29,"[-50, -20, 0, 20, 50]",1,-13.5,242.9,0.08,张家口
2016,0.05,0.25,0.12,0.05,0.41,0.12,0.28,"[-50, -20, 0, 20, 50]",4,20.7,254.5,0.21,呼和浩特
2016,0.01,0.35,0.28,0.0,0.31,0.05,0.23,"[-50, -20, 0, 20, 50]",1,-6.9,189.4,-0.22,包头
2016,0.0,0.0,0.01,0.13,0.42,0.44,0.26,"[-50, -20, 0, 20, 50]",5,50.7,87.6,0.02,陕坝
2016,0.12,0.38,0.34,0.02,0.13,0.01,0.24,"[-50, -20, 0, 20, 50]",1,4.2,371.4,-0.02,北京
2016,0.13,0.54,0.3,0.02,0.01,0.0,0.19,"[-50, -20, 0, 20, 50]",1,-24.3,350.4,0.06,天津
2016,0.27,0.67,0.05,0.01,0.0,0.0,0.28,"[-50, -20, 0, 20, 50]",1,-35.4,329.4,0.1,石家庄
2016,0.09,0.4,0.38,0.13,0.0,0.0,0.27,"[-50, -20, 0, 20, 50]",1,-31.1,356.2,0.03,德州
2016,0.19,0.34,0.3,0.02,0.03,0.12,0.22,"[-50, -20, 0, 20, 50]",1,-19.8,318.0,0.26,邢台
2016,0.03,0.31,0.06,0.59,0.01,0.0,0.14,"[-50, -20, 0, 20, 50]",3,-11.6,344.8,-0.19,安阳
2016,0.0,0.17,0.19,0.19,0.39,0.06,0.19,"[-50, -20, 0, 20, 50]",4,3.0,341.7,0.19,烟台
2016,0.41,0.22,0.04,0.17,0.16,0.0,0.34,"[-50, -20, 0, 20, 50]",0,-7.9,372.3,-0.02,青岛
2016,0.3,0.06,0.46,0.01,0.17,0.0,0.3,"[-50, -20, 0, 20, 50]",2,-14.9,348.8,-0.14,潍坊
2016,0.0,0.21,0.12,0.0,0.52,0.15,0.25,"[-50, -20, 0, 20, 50]",4,19.6,442.8,0.24,济南
2016,0.0,0.28,0.29,0.0,0.43,0.0,0.21,"[-50, -20, 0, 20, 50]",4,1.1,520.1,-0.22,临沂
2016,0.0,0.36,0.0,0.0,0.64,0.0,0.24,"[-50, -20, 0, 20, 50]",4,1.7,367.7,-0.41,荷泽
2016,0.01,0.23,0.5,0.14,0.04,0.08,0.33,"[-50, -20, 0, 20, 50]",2,1.2,543.0,0.05,新浦
2016,0.0,0.1,0.59,0.05,0.08,0.18,0.1,"[-50, -20, 0, 20, 50]",2,0.1,540.0,-0.22,清江
2016,,0.53,0.0,0.0,0.0,0.47,0.46,"[-50, -20, 0, 20, 50]",1,20.5,509.4,-0.1,徐州
2016,0.11,0.41,0.11,0.14,0.22,0.01,0.36,"[-50, -20, 0, 20, 50]",1,-12.3,512.3,0.2,蚌埠
2016,0.04,0.17,0.24,0.43,0.0,0.12,0.24,"[-50, -20, 0, 20, 50]",3,-5.3,506.2,-0.16,阜阳
2016,0.0,0.04,0.1,0.15,0.69,0.02,0.36,"[-50, -20, 0, 20, 50]",4,28.3,352.5,0.18,郑州
2016,0.04,0.21,0.14,0.52,0.03,0.06,0.33,"[-50, -20, 0, 20, 50]",3,0.2,434.7,0.21,南阳
2016,0.02,0.44,0.03,0.31,0.15,0.05,0.27,"[-50, -20, 0, 20, 50]",1,-2.9,536.4,0.01,信阳
2016,0.0,0.43,0.0,0.02,0.08,0.47,0.47,"[-50, -20, 0, 20, 50]",5,73.5,532.5,0.19,东台
2016,0.0,0.07,0.25,0.27,0.09,0.32,0.24,"[-50, -20, 0, 20, 50]",5,46.5,524.3,0.15,南京
2016,0.0,0.04,0.27,0.05,0.45,0.19,0.21,"[-50, -20, 0, 20, 50]",4,30.0,444.3,-0.12,合肥
2016,0.0,0.42,0.02,0.17,0.24,0.15,0.27,"[-50, -20, 0, 20, 50]",1,11.9,516.3,0.17,上海
2016,0.01,0.04,0.01,0.18,0.08,0.68,0.27,"[-50, -20, 0, 20, 50]",5,59.9,554.5,0.16,杭州
2016,0.0,0.38,0.0,0.02,0.17,0.43,0.18,"[-50, -20, 0, 20, 50]",5,52.2,608.1,-0.25,安庆
2016,0.21,0.22,0.11,0.02,0.26,0.18,0.25,"[-50, -20, 0, 20, 50]",4,3.0,654.3,-0.68,屯溪
2016,0.0,0.19,0.05,0.06,0.0,0.7,0.38,"[-50, -20, 0, 20, 50]",5,80.5,503.2,0.28,九江
2016,0.0,0.33,0.04,0.4,0.09,0.14,0.3,"[-50, -20, 0, 20, 50]",3,6.9,562.6,0.1,汉口
2016,0.0,0.03,0.0,0.0,0.26,0.71,0.22,"[-50, -20, 0, 20, 50]",5,42.0,472.6,0.24,钟祥
2016,0.01,0.01,0.05,0.15,0.46,0.32,0.26,"[-50, -20, 0, 20, 50]",4,54.1,480.4,-0.08,岳阳
2016,0.28,0.39,0.33,0.0,0.0,0.0,0.38,"[-50, -20, 0, 20, 50]",1,-35.8,563.7,-0.14,宜昌
2016,0.0,0.0,0.04,0.08,0.22,0.66,0.31,"[-50, -20, 0, 20, 50]",5,52.8,496.1,-0.06,常德
2016,0.07,0.15,0.09,0.04,0.15,0.5,0.41,"[-50, -20, 0, 20, 50]",5,41.8,547.5,-0.03,宁波
2016,0.0,0.0,0.09,0.89,0.0,0.02,0.24,"[-50, -20, 0, 20, 50]",3,6.9,570.5,-0.75,衢县
2016,0.2,0.5,0.1,0.1,0.1,0.0,0.31,"[-50, -20, 0, 20, 50]",1,-24.8,692.0,-0.37,温州
2016,0.0,0.0,0.23,0.1,0.4,0.27,0.36,"[-50, -20, 0, 20, 50]",4,33.8,624.9,0.04,浦城
2016,0.2,0.18,0.08,0.12,0.16,0.26,0.22,"[-50, -20, 0, 20, 50]",5,24.4,496.2,-0.43,福州
2016,0.16,0.0,0.84,0.0,0.0,0.0,0.26,"[-50, -20, 0, 20, 50]",2,-20.4,492.4,-0.57,永安
2016,0.0,0.1,0.02,0.44,0.22,0.22,0.21,"[-50, -20, 0, 20, 50]",3,19.2,669.4,-0.11,贵溪
2016,0.0,0.1,0.1,0.22,0.49,0.09,0.18,"[-50, -20, 0, 20, 50]",4,30.5,563.1,-0.48,南昌
2016,0.0,0.59,0.02,0.16,0.21,0.02,0.2,"[-50, -20, 0, 20, 50]",1,0.8,569.3,-0.21,广昌
2016,0.02,0.13,0.05,0.13,0.25,0.42,0.35,"[-50, -20, 0, 20, 50]",5,25.4,497.6,-0.26,吉安
2016,,0.53,0.2,0.15,0.12,0.0,0.3,"[-50, -20, 0, 20, 50]",1,-15.9,450.7,-0.55,赣州
2016,0.01,0.09,0.16,0.23,0.22,0.29,0.19,"[-50, -20, 0, 20, 50]",5,28.4,473.2,-0.31,长沙
2016,0.0,0.0,1.0,0.0,0.0,0.0,0.13,"[-50, -20, 0, 20, 50]",2,-4.0,391.0,-0.75,衡阳
2016,0.0,0.54,0.28,0.18,0.0,0.0,0.24,"[-50, -20, 0, 20, 50]",1,-18.6,475.4,-0.14,郴县
2016,0.02,0.38,0.27,0.2,0.09,0.04,0.39,"[-50, -20, 0, 20, 50]",1,-9.0,410.3,0.15,零陵
2016,0.0,0.2,0.34,0.25,0.17,0.04,0.24,"[-50, -20, 0, 20, 50]",2,-4.9,471.2,-0.05,芷江
2016,0.0,0.13,0.25,0.03,0.32,0.27,0.22,"[-50, -20, 0, 20, 50]",4,26.6,534.7,0.0,夏门
2016,0.0,0.58,0.11,0.19,0.12,0.0,0.33,"[-50, -20, 0, 20, 50]",1,-40.6,597.5,-0.37,梅县
2016,0.02,0.16,0.02,0.39,0.41,0.0,0.23,"[-50, -20, 0, 20, 50]",4,1.4,785.1,-0.25,汕头
2016,0.0,0.16,0.0,0.0,0.84,0.0,0.23,"[-50, -20, 0, 20, 50]",4,15.5,538.5,-0.55,曲江
2016,0.0,0.14,0.19,0.51,0.12,0.04,0.45,"[-50, -20, 0, 20, 50]",3,8.6,858.3,0.37,河源
2016,0.0,0.0,0.79,0.07,0.14,0.0,0.25,"[-50, -20, 0, 20, 50]",2,-1.8,727.8,-0.05,广州
2016,0.9,0.0,0.06,0.04,0.0,0.0,0.35,"[-50, -20, 0, 20, 50]",0,-52.9,1187.1,0.06,阳江
2016,0.0,1.0,0.0,0.0,0.0,0.0,0.25,"[-50, -20, 0, 20, 50]",1,-21.7,797.2,-0.55,湛江
2016,0.0,0.3,0.23,0.13,0.28,0.06,0.34,"[-50, -20, 0, 20, 50]",1,1.8,713.5,0.07,海口
2016,0.01,0.05,0.04,0.21,0.19,0.5,0.24,"[-50, -20, 0, 20, 50]",5,31.9,745.1,-0.16,桂林
2016,0.0,0.28,0.04,0.25,0.43,0.0,0.25,"[-50, -20, 0, 20, 50]",4,6.0,649.4,-0.22,柳州
2016,0.0,0.05,0.46,0.31,0.17,0.01,0.26,"[-50, -20, 0, 20, 50]",2,-4.4,588.5,-0.04,悟州
2016,0.0,0.13,0.35,0.36,0.09,0.07,0.23,"[-50, -20, 0, 20, 50]",3,2.5,638.0,0.24,南宁
2016,0.04,0.01,0.01,0.41,0.5,0.03,0.23,"[-50, -20, 0, 20, 50]",4,17.6,1069.2,-0.03,北海
2016,,0.17,0.18,0.29,0.07,0.29,0.27,"[-50, -20, 0, 20, 50]",3,32.1,555.8,0.01,百色
2016,0.0,0.4,0.0,0.0,0.6,0.0,0.23,"[-50, -20, 0, 20, 50]",4,5.5,518.1,-0.28,遵义
2016,0.0,0.05,0.01,0.0,0.0,0.94,0.14,"[-50, -20, 0, 20, 50]",5,88.0,535.0,-0.77,贵阳
2016,,0.32,0.25,0.13,0.3,0.0,0.33,"[-50, -20, 0, 20, 50]",1,2.2,458.7,0.02,毕节
2016,0.0,0.01,0.46,0.3,0.08,0.15,0.26,"[-50, -20, 0, 20, 50]",2,20.6,712.5,0.11,兴仁
2016,0.0,1.0,0.0,0.0,0.0,0.0,0.21,"[-50, -20, 0, 20, 50]",1,-49.0,500.9,-0.49,榕江
2016,0.0,0.0,0.13,0.08,0.12,0.67,0.28,"[-50, -20, 0, 20, 50]",5,51.2,631.7,0.12,恩施
2016,0.0,0.07,0.24,0.26,0.23,0.2,0.23,"[-50, -20, 0, 20, 50]",3,8.5,548.1,0.25,达县
2016,0.04,0.16,0.17,0.42,0.14,0.07,0.35,"[-50, -20, 0, 20, 50]",3,-0.4,582.5,0.12,酉阳
2016,0.0,0.07,0.09,0.0,0.06,0.78,0.25,"[-50, -20, 0, 20, 50]",5,45.3,506.5,-0.15,重庆
2016,0.01,0.04,0.04,0.15,0.25,0.51,0.31,"[-50, -20, 0, 20, 50]",5,42.7,493.9,0.11,南充
2016,0.08,0.42,0.25,0.17,0.08,0.0,0.22,"[-50, -20, 0, 20, 50]",1,-14.2,563.8,0.01,内江
2016,,0.51,0.08,0.25,0.15,0.01,0.3,"[-50, -20, 0, 20, 50]",1,-10.9,491.8,0.06,绵阳
2016,,0.4,0.6,0.0,0.0,0.0,0.28,"[-50, -20, 0, 20, 50]",2,-18.6,528.4,-0.19,成都
2016,0.08,0.47,0.0,0.15,0.3,0.0,0.17,"[-50, -20, 0, 20, 50]",1,-3.7,562.6,-0.04,宜宾
2016,,0.0,0.0,0.55,0.45,0.0,0.3,"[-50, -20, 0, 20, 50]",3,6.7,987.4,-0.08,雅安
2016,,0.03,0.03,0.05,0.89,,0.43,"[-50, -20, 0, 20, 50]",4,25.2,416.4,0.17,康定
2016,,0.12,0.8,0.07,0.01,0.0,0.28,"[-50, -20, 0, 20, 50]",2,-11.6,616.6,-0.35,西昌
2016,,0.0,0.36,0.4,0.21,0.03,0.36,"[-50, -20, 0, 20, 50]",3,16.4,698.2,0.02,会理
2016,,0.59,0.29,0.09,0.03,,0.36,"[-50, -20, 0, 20, 50]",1,-16.6,626.6,0.08,丽江
2016,,0.41,0.56,0.02,0.0,0.01,0.35,"[-50, -20, 0, 20, 50]",2,-13.3,547.7,0.12,大理
2016,,0.62,0.2,0.05,0.13,0.0,0.39,"[-50, -20, 0, 20, 50]",1,-27.7,457.3,0.19,保山
2016,0.04,0.38,0.19,0.27,0.08,0.04,0.41,"[-50, -20, 0, 20, 50]",1,-9.5,575.9,0.04,昆明
2016,,0.57,0.12,0.31,0.0,0.0,0.4,"[-50, -20, 0, 20, 50]",1,-12.2,636.3,-0.05,临沧
2016,,0.68,0.32,0.0,0.0,,0.44,"[-50, -20, 0, 20, 50]",1,-32.8,437.7,-0.2,蒙自
2016,,0.31,0.33,0.26,0.09,0.01,0.26,"[-50, -20, 0, 20, 50]",2,-2.2,589.8,0.26,景洪
2016,,0.0,0.07,0.63,0.3,,0.3,"[-50, -20, 0, 20, 50]",3,19.3,349.3,-0.41,甘孜
2016,,0.02,0.49,0.49,0.0,0.0,0.32,"[-50, -20, 0, 20, 50]",2,-3.1,296.6,-0.21,德钦
2016,,0.04,0.2,0.25,0.02,0.49,0.31,"[-50, -20, 0, 20, 50]",5,33.4,295.4,0.0,昌都
2016,0.0,0.04,0.04,0.21,0.71,0.0,0.21,"[-50, -20, 0, 20, 50]",4,24.6,314.7,0.05,拉萨
2016,0.0,0.07,0.09,0.57,0.17,0.1,0.31,"[-50, -20, 0, 20, 50]",3,16.2,254.9,0.26,西安
2016,0.45,0.03,0.22,0.23,0.02,0.05,0.25,"[-50, -20, 0, 20, 50]",0,-26.7,244.1,-0.25,天水
2016,,0.01,0.12,0.31,0.56,,0.27,"[-50, -20, 0, 20, 50]",4,27.7,289.1,0.17,岷县
2016,0.0,0.17,0.0,0.0,0.15,0.68,0.34,"[-50, -20, 0, 20, 50]",5,52.3,397.5,-0.16,汉中
2016,0.04,0.17,0.15,0.28,0.3,0.06,0.35,"[-50, -20, 0, 20, 50]",4,5.5,413.0,-0.14,安康
2016,0.0,0.2,0.06,0.26,0.04,0.44,0.37,"[-50, -20, 0, 20, 50]",5,31.6,388.2,-0.59,郧县
2016,0.04,0.09,0.5,0.08,0.29,0.0,0.3,"[-50, -20, 0, 20, 50]",2,-5.9,313.0,0.12,长治
2016,,0.03,0.03,0.08,0.6,0.26,0.3,"[-50, -20, 0, 20, 50]",4,45.0,246.5,0.14,太原
2016,0.0,0.01,0.02,0.25,0.61,0.11,0.3,"[-50, -20, 0, 20, 50]",4,32.5,248.5,0.15,临汾
2016,0.0,0.0,0.06,0.21,0.41,0.32,0.12,"[-50, -20, 0, 20, 50]",4,53.2,228.2,-0.21,榆林
2016,0.0,0.0,0.0,1.0,0.0,0.0,0.19,"[-50, -20, 0, 20, 50]",3,17.0,294.5,-0.31,延安
2016,,0.0,0.15,0.52,0.28,0.05,0.27,"[-50, -20, 0, 20, 50]",3,29.7,278.0,-0.04,西峰镇
2016,0.01,0.14,0.22,0.23,0.17,0.23,0.31,"[-50, -20, 0, 20, 50]",3,11.6,163.7,0.17,兰州
2016,0.15,0.41,0.4,0.02,0.02,0.0,0.23,"[-50, -20, 0, 20, 50]",1,-32.1,113.2,0.1,中宁
2016,0.07,0.1,0.43,0.06,0.19,0.15,0.34,"[-50, -20, 0, 20, 50]",2,2.3,104.5,-0.11,银川
2016,0.0,0.09,0.28,0.58,0.02,0.03,0.41,"[-50, -20, 0, 20, 50]",3,7.6,227.6,0.23,西宁
2016,,0.0,1.0,0.0,0.0,0.0,0.23,"[-50, -20, 0, 20, 50]",2,-14.8,263.6,-0.73,临夏
2016,,0.0,0.82,0.1,0.0,0.08,0.36,"[-50, -20, 0, 20, 50]",2,-12.5,195.9,-0.12,玛多
2016,,0.18,0.07,0.3,0.45,,0.26,"[-50, -20, 0, 20, 50]",4,12.0,283.1,-0.28,玉树
2016,0.0,0.27,0.2,0.16,0.33,0.04,0.21,"[-50, -20, 0, 20, 50]",4,7.0,93.8,0.02,武威
2016,0.0,0.36,0.15,0.2,0.07,0.22,0.29,"[-50, -20, 0, 20, 50]",1,11.7,76.7,0.24,张掖
2016,0.0,0.0,0.29,0.71,0.0,0.0,0.24,"[-50, -20, 0, 20, 50]",3,7.6,49.9,-0.18,酒泉
2016,0.3,0.02,0.0,0.0,0.68,0.0,0.41,"[-50, -20, 0, 20, 50]",4,7.8,22.7,-0.24,敦煌
2016,0.12,0.73,0.0,0.0,0.15,0.0,0.25,"[-50, -20, 0, 20, 50]",1,-24.3,7.6,-0.39,吐鲁番
2016,0.29,0.16,0.15,0.12,0.15,0.13,0.28,"[-50, -20, 0, 20, 50]",0,-20.2,42.1,0.34,库车
2016,0.06,0.19,0.0,0.0,0.0,0.75,0.31,"[-50, -20, 0, 20, 50]",5,77.5,26.9,-0.23,喀什
2016,0.0,0.05,0.07,0.26,0.13,0.49,0.36,"[-50, -20, 0, 20, 50]",5,40.2,21.9,-0.03,和田
2016,0.19,0.41,0.01,0.04,0.21,0.14,0.42,"[-50, -20, 0, 20, 50]",1,12.6,22.0,0.3,且末
2016,0.11,0.02,0.03,0.47,0.01,0.36,0.45,"[-50, -20, 0, 20, 50]",3,97.2,26.4,0.04,若羌
2016,0.08,0.0,0.39,0.11,0.35,0.07,0.37,"[-50, -20, 0, 20, 50]",2,31.2,21.0,0.05,哈密
2016,0.0,0.11,0.07,0.09,0.71,0.02,0.25,"[-50, -20, 0, 20, 50]",4,57.0,64.3,0.11,阿勒泰
2016,0.0,0.18,0.11,0.13,0.47,0.11,0.22,"[-50, -20, 0, 20, 50]",4,51.7,74.0,0.2,塔城
2016,0.0,0.34,0.05,0.25,0.35,0.01,0.34,"[-50, -20, 0, 20, 50]",4,-2.7,58.5,-0.27,乌苏
2016,0.02,0.03,0.05,0.37,0.45,0.08,0.42,"[-50, -20, 0, 20, 50]",4,65.1,75.1,-0.1,伊宁
2016,0.01,0.03,0.07,0.03,0.52,0.34,0.31,"[-50, -20, 0, 20, 50]",4,48.7,97.5,0.14,乌鲁木齐
