,0,1,2,3,4,5,classifier_score,divider,fcst_grade,fcst_y,norm,regressor_score,site
2016,0.0,0.94,0.06,0.0,0.0,0.0,0.2,"[-50, -20, 0, 20, 50]",1,-38.2,301.9,-0.29,呼玛
2016,0.37,0.13,0.15,0.3,0.05,0.0,0.29,"[-50, -20, 0, 20, 50]",0,-29.3,340.3,0.07,博克图
2016,0.01,0.16,0.43,0.29,0.09,0.02,0.42,"[-50, -20, 0, 20, 50]",2,-8.1,237.4,0.16,海拉尔
2016,,0.84,0.16,0.0,0.0,0.0,0.24,"[-50, -20, 0, 20, 50]",1,-27.8,293.0,-0.4,图里河
2016,0.0,0.33,0.15,0.3,0.19,0.03,0.3,"[-50, -20, 0, 20, 50]",1,-0.3,324.0,0.02,嫩江
2016,0.0,0.06,0.34,0.32,0.27,0.01,0.28,"[-50, -20, 0, 20, 50]",2,7.4,313.4,0.32,齐齐哈尔
2016,0.0,0.23,0.36,0.05,0.36,0.0,0.27,"[-50, -20, 0, 20, 50]",2,-2.5,366.2,-0.01,海伦
2016,0.0,0.49,0.3,0.03,0.17,0.01,0.3,"[-50, -20, 0, 20, 50]",1,-21.5,296.1,-0.16,富锦
2016,0.05,0.32,0.02,0.44,0.17,0.0,0.41,"[-50, -20, 0, 20, 50]",3,2.5,329.8,0.18,佳木斯
2016,0.02,0.98,0.0,0.0,0.0,0.0,0.4,"[-50, -20, 0, 20, 50]",1,-29.9,334.8,-0.24,鸡西
2016,,0.46,0.43,0.03,0.07,0.01,0.25,"[-50, -20, 0, 20, 50]",1,-21.8,358.5,-0.09,哈尔滨
2016,0.04,0.58,0.2,0.18,0.0,0.0,0.28,"[-50, -20, 0, 20, 50]",1,-22.0,345.0,0.11,牡丹江
2016,0.01,0.19,0.37,0.2,0.08,0.15,0.26,"[-50, -20, 0, 20, 50]",2,9.4,319.9,0.03,乌兰浩特
2016,0.03,0.23,0.23,0.2,0.24,0.07,0.3,"[-50, -20, 0, 20, 50]",4,2.8,259.3,-0.03,通辽
2016,,0.14,0.15,0.71,0.0,0.0,0.21,"[-50, -20, 0, 20, 50]",3,0.4,396.1,-0.45,长春
2016,0.0,0.1,0.43,0.3,0.17,0.0,0.36,"[-50, -20, 0, 20, 50]",2,-1.6,319.7,-0.2,延吉
2016,,0.08,0.39,0.31,0.02,0.2,0.3,"[-50, -20, 0, 20, 50]",2,26.8,551.3,0.18,通化
2016,0.0,0.03,0.21,0.29,0.41,0.06,0.32,"[-50, -20, 0, 20, 50]",4,27.8,432.5,0.06,沈阳
2016,0.05,0.35,0.45,0.05,0.08,0.02,0.27,"[-50, -20, 0, 20, 50]",2,-20.6,318.6,0.08,朝阳
2016,0.0,0.96,0.0,0.03,0.0,0.01,0.31,"[-50, -20, 0, 20, 50]",1,-29.0,402.7,-0.04,营口
2016,,0.32,0.12,0.38,0.12,0.06,0.28,"[-50, -20, 0, 20, 50]",3,4.3,595.0,0.21,丹东
2016,0.02,0.22,0.1,0.11,0.25,0.3,0.22,"[-50, -20, 0, 20, 50]",5,13.9,352.2,0.38,大连
2016,0.05,0.53,0.34,0.02,0.02,0.04,0.33,"[-50, -20, 0, 20, 50]",1,-7.0,277.6,0.03,林东
2016,0.27,0.06,0.33,0.11,0.16,0.07,0.2,"[-50, -20, 0, 20, 50]",2,12.4,177.8,0.02,锡林浩特
2016,0.15,0.23,0.12,0.17,0.32,0.01,0.29,"[-50, -20, 0, 20, 50]",4,-6.6,130.7,0.04,朱日和
2016,0.08,0.07,0.25,0.39,0.21,0.0,0.2,"[-50, -20, 0, 20, 50]",3,4.6,250.5,-0.24,多伦
2016,,0.21,0.44,0.15,0.15,0.05,0.28,"[-50, -20, 0, 20, 50]",2,-5.1,237.1,0.24,赤峰
2016,0.14,0.23,0.38,0.19,0.06,0.0,0.21,"[-50, -20, 0, 20, 50]",2,-12.9,335.0,-0.35,承德
2016,0.03,0.33,0.21,0.29,0.13,0.01,0.21,"[-50, -20, 0, 20, 50]",1,-6.9,242.9,0.22,张家口
2016,0.03,0.34,0.08,0.06,0.39,0.1,0.31,"[-50, -20, 0, 20, 50]",4,7.3,254.5,0.19,呼和浩特
2016,0.04,0.54,0.21,0.0,0.17,0.04,0.17,"[-50, -20, 0, 20, 50]",1,-8.0,189.4,-0.14,包头
2016,0.01,0.01,0.05,0.14,0.5,0.29,0.29,"[-50, -20, 0, 20, 50]",4,46.4,87.6,0.08,陕坝
2016,0.16,0.23,0.35,0.09,0.14,0.03,0.28,"[-50, -20, 0, 20, 50]",2,-8.0,371.4,0.01,北京
2016,0.14,0.52,0.28,0.01,0.03,0.02,0.22,"[-50, -20, 0, 20, 50]",1,-30.2,350.4,0.06,天津
2016,0.18,0.71,0.09,0.02,0.0,0.0,0.22,"[-50, -20, 0, 20, 50]",1,-35.1,329.4,0.13,石家庄
2016,0.06,0.39,0.39,0.16,0.0,0.0,0.25,"[-50, -20, 0, 20, 50]",1,-30.2,356.2,0.06,德州
2016,0.27,0.33,0.25,0.05,0.04,0.06,0.24,"[-50, -20, 0, 20, 50]",1,35.8,318.0,0.21,邢台
2016,0.09,0.36,0.13,0.35,0.06,0.01,0.18,"[-50, -20, 0, 20, 50]",1,-2.0,344.8,-0.12,安阳
2016,0.04,0.15,0.32,0.25,0.24,0.0,0.16,"[-50, -20, 0, 20, 50]",2,0.1,341.7,0.26,烟台
2016,0.35,0.19,0.16,0.14,0.15,0.01,0.34,"[-50, -20, 0, 20, 50]",0,-17.6,372.3,-0.03,青岛
2016,0.16,0.14,0.46,0.09,0.15,0.0,0.28,"[-50, -20, 0, 20, 50]",2,-7.7,348.8,-0.09,潍坊
2016,0.0,0.14,0.21,0.03,0.46,0.16,0.22,"[-50, -20, 0, 20, 50]",4,15.9,442.8,0.27,济南
2016,0.0,0.34,0.33,0.0,0.33,0.0,0.26,"[-50, -20, 0, 20, 50]",1,-7.9,520.1,-0.16,临沂
2016,0.0,0.06,0.0,0.0,0.68,0.26,0.24,"[-50, -20, 0, 20, 50]",4,30.5,367.7,-0.2,荷泽
2016,0.07,0.25,0.41,0.16,0.04,0.07,0.26,"[-50, -20, 0, 20, 50]",2,5.2,543.0,0.06,新浦
2016,0.0,0.19,0.38,0.16,0.14,0.13,0.18,"[-50, -20, 0, 20, 50]",2,10.8,540.0,-0.12,清江
2016,,0.19,0.0,0.04,0.0,0.77,0.46,"[-50, -20, 0, 20, 50]",5,47.6,509.4,-0.01,徐州
2016,0.05,0.5,0.14,0.11,0.19,0.01,0.35,"[-50, -20, 0, 20, 50]",1,-24.3,512.3,0.24,蚌埠
2016,0.03,0.23,0.13,0.42,0.0,0.19,0.21,"[-50, -20, 0, 20, 50]",3,-6.0,506.2,-0.23,阜阳
2016,0.0,0.05,0.14,0.12,0.56,0.13,0.37,"[-50, -20, 0, 20, 50]",4,27.2,352.5,0.08,郑州
2016,0.06,0.15,0.08,0.46,0.13,0.12,0.39,"[-50, -20, 0, 20, 50]",3,5.7,434.7,0.21,南阳
2016,0.04,0.45,0.11,0.22,0.13,0.05,0.27,"[-50, -20, 0, 20, 50]",1,-8.9,536.4,-0.05,信阳
2016,0.0,0.39,0.0,0.1,0.09,0.42,0.41,"[-50, -20, 0, 20, 50]",5,86.2,532.5,0.18,东台
2016,0.0,0.03,0.28,0.28,0.12,0.29,0.29,"[-50, -20, 0, 20, 50]",5,20.8,524.3,0.1,南京
2016,0.0,0.01,0.26,0.17,0.44,0.12,0.21,"[-50, -20, 0, 20, 50]",4,33.7,444.3,-0.06,合肥
2016,0.01,0.38,0.12,0.16,0.13,0.2,0.31,"[-50, -20, 0, 20, 50]",1,17.7,516.3,0.23,上海
2016,0.04,0.13,0.06,0.14,0.07,0.56,0.26,"[-50, -20, 0, 20, 50]",5,48.0,554.5,-0.08,杭州
2016,0.0,0.37,0.0,0.05,0.29,0.29,0.21,"[-50, -20, 0, 20, 50]",1,45.0,608.1,-0.16,安庆
2016,0.15,0.13,0.22,0.06,0.26,0.18,0.33,"[-50, -20, 0, 20, 50]",4,8.2,654.3,-0.24,屯溪
2016,0.0,0.53,0.1,0.05,0.11,0.21,0.33,"[-50, -20, 0, 20, 50]",1,-13.5,503.2,0.28,九江
2016,0.0,0.16,0.04,0.45,0.13,0.22,0.31,"[-50, -20, 0, 20, 50]",3,20.0,562.6,0.11,汉口
2016,0.0,0.15,0.01,0.08,0.27,0.49,0.23,"[-50, -20, 0, 20, 50]",5,25.8,472.6,0.31,钟祥
2016,0.03,0.01,0.07,0.11,0.45,0.33,0.2,"[-50, -20, 0, 20, 50]",4,49.1,480.4,-0.05,岳阳
2016,0.36,0.37,0.24,0.0,0.02,0.01,0.34,"[-50, -20, 0, 20, 50]",1,-34.1,563.7,-0.22,宜昌
2016,0.0,0.05,0.06,0.18,0.3,0.41,0.17,"[-50, -20, 0, 20, 50]",5,48.9,496.1,0.01,常德
2016,0.09,0.23,0.08,0.08,0.23,0.29,0.36,"[-50, -20, 0, 20, 50]",5,25.6,547.5,-0.05,宁波
2016,0.0,0.0,0.26,0.58,0.0,0.16,0.2,"[-50, -20, 0, 20, 50]",3,30.3,570.5,-0.32,衢县
2016,0.17,0.5,0.13,0.1,0.1,0.0,0.32,"[-50, -20, 0, 20, 50]",1,-23.0,692.0,-0.21,温州
2016,0.0,0.0,0.2,0.25,0.34,0.21,0.36,"[-50, -20, 0, 20, 50]",4,36.4,624.9,0.14,浦城
2016,0.13,0.15,0.19,0.08,0.17,0.28,0.27,"[-50, -20, 0, 20, 50]",5,28.4,496.2,-0.35,福州
2016,0.16,0.01,0.83,0.0,0.0,0.0,0.31,"[-50, -20, 0, 20, 50]",2,-18.1,492.4,-0.44,永安
2016,0.0,0.13,0.02,0.47,0.23,0.15,0.23,"[-50, -20, 0, 20, 50]",3,13.5,669.4,-0.26,贵溪
2016,0.0,0.12,0.1,0.13,0.44,0.21,0.24,"[-50, -20, 0, 20, 50]",4,39.0,563.1,-0.43,南昌
2016,0.0,0.41,0.05,0.21,0.26,0.07,0.27,"[-50, -20, 0, 20, 50]",1,8.3,569.3,-0.16,广昌
2016,0.0,0.11,0.01,0.12,0.49,0.27,0.31,"[-50, -20, 0, 20, 50]",4,22.5,497.6,-0.24,吉安
2016,,0.47,0.18,0.24,0.11,0.0,0.28,"[-50, -20, 0, 20, 50]",1,-10.5,450.7,-0.5,赣州
2016,0.01,0.13,0.13,0.21,0.29,0.23,0.27,"[-50, -20, 0, 20, 50]",4,32.8,473.2,-0.19,长沙
2016,0.0,0.0,0.91,0.0,0.08,0.01,0.13,"[-50, -20, 0, 20, 50]",2,0.7,391.0,-0.36,衡阳
2016,0.0,0.39,0.27,0.31,0.03,0.0,0.28,"[-50, -20, 0, 20, 50]",1,-15.3,475.4,-0.12,郴县
2016,0.02,0.38,0.27,0.2,0.1,0.04,0.39,"[-50, -20, 0, 20, 50]",1,-8.7,410.3,0.15,零陵
2016,0.0,0.2,0.41,0.29,0.09,0.01,0.22,"[-50, -20, 0, 20, 50]",2,-8.5,471.2,0.04,芷江
2016,0.01,0.13,0.13,0.0,0.48,0.25,0.22,"[-50, -20, 0, 20, 50]",4,24.0,534.7,0.01,夏门
2016,0.0,0.59,0.1,0.15,0.16,0.0,0.27,"[-50, -20, 0, 20, 50]",1,-23.2,597.5,-0.27,梅县
2016,0.03,0.34,0.07,0.39,0.17,0.0,0.28,"[-50, -20, 0, 20, 50]",3,2.4,785.1,-0.07,汕头
2016,0.0,0.08,0.17,0.02,0.73,0.0,0.25,"[-50, -20, 0, 20, 50]",4,11.1,538.5,-0.35,曲江
2016,0.0,0.23,0.33,0.28,0.08,0.08,0.45,"[-50, -20, 0, 20, 50]",2,1.9,858.3,0.4,河源
2016,0.0,0.0,0.76,0.06,0.17,0.01,0.27,"[-50, -20, 0, 20, 50]",2,7.9,727.8,-0.11,广州
2016,0.7,0.06,0.11,0.1,0.03,0.0,0.37,"[-50, -20, 0, 20, 50]",0,-42.1,1187.1,0.28,阳江
2016,0.0,0.99,0.01,0.0,0.0,0.0,0.25,"[-50, -20, 0, 20, 50]",1,-21.6,797.2,-0.23,湛江
2016,0.0,0.25,0.18,0.21,0.25,0.11,0.39,"[-50, -20, 0, 20, 50]",1,8.1,713.5,0.03,海口
2016,0.01,0.02,0.12,0.2,0.13,0.52,0.33,"[-50, -20, 0, 20, 50]",5,31.7,745.1,-0.07,桂林
2016,0.0,0.3,0.04,0.27,0.38,0.01,0.19,"[-50, -20, 0, 20, 50]",4,-2.6,649.4,-0.11,柳州
2016,0.0,0.02,0.41,0.4,0.14,0.03,0.25,"[-50, -20, 0, 20, 50]",2,6.5,588.5,-0.08,悟州
2016,0.0,0.23,0.17,0.33,0.14,0.13,0.21,"[-50, -20, 0, 20, 50]",3,7.4,638.0,0.19,南宁
2016,0.09,0.0,0.07,0.18,0.61,0.05,0.26,"[-50, -20, 0, 20, 50]",4,27.0,1069.2,0.03,北海
2016,,0.19,0.24,0.21,0.19,0.17,0.25,"[-50, -20, 0, 20, 50]",2,24.0,555.8,0.05,百色
2016,0.0,0.26,0.0,0.09,0.65,0.0,0.23,"[-50, -20, 0, 20, 50]",4,10.9,518.1,-0.13,遵义
2016,0.0,0.38,0.06,0.0,0.04,0.52,0.14,"[-50, -20, 0, 20, 50]",5,34.2,535.0,-0.51,贵阳
2016,,0.16,0.29,0.37,0.17,0.01,0.31,"[-50, -20, 0, 20, 50]",3,1.1,458.7,0.06,毕节
2016,0.0,0.09,0.39,0.25,0.04,0.23,0.28,"[-50, -20, 0, 20, 50]",2,21.0,712.5,0.14,兴仁
2016,0.09,0.83,0.04,0.04,0.0,0.0,0.19,"[-50, -20, 0, 20, 50]",1,-44.6,500.9,-0.3,榕江
2016,0.02,0.01,0.33,0.2,0.13,0.31,0.3,"[-50, -20, 0, 20, 50]",2,14.9,631.7,-0.02,恩施
2016,0.0,0.08,0.19,0.29,0.31,0.13,0.27,"[-50, -20, 0, 20, 50]",4,34.4,548.1,0.26,达县
2016,0.06,0.11,0.2,0.47,0.1,0.06,0.36,"[-50, -20, 0, 20, 50]",3,-3.1,582.5,0.19,酉阳
2016,0.0,0.23,0.24,0.05,0.13,0.35,0.23,"[-50, -20, 0, 20, 50]",5,7.9,506.5,-0.12,重庆
2016,0.01,0.04,0.08,0.15,0.22,0.5,0.34,"[-50, -20, 0, 20, 50]",5,39.4,493.9,0.17,南充
2016,0.09,0.41,0.24,0.18,0.09,0.0,0.2,"[-50, -20, 0, 20, 50]",1,-13.9,563.8,0.01,内江
2016,,0.49,0.06,0.36,0.08,0.01,0.25,"[-50, -20, 0, 20, 50]",1,-14.0,491.8,-0.05,绵阳
2016,,0.28,0.67,0.03,0.02,0.0,0.35,"[-50, -20, 0, 20, 50]",2,-16.2,528.4,-0.03,成都
2016,0.08,0.62,0.02,0.16,0.12,0.0,0.15,"[-50, -20, 0, 20, 50]",1,-5.8,562.6,-0.13,宜宾
2016,,0.0,0.01,0.24,0.74,0.01,0.28,"[-50, -20, 0, 20, 50]",4,16.6,987.4,-0.12,雅安
2016,,0.07,0.08,0.26,0.59,,0.34,"[-50, -20, 0, 20, 50]",4,10.1,416.4,0.14,康定
2016,,0.13,0.62,0.17,0.08,0.0,0.22,"[-50, -20, 0, 20, 50]",2,-9.7,616.6,-0.12,西昌
2016,,0.0,0.25,0.42,0.28,0.05,0.35,"[-50, -20, 0, 20, 50]",3,16.2,698.2,0.12,会理
2016,,0.56,0.25,0.14,0.05,,0.33,"[-50, -20, 0, 20, 50]",1,-12.4,626.6,0.01,丽江
2016,,0.26,0.56,0.06,0.03,0.09,0.38,"[-50, -20, 0, 20, 50]",2,1.8,547.7,0.02,大理
2016,,0.48,0.39,0.05,0.08,0.0,0.36,"[-50, -20, 0, 20, 50]",1,-25.5,457.3,0.2,保山
2016,0.04,0.39,0.19,0.26,0.08,0.03,0.41,"[-50, -20, 0, 20, 50]",1,-10.2,575.9,0.04,昆明
2016,,0.48,0.19,0.33,0.0,0.0,0.4,"[-50, -20, 0, 20, 50]",1,-11.3,636.3,0.09,临沧
2016,,0.87,0.12,0.01,0.0,,0.39,"[-50, -20, 0, 20, 50]",1,-33.7,437.7,-0.11,蒙自
2016,,0.28,0.4,0.26,0.06,0.0,0.28,"[-50, -20, 0, 20, 50]",2,-3.2,589.8,0.21,景洪
2016,,0.0,0.1,0.57,0.33,,0.23,"[-50, -20, 0, 20, 50]",3,15.7,349.3,-0.29,甘孜
2016,,0.11,0.53,0.36,0.0,0.0,0.36,"[-50, -20, 0, 20, 50]",2,-6.6,296.6,-0.08,德钦
2016,,0.13,0.54,0.17,0.09,0.07,0.38,"[-50, -20, 0, 20, 50]",2,-4.9,295.4,0.05,昌都
2016,0.0,0.03,0.11,0.19,0.67,0.0,0.2,"[-50, -20, 0, 20, 50]",4,21.6,314.7,0.07,拉萨
2016,0.0,0.08,0.05,0.49,0.16,0.22,0.37,"[-50, -20, 0, 20, 50]",3,29.1,254.9,0.14,西安
2016,0.44,0.09,0.3,0.12,0.03,0.02,0.26,"[-50, -20, 0, 20, 50]",0,-32.7,244.1,-0.13,天水
2016,,0.01,0.19,0.23,0.57,,0.41,"[-50, -20, 0, 20, 50]",4,27.8,289.1,0.19,岷县
2016,0.0,0.26,0.05,0.0,0.16,0.53,0.39,"[-50, -20, 0, 20, 50]",5,50.0,397.5,-0.05,汉中
2016,0.05,0.1,0.19,0.2,0.4,0.06,0.36,"[-50, -20, 0, 20, 50]",4,9.6,413.0,0.02,安康
2016,0.0,0.18,0.07,0.28,0.03,0.44,0.4,"[-50, -20, 0, 20, 50]",5,43.8,388.2,-0.34,郧县
2016,0.03,0.18,0.42,0.06,0.3,0.01,0.31,"[-50, -20, 0, 20, 50]",2,0.4,313.0,0.24,长治
2016,,0.02,0.01,0.08,0.68,0.21,0.33,"[-50, -20, 0, 20, 50]",4,51.5,246.5,0.2,太原
2016,0.0,0.0,0.02,0.09,0.79,0.1,0.22,"[-50, -20, 0, 20, 50]",4,31.3,248.5,0.24,临汾
2016,0.0,0.05,0.1,0.17,0.39,0.29,0.2,"[-50, -20, 0, 20, 50]",4,45.3,228.2,-0.18,榆林
2016,0.0,0.0,0.1,0.83,0.07,0.0,0.21,"[-50, -20, 0, 20, 50]",3,13.6,294.5,-0.1,延安
2016,,0.04,0.02,0.49,0.31,0.14,0.31,"[-50, -20, 0, 20, 50]",3,36.4,278.0,0.01,西峰镇
2016,0.07,0.16,0.27,0.2,0.18,0.12,0.35,"[-50, -20, 0, 20, 50]",2,8.1,163.7,0.14,兰州
2016,0.16,0.3,0.38,0.01,0.09,0.06,0.25,"[-50, -20, 0, 20, 50]",2,-17.0,113.2,0.08,中宁
2016,0.07,0.12,0.57,0.03,0.14,0.07,0.33,"[-50, -20, 0, 20, 50]",2,2.1,104.5,-0.07,银川
2016,0.0,0.04,0.34,0.6,0.01,0.01,0.34,"[-50, -20, 0, 20, 50]",3,4.4,227.6,0.23,西宁
2016,,0.0,0.92,0.0,0.08,0.0,0.22,"[-50, -20, 0, 20, 50]",2,-10.2,263.6,-0.58,临夏
2016,,0.0,0.84,0.1,0.01,0.05,0.35,"[-50, -20, 0, 20, 50]",2,17.2,195.9,-0.1,玛多
2016,,0.13,0.07,0.43,0.37,,0.25,"[-50, -20, 0, 20, 50]",3,16.2,283.1,-0.11,玉树
2016,0.0,0.35,0.23,0.07,0.32,0.03,0.28,"[-50, -20, 0, 20, 50]",1,-1.1,93.8,0.05,武威
2016,0.0,0.19,0.19,0.25,0.09,0.28,0.31,"[-50, -20, 0, 20, 50]",5,17.2,76.7,0.18,张掖
2016,0.0,0.16,0.01,0.83,0.0,0.0,0.25,"[-50, -20, 0, 20, 50]",3,7.9,49.9,-0.01,酒泉
2016,0.21,0.0,0.0,0.0,0.79,0.0,0.34,"[-50, -20, 0, 20, 50]",4,10.0,22.7,-0.04,敦煌
2016,0.05,0.91,0.0,0.0,0.03,0.01,0.3,"[-50, -20, 0, 20, 50]",1,-37.2,7.6,-0.29,吐鲁番
2016,0.22,0.2,0.24,0.1,0.16,0.08,0.23,"[-50, -20, 0, 20, 50]",2,-11.6,42.1,0.35,库车
2016,0.14,0.09,0.0,0.0,0.01,0.76,0.29,"[-50, -20, 0, 20, 50]",5,60.4,26.9,-0.39,喀什
2016,0.01,0.11,0.03,0.19,0.17,0.49,0.33,"[-50, -20, 0, 20, 50]",5,52.3,21.9,-0.11,和田
2016,0.26,0.26,0.04,0.05,0.14,0.25,0.45,"[-50, -20, 0, 20, 50]",0,33.1,22.0,0.32,且末
2016,0.12,0.07,0.05,0.31,0.07,0.38,0.49,"[-50, -20, 0, 20, 50]",5,128.5,26.4,0.04,若羌
2016,0.07,0.02,0.4,0.09,0.32,0.1,0.32,"[-50, -20, 0, 20, 50]",2,16.9,21.0,0.09,哈密
2016,0.0,0.05,0.04,0.18,0.69,0.04,0.34,"[-50, -20, 0, 20, 50]",4,60.0,64.3,0.25,阿勒泰
2016,0.0,0.16,0.16,0.16,0.31,0.21,0.31,"[-50, -20, 0, 20, 50]",4,49.6,74.0,0.17,塔城
2016,0.0,0.23,0.09,0.14,0.49,0.05,0.29,"[-50, -20, 0, 20, 50]",4,23.0,58.5,-0.07,乌苏
2016,0.04,0.04,0.05,0.33,0.38,0.16,0.42,"[-50, -20, 0, 20, 50]",4,66.1,75.1,-0.02,伊宁
2016,0.04,0.06,0.05,0.09,0.45,0.31,0.31,"[-50, -20, 0, 20, 50]",4,33.9,97.5,0.08,乌鲁木齐
