,fcst_y,fcst_grade,0,1,2,3,4,5,classifier_score,regressor_score,site,divider,norm
2016,-15.3,0,0.45,0.35,0.2,0.0,0.0,0.0,0.22,-0.04,呼玛,"[-16.0, -12.0, -1.5, 2.8, 12.0]",390.7
2016,-22.7,0,0.47,0.36,0.02,0.04,0.06,0.05,0.17,0.12,博克图,"[-17.25, -4.4, 4.0, 6.8, 15.25]",419.4
2016,5.2,5,0.2,0.15,0.06,0.08,0.08,0.43,0.2,0.24,海拉尔,"[-14.0, -5.8, 0.0, 4.8, 17.25]",293.7
2016,-22.1,0,0.68,0.24,0.05,0.02,0.0,0.01,0.34,-0.01,图里河,"[-12.0, 1.4, 5.0, 8.8, 20.0]",367.8
2016,1.1,4,0.2,0.21,0.0,0.01,0.48,0.1,0.31,-0.12,嫩江,"[-18.0, -7.8, 0.0, 4.8, 15.0]",413.1
2016,30.8,5,0.0,0.0,0.18,0.0,0.06,0.76,0.36,0.22,齐齐哈尔,"[-21.25, -10.8, 5.0, 7.8, 13.0]",385.8
2016,-11.5,1,0.0,1.0,0.0,0.0,0.0,0.0,0.17,-0.43,海伦,"[-17.0, -8.0, 4.5, 7.8, 15.25]",470.0
2016,-14.6,1,0.3,0.35,0.0,0.28,0.05,0.02,0.37,0.03,富锦,"[-18.0, -8.0, 1.5, 10.0, 19.25]",396.2
2016,-0.9,2,0.23,0.0,0.27,0.0,0.23,0.27,0.3,-0.12,佳木斯,"[-15.75, -6.8, -4.5, 3.8, 13.75]",435.9
2016,-28.2,0,0.58,0.0,0.42,0.0,0.0,0.0,0.17,-0.09,鸡西,"[-15.25, -7.0, -3.0, 0.8, 10.75]",443.0
2016,-10.4,0,0.4,0.21,0.23,0.04,0.04,0.08,0.22,0.08,哈尔滨,"[-18.0, -7.0, -3.0, 3.0, 9.5]",453.0
2016,-22.7,0,0.74,0.11,0.0,0.02,0.13,0.0,0.29,0.08,牡丹江,"[-20.0, -5.0, -1.5, 2.0, 9.25]",457.3
2016,33.0,5,0.0,0.06,0.12,0.27,0.1,0.45,0.36,0.16,乌兰浩特,"[-23.25, -9.6, -3.5, 8.0, 22.0]",381.7
2016,13.3,0,0.36,0.1,0.11,0.05,0.05,0.33,0.22,-0.17,通辽,"[-22.0, -1.0, 3.5, 10.2, 23.5]",316.0
2016,-9.6,2,0.28,0.0,0.72,0.0,0.0,0.0,0.2,-0.64,长春,"[-15.5, -6.8, -1.0, 5.8, 15.0]",489.3
2016,34.2,5,0.22,0.14,0.17,0.01,0.14,0.32,0.32,0.08,延吉,"[-15.0, -7.8, -5.0, 0.6, 7.5]",438.9
2016,-23.5,0,0.89,0.0,0.08,0.02,0.01,0.0,0.24,-0.04,通化,"[-20.75, -12.8, -10.0, 1.0, 13.25]",704.9
2016,5.6,5,0.2,0.2,0.21,0.03,0.1,0.26,0.28,-0.02,沈阳,"[-19.25, -9.6, 2.0, 5.8, 21.0]",550.0
2016,-3.2,0,0.41,0.29,0.05,0.05,0.07,0.13,0.36,0.27,朝阳,"[-20.0, -6.6, -1.5, 13.2, 23.25]",404.1
2016,-19.5,0,0.7,0.07,0.04,0.04,0.05,0.1,0.35,0.2,营口,"[-22.25, -11.0, -1.5, 8.6, 16.25]",512.7
2016,13.9,5,0.15,0.27,0.01,0.09,0.05,0.43,0.31,0.18,丹东,"[-15.5, -5.6, 0.5, 8.2, 22.25]",773.8
2016,22.2,5,0.11,0.1,0.08,0.1,0.06,0.55,0.34,0.32,大连,"[-23.25, -1.8, 12.5, 18.6, 29.5]",462.0
2016,4.6,0,0.4,0.14,0.02,0.05,0.19,0.2,0.28,0.06,林东,"[-21.25, -9.0, -2.0, 3.6, 17.0]",333.9
2016,-27.6,1,0.44,0.56,0.0,0.0,0.0,0.0,0.33,0.0,锡林浩特,"[-19.0, -8.8, 2.0, 6.8, 24.0]",226.6
2016,18.6,2,0.02,0.0,0.57,0.04,0.09,0.28,0.16,0.08,朱日和,"[-21.25, -2.8, 4.0, 11.8, 25.5]",173.5
2016,17.7,5,0.05,0.07,0.07,0.06,0.02,0.73,0.33,0.08,多伦,"[-13.0, -5.8, -1.5, 3.0, 14.75]",325.8
2016,-9.9,0,0.38,0.31,0.21,0.05,0.01,0.04,0.31,-0.06,赤峰,"[-19.25, -9.0, -0.5, 4.0, 16.25]",309.6
2016,-10.3,0,0.38,0.18,0.29,0.05,0.1,0.0,0.3,-0.05,承德,"[-13.25, -1.0, 4.5, 9.0, 27.0]",434.9
2016,5.6,1,0.16,0.46,0.0,0.01,0.26,0.11,0.4,0.43,张家口,"[-11.0, 2.0, 4.5, 8.8, 17.0]",326.2
2016,36.3,5,0.06,0.01,0.03,0.06,0.02,0.82,0.28,0.26,呼和浩特,"[-23.25, -9.6, -3.0, 7.0, 19.25]",337.5
2016,14.4,5,0.0,0.0,0.42,0.0,0.0,0.58,0.28,0.05,包头,"[-24.25, -13.0, -4.5, 8.8, 25.0]",256.0
2016,48.7,4,0.01,0.01,0.0,0.15,0.47,0.36,0.22,0.04,陕坝,"[-31.5, -18.8, -5.0, 5.6, 24.5]",121.8
2016,9.8,1,0.34,0.38,0.01,0.0,0.17,0.1,0.31,0.06,北京,"[-17.0, -5.6, 8.0, 20.8, 35.25]",457.7
2016,-21.4,0,0.55,0.27,0.03,0.07,0.02,0.06,0.41,0.0,天津,"[-17.25, -4.0, 2.5, 9.0, 30.25]",430.2
2016,-4.3,1,0.14,0.48,0.0,0.0,0.3,0.08,0.12,-0.19,石家庄,"[-24.0, -11.0, -1.5, 5.8, 27.5]",424.2
2016,2.8,0,0.43,0.11,0.11,0.01,0.09,0.25,0.31,0.12,德州,"[-17.25, -5.8, 2.0, 6.0, 32.5]",436.4
2016,-16.7,0,0.48,0.04,0.09,0.14,0.17,0.08,0.31,0.18,邢台,"[-19.5, -5.0, -0.5, 8.8, 23.25]",415.6
2016,-2.7,1,0.03,0.48,0.01,0.23,0.19,0.06,0.22,-0.2,安阳,"[-19.0, -8.8, 0.0, 7.8, 20.25]",448.0
2016,6.5,1,0.14,0.38,0.04,0.17,0.19,0.08,0.27,-0.03,烟台,"[-17.5, -2.0, 7.0, 23.0, 42.0]",448.0
2016,-29.6,0,0.67,0.03,0.06,0.0,0.23,0.01,0.26,0.06,青岛,"[-22.0, -6.6, 3.0, 12.8, 28.25]",503.8
2016,2.3,0,0.33,0.0,0.0,0.33,0.0,0.33,0.2,-0.92,潍坊,"[-16.25, -7.8, 0.0, 9.0, 27.0]",452.0
2016,48.3,5,0.01,0.01,0.0,0.03,0.14,0.81,0.2,-0.04,济南,"[-29.5, -16.0, -10.5, -4.0, 15.25]",569.3
2016,-36.8,0,1.0,0.0,0.0,0.0,0.0,0.0,0.34,-0.06,临沂,"[-14.25, -6.6, -1.5, 3.0, 18.75]",666.9
2016,-7.2,0,0.56,0.0,0.0,0.0,0.44,0.0,0.23,-0.41,荷泽,"[-20.0, -8.2, 0.5, 7.8, 15.5]",498.5
2016,-8.3,0,0.72,0.02,0.03,0.09,0.07,0.07,0.39,0.28,新浦,"[-19.25, -8.0, 0.5, 11.6, 24.5]",683.5
2016,15.1,4,0.23,0.08,0.08,0.06,0.3,0.25,0.26,0.01,清江,"[-21.25, -8.6, 0.5, 7.6, 24.5]",686.9
2016,21.0,5,0.0,0.0,0.0,0.0,0.0,1.0,0.12,-0.22,徐州,"[-20.0, -11.0, -7.0, 6.2, 13.25]",650.2
2016,11.2,5,0.04,0.08,0.34,0.06,0.1,0.38,0.32,0.11,蚌埠,"[-22.5, -10.8, -2.0, 6.0, 17.25]",669.6
2016,-9.9,0,0.32,0.12,0.01,0.24,0.24,0.07,0.21,-0.06,阜阳,"[-31.25, -18.8, -11.0, -5.2, 12.0]",670.9
2016,14.1,5,0.13,0.19,0.02,0.01,0.04,0.61,0.28,-0.15,郑州,"[-21.0, -9.6, -3.5, 0.6, 10.5]",492.7
2016,17.7,1,0.0,0.48,0.04,0.05,0.11,0.32,0.35,0.15,南阳,"[-20.25, -13.0, -10.5, -1.2, 13.25]",589.5
2016,28.7,2,0.02,0.28,0.42,0.0,0.0,0.28,0.24,-0.33,信阳,"[-22.5, -13.0, -5.5, 3.6, 20.25]",738.9
2016,86.2,5,0.24,0.01,0.02,0.0,0.04,0.69,0.34,-0.01,东台,"[-17.5, -9.2, 3.0, 7.8, 19.0]",707.8
2016,2.1,4,0.11,0.05,0.02,0.3,0.37,0.15,0.27,0.06,南京,"[-22.0, -8.8, -3.5, 3.8, 13.5]",684.4
2016,-13.7,1,0.07,0.7,0.09,0.0,0.0,0.14,0.22,-0.06,合肥,"[-17.25, -5.4, 1.0, 7.0, 18.75]",601.8
2016,3.2,4,0.37,0.01,0.02,0.0,0.56,0.04,0.35,-0.09,上海,"[-19.0, -10.2, -1.0, 5.8, 17.0]",718.8
2016,-0.6,2,0.0,0.0,0.68,0.0,0.32,0.0,0.32,-0.37,杭州,"[-13.0, -5.0, 2.0, 4.8, 14.5]",807.0
2016,28.1,5,0.26,0.04,0.0,0.28,0.11,0.31,0.26,-0.11,安庆,"[-26.0, -12.0, -4.5, 0.0, 15.5]",841.8
2016,9.0,1,0.18,0.44,0.01,0.19,0.05,0.13,0.33,-0.23,屯溪,"[-20.0, -10.0, -4.0, 1.0, 18.0]",963.1
2016,8.3,0,0.32,0.0,0.0,0.11,0.32,0.25,0.25,0.11,九江,"[-18.75, -9.0, -3.0, 2.8, 14.0]",760.7
2016,15.4,4,0.04,0.06,0.11,0.01,0.44,0.34,0.26,0.04,汉口,"[-26.25, -16.0, -7.5, -1.2, 11.25]",804.1
2016,47.4,5,0.05,0.04,0.03,0.03,0.06,0.79,0.26,0.07,钟祥,"[-26.0, -12.8, -5.5, -1.2, 11.75]",657.8
2016,38.4,5,0.02,0.0,0.02,0.0,0.01,0.95,0.34,0.02,岳阳,"[-28.25, -17.2, -10.0, -0.2, 20.25]",725.9
2016,24.1,5,0.01,0.02,0.0,0.14,0.36,0.47,0.34,0.2,宜昌,"[-17.0, -6.0, -3.5, 2.0, 18.0]",806.1
2016,31.3,5,0.03,0.05,0.02,0.0,0.29,0.61,0.32,-0.09,常德,"[-23.0, -9.0, -5.0, 3.6, 20.5]",739.1
2016,17.2,5,0.0,0.06,0.02,0.12,0.2,0.6,0.2,-0.22,宁波,"[-13.0, -5.0, -0.5, 7.6, 17.0]",828.6
2016,11.0,4,0.0,0.01,0.0,0.0,0.99,0.0,0.25,-0.87,衢县,"[-20.25, -12.6, -3.0, 9.8, 24.75]",870.2
2016,-19.4,0,0.44,0.11,0.11,0.22,0.0,0.11,0.18,-0.76,温州,"[-22.75, -9.8, -3.5, 3.8, 13.0]",1118.0
2016,-9.7,3,0.27,0.01,0.02,0.37,0.27,0.06,0.28,0.22,浦城,"[-15.25, -4.8, 1.0, 11.0, 23.0]",957.6
2016,-22.6,0,0.5,0.21,0.0,0.0,0.27,0.02,0.19,-0.01,福州,"[-13.25, -5.0, -3.0, 4.8, 14.0]",839.9
2016,-3.8,1,0.15,0.55,0.02,0.17,0.06,0.05,0.3,-0.08,永安,"[-11.25, -4.0, 0.5, 11.6, 18.25]",843.7
2016,-12.5,1,0.29,0.48,0.07,0.01,0.05,0.1,0.39,0.24,贵溪,"[-22.0, -12.4, -4.5, 3.8, 22.0]",1007.7
2016,25.5,5,0.04,0.05,0.09,0.12,0.28,0.42,0.27,0.08,南昌,"[-19.0, -12.0, -5.5, 5.6, 21.5]",855.8
2016,0.7,0,0.37,0.3,0.03,0.0,0.12,0.18,0.26,-0.14,广昌,"[-18.25, -5.8, -1.0, 9.4, 18.5]",908.3
2016,37.1,5,0.01,0.0,0.01,0.35,0.0,0.63,0.17,-0.15,吉安,"[-16.75, -11.8, -5.5, 3.8, 22.25]",796.3
2016,-13.0,0,0.66,0.21,0.1,0.0,0.02,0.01,0.25,0.08,赣州,"[-15.0, -3.8, -1.5, 6.0, 16.25]",759.1
2016,26.4,5,0.03,0.02,0.11,0.0,0.34,0.5,0.27,0.0,长沙,"[-21.25, -11.0, -4.0, -0.2, 12.5]",743.3
2016,-1.2,2,0.11,0.07,0.3,0.16,0.11,0.25,0.38,0.19,衡阳,"[-22.25, -13.6, -5.0, 6.2, 16.75]",654.4
2016,-23.9,0,0.86,0.04,0.1,0.0,0.0,0.0,0.39,-0.14,郴县,"[-14.75, -7.8, -6.0, -1.4, 11.25]",749.7
2016,-11.5,0,0.45,0.09,0.0,0.0,0.45,0.01,0.24,-0.5,零陵,"[-18.0, -10.0, -3.5, 1.4, 16.0]",664.2
2016,-3.1,1,0.11,0.55,0.03,0.27,0.04,0.0,0.22,-0.13,芷江,"[-14.0, -3.6, 0.0, 6.0, 19.0]",715.6
2016,-3.4,1,0.29,0.36,0.07,0.03,0.12,0.13,0.31,0.31,夏门,"[-26.0, -11.0, -7.5, -4.2, 6.0]",849.8
2016,-3.9,2,0.31,0.03,0.32,0.09,0.15,0.1,0.33,-0.19,梅县,"[-13.25, -7.0, 1.0, 3.0, 12.0]",899.7
2016,2.2,5,0.21,0.13,0.24,0.1,0.06,0.26,0.33,0.21,汕头,"[-16.25, -9.8, -5.0, 0.0, 20.0]",1149.3
2016,14.8,3,0.0,0.08,0.0,0.69,0.09,0.14,0.15,-0.31,曲江,"[-15.25, -3.6, -1.0, 5.0, 13.0]",885.7
2016,0.6,3,0.1,0.18,0.0,0.41,0.26,0.05,0.17,-0.22,河源,"[-18.25, -10.6, -3.0, 4.4, 11.25]",1307.0
2016,-1.3,3,0.25,0.17,0.07,0.36,0.07,0.08,0.26,0.0,广州,"[-15.25, -5.8, -0.5, 5.0, 16.5]",1168.9
2016,7.3,4,0.06,0.0,0.0,0.0,0.94,0.0,0.33,0.1,阳江,"[-27.25, -12.0, -9.5, -0.6, 13.0]",1872.9
2016,-33.0,0,1.0,0.0,0.0,0.0,0.0,0.0,0.21,-0.66,湛江,"[-25.5, -10.6, -6.5, -1.2, 17.25]",1251.1
2016,15.6,5,0.0,0.26,0.0,0.0,0.0,0.74,0.18,-0.23,海口,"[-15.25, -9.0, -0.5, 5.0, 19.75]",1162.9
2016,27.0,5,0.05,0.15,0.01,0.03,0.19,0.57,0.2,-0.34,桂林,"[-17.75, -7.8, -1.0, 3.8, 15.25]",1146.4
2016,-6.8,0,0.34,0.34,0.01,0.0,0.18,0.13,0.23,-0.13,柳州,"[-12.0, -6.0, -5.0, -1.2, 12.75]",957.7
2016,1.2,0,0.39,0.16,0.01,0.06,0.13,0.25,0.3,0.08,悟州,"[-11.75, -2.0, 3.0, 12.2, 19.0]",923.1
2016,2.2,2,0.1,0.0,0.49,0.09,0.14,0.18,0.21,-0.18,南宁,"[-13.25, -8.8, -2.0, 3.6, 8.5]",945.0
2016,11.0,4,0.0,0.0,0.0,0.0,1.0,0.0,0.12,-1.08,北海,"[-18.25, -11.8, -4.0, 1.6, 12.25]",1415.0
2016,24.9,5,0.46,0.0,0.0,0.0,0.0,0.54,0.35,0.03,百色,"[-15.0, -5.8, 0.0, 7.8, 20.25]",811.9
2016,10.0,5,0.09,0.25,0.03,0.04,0.01,0.58,0.3,0.07,遵义,"[-16.0, -4.8, -1.5, 2.0, 14.25]",763.7
2016,5.0,2,0.0,0.0,0.5,0.5,0.0,0.0,0.17,-0.45,贵阳,"[-11.75, -4.0, 5.0, 8.8, 18.0]",771.9
2016,-11.4,0,0.4,0.24,0.02,0.34,0.0,0.0,0.28,-0.3,毕节,"[-5.5, 2.0, 4.0, 5.8, 11.5]",647.8
2016,14.4,5,0.02,0.03,0.13,0.27,0.02,0.53,0.37,0.17,兴仁,"[-12.75, -7.0, -2.0, 5.0, 9.25]",1000.9
2016,-19.6,1,0.33,0.37,0.03,0.0,0.18,0.09,0.19,0.0,榕江,"[-15.0, -5.6, -1.0, 3.0, 13.25]",763.9
2016,9.3,5,0.04,0.21,0.06,0.06,0.19,0.44,0.41,0.14,恩施,"[-17.0, -8.8, -3.5, 3.0, 19.0]",953.6
2016,28.0,5,0.02,0.16,0.0,0.05,0.13,0.64,0.27,0.12,达县,"[-20.25, -9.0, -6.5, 4.0, 17.75]",854.1
2016,-10.3,1,0.21,0.32,0.32,0.07,0.0,0.08,0.27,0.11,酉阳,"[-20.25, -5.6, 0.5, 7.0, 18.25]",871.9
2016,27.8,5,0.05,0.12,0.17,0.11,0.11,0.44,0.27,0.15,重庆,"[-16.25, -8.6, -4.0, 0.8, 16.25]",761.9
2016,20.1,5,0.05,0.02,0.0,0.12,0.24,0.57,0.19,-0.06,南充,"[-13.0, -6.6, -1.0, 6.8, 13.25]",731.9
2016,-28.0,0,1.0,0.0,0.0,0.0,0.0,0.0,0.24,-0.08,内江,"[-19.0, -6.8, 1.0, 5.8, 15.5]",797.7
2016,-1.3,0,0.36,0.09,0.1,0.07,0.29,0.09,0.25,-0.07,绵阳,"[-14.0, -5.0, -2.5, 10.0, 29.5]",706.6
2016,-10.6,1,0.09,0.82,0.08,0.0,0.01,0.0,0.17,-0.31,成都,"[-11.25, -2.8, 4.0, 10.0, 21.0]",717.3
2016,-11.4,1,0.27,0.39,0.09,0.06,0.02,0.17,0.26,-0.02,宜宾,"[-11.75, -1.8, 5.5, 11.0, 21.0]",769.6
2016,12.0,5,0.3,0.0,0.1,0.0,0.0,0.6,0.22,-0.25,雅安,"[-14.25, -3.0, 0.5, 4.8, 18.5]",1295.5
2016,17.1,5,0.0,0.07,0.14,0.0,0.04,0.75,0.33,0.21,康定,"[-14.0, -5.8, -2.5, 0.0, 9.0]",654.2
2016,10.2,5,0.06,0.23,0.0,0.03,0.25,0.43,0.27,0.12,西昌,"[-12.0, -5.8, -3.0, 1.0, 10.25]",855.7
2016,-10.0,1,0.0,1.0,0.0,0.0,0.0,0.0,0.28,-0.16,会理,"[-12.5, -5.6, -1.0, 2.8, 11.0]",982.1
2016,14.2,5,0.02,0.0,0.19,0.0,0.0,0.79,0.13,-0.57,丽江,"[-11.0, -5.6, -3.0, 0.0, 7.25]",854.8
2016,-19.9,0,0.89,0.03,0.0,0.0,0.08,0.0,0.33,-0.02,大理,"[-16.25, -4.8, -0.5, 7.6, 15.25]",799.4
2016,-13.6,1,0.15,0.4,0.32,0.04,0.04,0.05,0.33,-0.04,保山,"[-13.25, -8.8, -6.0, -1.2, 11.5]",703.7
2016,-6.7,0,0.42,0.19,0.04,0.0,0.19,0.15,0.29,0.03,昆明,"[-16.25, -3.0, -0.5, 5.0, 15.25]",774.9
2016,-5.6,2,0.32,0.01,0.64,0.01,0.02,0.0,0.19,-0.07,临沧,"[-11.0, -2.8, -0.5, 1.8, 6.25]",894.6
2016,-24.4,0,0.73,0.03,0.04,0.18,0.0,0.02,0.26,0.2,蒙自,"[-13.25, -6.8, -1.0, 3.0, 8.25]",631.9
2016,-10.0,0,0.52,0.35,0.02,0.09,0.02,0.0,0.43,0.21,景洪,"[-10.0, -2.4, 3.0, 7.0, 12.5]",870.7
2016,9.3,5,0.0,0.0,0.38,0.0,0.0,0.62,0.33,-0.44,甘孜,"[-9.25, -3.0, 0.0, 5.0, 11.25]",522.0
2016,4.7,1,0.15,0.31,0.04,0.15,0.2,0.15,0.33,0.03,德钦,"[-15.0, -5.0, 3.0, 7.0, 18.25]",428.2
2016,14.7,5,0.0,0.01,0.06,0.0,0.29,0.64,0.33,0.13,昌都,"[-13.25, -4.8, 0.0, 5.0, 10.0]",411.4
2016,-6.3,1,0.29,0.43,0.0,0.14,0.0,0.14,0.3,-0.07,拉萨,"[-16.0, -1.0, 2.5, 8.8, 16.0]",412.4
2016,29.2,5,0.01,0.04,0.03,0.07,0.37,0.48,0.36,0.33,西安,"[-17.25, -9.6, -3.5, 6.0, 14.25]",401.9
2016,-3.1,3,0.2,0.33,0.05,0.35,0.04,0.03,0.22,-0.08,天水,"[-20.25, -10.4, -2.5, 14.0, 27.0]",375.3
2016,6.6,1,0.19,0.43,0.0,0.0,0.25,0.13,0.31,0.0,岷县,"[-9.25, -2.0, 2.0, 8.4, 16.0]",437.6
2016,68.3,5,0.23,0.01,0.01,0.0,0.01,0.74,0.19,-0.06,汉中,"[-20.75, -9.8, -3.5, 7.6, 15.75]",626.3
2016,6.4,2,0.04,0.02,0.59,0.0,0.06,0.29,0.35,0.22,安康,"[-18.75, -10.8, -4.5, 1.0, 14.0]",617.0
2016,5.0,4,0.09,0.01,0.15,0.06,0.39,0.3,0.29,0.07,郧县,"[-23.75, -11.6, -6.0, -1.2, 12.5]",579.2
2016,-11.4,1,0.33,0.53,0.01,0.03,0.08,0.02,0.34,0.21,长治,"[-11.25, -2.8, 4.5, 11.0, 27.25]",427.2
2016,14.4,5,0.12,0.03,0.12,0.1,0.08,0.55,0.36,0.08,太原,"[-17.5, -5.8, 0.5, 7.0, 19.5]",340.7
2016,24.4,5,0.1,0.19,0.07,0.16,0.13,0.35,0.34,0.1,临汾,"[-15.5, 1.0, 4.5, 15.0, 24.25]",351.3
2016,40.1,5,0.0,0.06,0.22,0.0,0.12,0.6,0.3,-0.07,榆林,"[-18.25, -10.8, -2.0, 8.8, 21.25]",316.3
2016,20.0,4,0.01,0.03,0.0,0.0,0.76,0.2,0.36,-0.13,延安,"[-13.25, -6.0, 2.0, 5.8, 17.5]",412.0
2016,18.1,5,0.05,0.2,0.12,0.0,0.27,0.36,0.25,0.33,西峰镇,"[-18.0, -4.6, 2.0, 8.8, 16.25]",405.5
2016,3.1,3,0.22,0.02,0.22,0.32,0.14,0.08,0.21,-0.14,兰州,"[-16.75, -5.8, -0.5, 10.0, 22.25]",242.3
2016,-1.0,0,0.31,0.06,0.26,0.03,0.06,0.28,0.36,0.16,中宁,"[-21.5, -10.8, 3.5, 8.8, 35.75]",165.2
2016,25.6,4,0.0,0.0,0.0,0.0,0.69,0.31,0.25,-0.01,银川,"[-20.25, -11.0, -4.0, 5.8, 28.0]",153.6
2016,24.2,5,0.07,0.0,0.04,0.17,0.09,0.63,0.27,0.05,西宁,"[-12.25, -7.8, -1.0, 1.0, 9.25]",341.1
2016,15.0,4,0.0,0.0,0.0,0.0,1.0,0.0,0.21,-0.73,临夏,"[-16.25, -8.8, -3.0, 3.8, 17.5]",398.4
2016,45.8,5,0.02,0.1,0.06,0.06,0.14,0.62,0.45,0.23,玛多,"[-18.25, -10.0, -7.5, 0.6, 8.25]",278.9
2016,-7.0,1,0.26,0.65,0.09,0.0,0.0,0.0,0.32,0.28,玉树,"[-8.75, -4.0, 0.5, 5.6, 12.0]",410.0
2016,31.5,5,0.03,0.04,0.0,0.1,0.09,0.74,0.31,0.17,武威,"[-28.75, -9.8, -3.5, 6.0, 18.5]",136.8
2016,-1.4,2,0.05,0.0,0.74,0.0,0.0,0.21,0.32,-0.04,张掖,"[-19.5, -8.0, 2.0, 4.0, 15.5]",109.3
2016,0.9,3,0.02,0.19,0.04,0.45,0.0,0.3,0.16,-0.32,酒泉,"[-33.0, -21.6, -8.5, 8.0, 26.0]",69.1
2016,131.8,5,0.0,0.0,0.0,0.0,0.0,1.0,0.17,-0.44,敦煌,"[-46.0, -20.0, -10.0, 0.0, 29.75]",31.1
2016,42.7,5,0.16,0.03,0.0,0.0,0.38,0.43,0.24,-0.16,吐鲁番,"[-55.0, -36.2, -29.0, -3.8, 16.0]",11.2
2016,-3.6,5,0.03,0.29,0.18,0.0,0.08,0.42,0.33,0.09,库车,"[-41.0, -26.0, -15.0, -2.2, 14.5]",58.0
2016,82.6,5,0.0,0.03,0.04,0.13,0.07,0.73,0.22,-0.29,喀什,"[-51.5, -27.6, -15.0, -2.4, 23.75]",44.6
2016,58.2,5,0.0,0.0,0.3,0.01,0.02,0.67,0.36,0.14,和田,"[-63.0, -38.4, -27.0, -15.4, 22.75]",32.7
2016,56.4,5,0.03,0.18,0.0,0.13,0.0,0.66,0.36,0.21,且末,"[-67.75, -41.0, -35.0, -26.0, 12.0]",27.0
2016,54.8,5,0.0,0.0,0.0,0.27,0.04,0.69,0.34,-0.08,若羌,"[-72.75, -61.4, -54.5, -37.6, -11.25]",31.9
2016,34.6,4,0.0,0.03,0.0,0.15,0.49,0.33,0.3,0.13,哈密,"[-46.0, -27.4, -19.5, -0.6, 22.0]",28.0
2016,30.8,5,0.0,0.06,0.0,0.0,0.19,0.75,0.39,0.35,阿勒泰,"[-38.25, -19.8, -11.5, 1.6, 25.25]",96.8
2016,46.0,5,0.01,0.04,0.0,0.29,0.05,0.61,0.29,0.18,塔城,"[-24.75, -13.0, -7.0, 2.8, 18.75]",117.7
2016,30.3,5,0.0,0.08,0.01,0.01,0.09,0.81,0.29,0.04,乌苏,"[-34.25, -22.8, -16.5, -5.2, 18.25]",101.8
2016,38.3,5,0.01,0.02,0.3,0.0,0.13,0.54,0.26,0.14,伊宁,"[-31.25, -16.0, -11.0, -5.0, 11.0]",123.8
2016,77.5,5,0.15,0.02,0.0,0.02,0.03,0.78,0.27,0.09,乌鲁木齐,"[-39.0, -24.0, -16.0, -5.6, 7.5]",162.4
