,abnorm,fcst_y,real,fcst_grade,0,1,2,3,4,5,site
2013,0.1,0.4,3,1,0.04,0.45,0.09,0.23,0.06,0.13,岷县
2014,0.8,0.7,4,5,0.0,0.21,0.07,0.25,0.12,0.35,岷县
2015,-0.6,0.3,1,1,0.0,0.39,0.06,0.09,0.17,0.29,岷县
2016,1.7,0.5,5,3,0.0,0.25,0.03,0.37,0.15,0.2,岷县
2017,2.5,0.4,5,3,0.0,0.23,0.06,0.36,0.1,0.25,岷县
