,abnorm,fcst_y,real,fcst_grade,0,1,2,3,4,5,site
2013,2.0,0.5,5,5,0.0,0.15,0.05,0.18,0.3,0.32,岷县
2014,-0.5,0.5,1,3,0.0,0.11,0.13,0.38,0.26,0.12,岷县
2015,-0.1,0.8,2,5,0.0,0.09,0.04,0.28,0.2,0.39,岷县
2016,3.7,0.5,5,5,0.0,0.04,0.03,0.19,0.18,0.56,岷县
2017,0.8,0.9,4,5,0.0,0.04,0.01,0.12,0.22,0.61,岷县
