,0,1,2,3,4,5,classifier_score,divider,fcst_grade,fcst_y,norm,regressor_score,site
2016,0.02,0.0,0.0,0.17,0.38,0.43,0.24,"[-45.75, -25.0, -4.0, 9.8, 28.5]",5,30.9,75.2,-0.15,呼玛
2016,0.03,0.0,0.11,0.23,0.55,0.08,0.22,"[-45.75, -22.8, -6.0, 13.8, 41.0]",4,5.7,89.8,0.04,博克图
2016,0.04,0.17,0.04,0.2,0.09,0.46,0.19,"[-40.25, -22.6, -9.0, 1.4, 38.25]",5,49.2,55.6,-0.02,海拉尔
2016,0.77,0.07,0.04,0.09,0.01,0.02,0.28,"[-35.0, -18.6, -11.0, -4.0, 11.25]",0,-45.9,79.1,0.09,图里河
2016,0.74,0.02,0.0,0.0,0.25,0.0,0.22,"[-42.25, -26.2, -11.0, 2.0, 21.5]",0,-43.3,79.3,-0.34,嫩江
2016,0.01,0.01,0.0,0.0,0.83,0.15,0.29,"[-48.0, -30.2, -6.0, 12.0, 26.0]",4,24.5,75.1,-0.49,齐齐哈尔
2016,0.03,0.0,0.0,0.09,0.11,0.77,0.16,"[-36.5, -20.0, -3.5, 6.2, 26.0]",5,95.1,99.3,-0.05,海伦
2016,0.34,0.1,0.0,0.05,0.16,0.35,0.32,"[-37.75, -14.2, -5.5, 11.0, 28.0]",5,-15.4,77.8,0.27,富锦
2016,0.26,0.25,0.04,0.1,0.31,0.04,0.2,"[-55.0, -34.2, -15.0, 1.8, 15.5]",4,-13.7,91.3,-0.07,佳木斯
2016,0.12,0.0,0.0,0.0,0.04,0.84,0.2,"[-43.0, -20.0, -11.5, 4.2, 23.5]",5,68.2,87.2,-0.01,鸡西
2016,0.0,0.05,0.01,0.0,0.19,0.75,0.35,"[-39.75, -18.8, -11.5, -0.2, 19.25]",5,27.6,90.2,-0.07,哈尔滨
2016,0.02,0.41,0.0,0.09,0.09,0.39,0.21,"[-45.25, -24.0, -11.0, 5.2, 18.0]",1,-0.9,88.7,-0.03,牡丹江
2016,0.13,0.05,0.04,0.12,0.06,0.6,0.17,"[-47.25, -29.0, -18.0, 2.8, 19.25]",5,58.5,88.1,0.01,乌兰浩特
2016,0.19,0.09,0.29,0.02,0.24,0.17,0.32,"[-37.0, -18.8, -11.0, -2.4, 29.5]",2,2.9,71.6,0.07,通辽
2016,0.07,0.11,0.16,0.04,0.21,0.41,0.26,"[-42.5, -18.0, -11.0, 8.4, 36.75]",5,23.5,94.9,-0.04,长春
2016,0.54,0.28,0.05,0.05,0.02,0.06,0.23,"[-30.5, -15.0, -7.0, -1.2, 22.0]",0,-28.3,82.0,-0.05,延吉
2016,0.01,0.07,0.41,0.0,0.44,0.07,0.11,"[-30.25, -7.8, -1.0, 9.4, 29.5]",4,16.8,111.7,-0.35,通化
2016,0.13,0.2,0.14,0.06,0.02,0.45,0.29,"[-35.0, -15.8, -7.0, 4.0, 15.25]",5,11.9,92.9,0.13,沈阳
2016,0.16,0.15,0.67,0.0,0.02,0.0,0.21,"[-39.25, -27.6, -14.5, 3.0, 24.25]",2,-29.1,88.0,-0.4,朝阳
2016,0.22,0.46,0.02,0.05,0.21,0.04,0.33,"[-42.0, -21.2, -11.0, 7.8, 37.5]",1,-10.3,69.1,-0.08,营口
2016,0.01,0.1,0.19,0.03,0.02,0.65,0.2,"[-33.75, -22.0, -8.5, 12.4, 35.5]",5,92.9,106.5,-0.23,丹东
2016,0.07,0.02,0.21,0.3,0.06,0.34,0.26,"[-41.25, -22.8, -10.5, 12.4, 30.5]",5,73.8,74.3,-0.04,大连
2016,0.13,0.0,0.04,0.57,0.07,0.19,0.18,"[-43.25, -32.0, -21.5, -1.42108547152e-14, 25.25]",3,18.6,76.9,0.11,林东
2016,0.48,0.17,0.07,0.07,0.14,0.07,0.41,"[-33.0, -10.0, 4.0, 14.0, 35.75]",0,-16.0,45.5,0.1,锡林浩特
2016,0.08,0.11,0.01,0.01,0.02,0.77,0.21,"[-55.0, -27.0, -19.5, 0.0, 24.0]",5,88.6,33.0,0.01,朱日和
2016,0.06,0.0,0.0,0.0,0.0,0.94,0.15,"[-31.75, -14.4, -3.0, 9.6, 24.25]",5,25.2,63.8,-0.45,多伦
2016,0.82,0.0,0.0,0.0,0.06,0.12,0.22,"[-32.25, -19.2, -4.5, 9.4, 43.0]",0,-46.7,60.9,-0.32,赤峰
2016,0.11,0.17,0.35,0.14,0.18,0.05,0.33,"[-31.0, -22.6, -9.5, 10.0, 33.75]",2,-11.4,88.4,0.27,承德
2016,0.0,0.15,0.01,0.0,0.07,0.77,0.33,"[-32.0, -22.0, -13.0, -3.0, 23.5]",5,35.6,65.0,0.03,张家口
2016,0.53,0.32,0.0,0.07,0.01,0.07,0.27,"[-58.5, -26.2, -18.0, -3.0, 33.5]",0,-38.8,50.5,0.04,呼和浩特
2016,0.31,0.27,0.04,0.01,0.13,0.24,0.21,"[-51.0, -25.0, -12.0, 10.4, 33.5]",0,-4.3,30.6,0.17,包头
2016,0.19,0.41,0.02,0.16,0.01,0.21,0.44,"[-76.0, -57.0, -43.0, -29.0, 16.5]",1,28.1,21.0,0.04,陕坝
2016,0.0,0.07,0.02,0.06,0.05,0.8,0.2,"[-49.0, -30.0, -11.0, -3.2, 44.0]",5,95.2,72.0,-0.16,北京
2016,0.08,0.14,0.12,0.22,0.12,0.32,0.37,"[-53.0, -30.0, -15.0, -9.0, 23.0]",5,40.4,81.3,-0.04,天津
2016,0.11,0.11,0.0,0.0,0.1,0.68,0.17,"[-47.75, -34.6, -25.0, -4.0, 34.0]",5,126.9,58.1,-0.02,石家庄
2016,0.35,0.11,0.09,0.19,0.1,0.16,0.25,"[-50.0, -36.0, -27.0, -8.0, 30.0]",0,-39.6,77.9,-0.04,德州
2016,0.21,0.47,0.13,0.07,0.0,0.12,0.31,"[-44.0, -21.6, -10.5, 7.0, 56.5]",1,-6.3,47.5,-0.04,邢台
2016,0.34,0.0,0.0,0.0,0.0,0.66,0.32,"[-63.0, -41.4, -26.0, -11.0, 15.0]",5,136.2,62.1,0.02,安阳
2016,0.47,0.42,0.03,0.02,0.0,0.06,0.23,"[-43.25, -29.0, 5.0, 12.0, 40.5]",0,-34.8,66.0,0.2,烟台
2016,0.28,0.25,0.06,0.09,0.06,0.26,0.25,"[-43.0, -29.4, -16.5, 9.2, 34.25]",0,8.5,75.8,-0.01,青岛
2016,0.05,0.02,0.14,0.06,0.18,0.55,0.31,"[-44.25, -21.8, -8.0, 3.0, 46.5]",5,60.2,76.8,0.1,潍坊
2016,0.06,0.17,0.04,0.22,0.34,0.17,0.2,"[-53.5, -36.6, -18.0, -2.8, 33.75]",4,33.2,85.8,-0.13,济南
2016,0.68,0.09,0.02,0.0,0.03,0.18,0.21,"[-46.25, -24.8, -13.0, -0.2, 41.0]",0,-42.0,94.7,-0.38,临沂
2016,0.43,0.14,0.0,0.0,0.3,0.13,0.16,"[-55.0, -23.8, -6.0, 17.6, 36.0]",0,-18.1,64.6,-0.19,荷泽
2016,0.55,0.24,0.01,0.17,0.0,0.03,0.33,"[-45.0, -23.0, -5.5, 3.4, 37.0]",0,-55.7,104.8,0.33,新浦
2016,0.0,0.01,0.15,0.0,0.32,0.52,0.21,"[-61.5, -46.8, -25.5, -11.4, 16.25]",5,45.0,130.8,0.14,清江
2016,0.22,0.41,0.1,0.05,0.2,0.02,0.3,"[-41.25, -32.6, -20.5, -11.2, 22.5]",1,-27.1,115.6,0.06,徐州
2016,0.12,0.26,0.11,0.0,0.19,0.32,0.24,"[-52.0, -38.0, -26.0, -13.6, 15.5]",5,35.8,136.2,0.01,蚌埠
2016,0.04,0.0,0.01,0.07,0.6,0.28,0.25,"[-62.0, -43.6, -28.5, -20.0, 21.5]",4,10.8,154.4,0.22,阜阳
2016,0.73,0.01,0.0,0.24,0.0,0.02,0.34,"[-65.75, -36.6, -22.0, -7.0, 46.75]",0,-66.6,66.6,0.17,郑州
2016,0.0,0.0,0.0,0.01,0.05,0.94,0.29,"[-57.25, -41.0, -24.5, -14.0, 11.25]",5,88.8,120.3,-0.08,南阳
2016,0.04,0.92,0.04,0.0,0.0,0.0,0.31,"[-50.25, -26.8, -16.0, -8.4, 33.25]",1,-29.9,142.9,0.07,信阳
2016,0.3,0.01,0.0,0.07,0.48,0.14,0.25,"[-46.75, -25.2, -18.5, -6.4, 16.5]",4,9.1,149.3,-0.17,东台
2016,0.37,0.39,0.01,0.0,0.08,0.15,0.44,"[-43.5, -26.0, -6.0, 2.8, 34.25]",1,-17.8,166.3,0.3,南京
2016,0.19,0.07,0.12,0.02,0.25,0.35,0.26,"[-48.0, -29.0, -21.0, -0.4, 28.75]",5,33.0,146.0,0.18,合肥
2016,0.59,0.01,0.21,0.05,0.1,0.04,0.37,"[-40.25, -17.0, -7.5, 0.6, 21.25]",0,-27.3,174.0,0.13,上海
2016,0.35,0.04,0.11,0.04,0.23,0.23,0.35,"[-38.25, -24.6, -15.0, -4.6, 26.25]",0,-11.1,219.5,0.28,杭州
2016,0.05,0.26,0.06,0.08,0.0,0.55,0.24,"[-44.25, -23.0, -11.0, -1.0, 24.5]",5,77.4,265.3,0.1,安庆
2016,0.26,0.2,0.05,0.16,0.16,0.17,0.29,"[-37.5, -16.8, -1.5, 6.0, 27.25]",0,2.1,315.1,0.09,屯溪
2016,0.15,0.23,0.11,0.36,0.06,0.09,0.26,"[-41.0, -24.0, -12.5, 5.4, 20.25]",3,-6.1,223.5,0.15,九江
2016,0.0,0.16,0.25,0.0,0.0,0.59,0.28,"[-41.25, -24.6, -10.5, -1.2, 24.0]",5,51.1,220.3,-0.34,汉口
2016,0.64,0.09,0.14,0.08,0.0,0.05,0.32,"[-38.75, -19.4, -10.5, 0.4, 28.25]",0,-47.0,133.0,-0.05,钟祥
2016,0.1,0.1,0.02,0.07,0.09,0.62,0.31,"[-34.5, -17.0, -10.5, -0.2, 39.25]",5,55.3,192.3,0.03,岳阳
2016,0.35,0.06,0.36,0.0,0.17,0.06,0.22,"[-22.75, -12.6, 5.5, 16.8, 29.0]",2,-14.6,143.1,-0.05,宜昌
2016,0.04,0.07,0.13,0.14,0.06,0.56,0.26,"[-41.25, -23.4, -12.5, -3.8, 20.5]",5,57.3,197.6,0.09,常德
2016,0.05,0.31,0.0,0.19,0.25,0.2,0.25,"[-34.25, -20.0, -12.5, -2.0, 32.5]",1,7.2,201.6,0.17,宁波
2016,0.44,0.13,0.09,0.16,0.06,0.12,0.2,"[-33.25, -14.8, -7.0, 7.2, 34.25]",0,-8.5,297.4,-0.08,衢县
2016,0.47,0.03,0.07,0.02,0.02,0.39,0.28,"[-36.0, -20.8, -15.5, -1.2, 18.25]",0,-15.7,254.1,0.02,温州
2016,0.05,0.07,0.13,0.06,0.3,0.39,0.33,"[-30.5, -15.2, -8.5, 5.8, 17.0]",5,28.8,371.1,0.09,浦城
2016,0.14,0.4,0.01,0.23,0.17,0.05,0.3,"[-30.0, -7.4, 3.5, 15.4, 34.25]",1,-11.8,199.9,-0.12,福州
2016,0.51,0.07,0.15,0.13,0.02,0.12,0.26,"[-22.75, -5.8, 5.5, 18.6, 30.5]",0,-21.2,229.5,-0.17,永安
2016,0.14,0.0,0.18,0.09,0.14,0.45,0.32,"[-38.75, -24.8, -11.5, -0.4, 27.25]",5,22.6,367.3,0.26,贵溪
2016,0.03,0.11,0.02,0.41,0.3,0.13,0.22,"[-33.5, -15.4, -10.0, -2.2, 25.0]",3,9.9,299.1,-0.05,南昌
2016,0.17,0.27,0.03,0.03,0.09,0.41,0.27,"[-37.0, -20.8, -13.5, -3.2, 32.0]",5,6.4,311.5,-0.08,广昌
2016,0.11,0.02,0.0,0.06,0.35,0.46,0.37,"[-37.25, -24.6, -15.5, -7.2, 20.25]",5,18.1,251.2,0.05,吉安
2016,0.36,0.14,0.01,0.24,0.06,0.19,0.33,"[-27.25, -13.0, -6.0, 5.0, 34.0]",0,-2.2,189.2,-0.01,赣州
2016,0.04,0.44,0.02,0.02,0.19,0.29,0.27,"[-38.0, -29.0, -21.5, -4.4, 16.25]",1,13.2,225.2,-0.15,长沙
2016,0.23,0.24,0.12,0.13,0.08,0.2,0.23,"[-35.25, -19.8, -7.5, 4.0, 31.75]",1,-6.0,168.9,0.02,衡阳
2016,0.68,0.16,0.09,0.0,0.07,0.0,0.25,"[-34.25, -18.6, -5.0, 3.8, 29.75]",0,-31.7,184.7,-0.15,郴县
2016,0.0,0.0,0.0,0.02,0.0,0.98,0.25,"[-38.0, -19.8, -11.0, 2.8, 20.75]",5,59.3,184.7,0.04,零陵
2016,0.01,0.01,0.03,0.43,0.26,0.26,0.27,"[-32.0, -18.8, -10.0, -1.4, 20.0]",3,10.7,207.4,0.07,芷江
2016,0.11,0.22,0.04,0.18,0.26,0.19,0.24,"[-36.5, -15.6, -4.5, 6.2, 36.25]",4,5.6,201.2,0.14,夏门
2016,0.31,0.63,0.0,0.05,0.01,0.0,0.24,"[-33.25, -14.0, -4.0, 4.4, 24.0]",1,-35.0,226.8,-0.12,梅县
2016,0.44,0.42,0.05,0.07,0.01,0.01,0.3,"[-25.0, -9.0, 8.5, 20.8, 44.25]",0,-27.6,274.4,0.01,汕头
2016,0.0,0.05,0.07,0.17,0.18,0.53,0.33,"[-36.5, -21.8, -12.5, 4.6, 26.75]",5,39.8,250.4,0.36,曲江
2016,0.24,0.25,0.04,0.03,0.27,0.17,0.27,"[-43.0, -26.4, -14.5, -8.0, 12.5]",4,-29.1,387.4,0.11,河源
2016,0.05,0.01,0.31,0.13,0.02,0.48,0.27,"[-30.25, -22.0, -12.5, -5.0, 12.75]",5,10.3,275.9,0.11,广州
2016,0.01,0.42,0.0,0.0,0.14,0.43,0.32,"[-47.5, -27.8, -16.0, -1.6, 12.0]",5,-9.4,457.4,0.08,阳江
2016,0.66,0.05,0.09,0.0,0.0,0.2,0.3,"[-42.0, -26.4, -13.0, -5.0, 27.0]",0,-31.0,262.4,0.21,湛江
2016,0.29,0.0,0.07,0.0,0.58,0.06,0.29,"[-41.5, -21.8, 0.0, 16.8, 27.25]",4,-0.5,229.5,0.13,海口
2016,0.02,0.0,0.15,0.01,0.08,0.74,0.27,"[-37.25, -21.0, -17.0, -7.0, 16.75]",5,66.2,380.8,-0.08,桂林
2016,0.02,0.02,0.02,0.24,0.09,0.61,0.31,"[-37.0, -25.0, -17.0, -6.4, 13.0]",5,67.4,291.4,0.01,柳州
2016,0.16,0.04,0.02,0.11,0.26,0.41,0.25,"[-43.25, -20.6, -8.5, 2.4, 23.0]",5,37.6,243.2,0.09,悟州
2016,0.05,0.06,0.14,0.04,0.14,0.57,0.37,"[-42.5, -19.4, -9.0, 12.6, 37.0]",5,35.6,219.0,0.04,南宁
2016,0.1,0.21,0.02,0.39,0.03,0.25,0.21,"[-48.0, -26.8, -14.0, -2.4, 26.0]",3,2.6,294.4,-0.2,北海
2016,0.07,0.0,0.08,0.0,0.41,0.44,0.26,"[-27.5, -12.6, -0.5, 13.6, 37.5]",5,52.6,193.4,-0.2,百色
2016,0.27,0.2,0.24,0.03,0.15,0.11,0.37,"[-40.25, -22.6, -8.5, 7.0, 20.25]",0,-14.7,213.1,0.29,遵义
2016,0.01,0.27,0.0,0.69,0.01,0.02,0.17,"[-18.0, -4.8, 5.5, 16.0, 38.75]",3,2.4,200.9,-0.3,贵阳
2016,0.07,0.21,0.04,0.13,0.12,0.43,0.32,"[-24.0, -16.8, -3.0, 12.8, 28.5]",5,22.0,144.2,0.11,毕节
2016,0.29,0.18,0.01,0.03,0.14,0.35,0.31,"[-34.25, -16.2, -1.5, 8.2, 24.5]",5,9.9,262.6,0.07,兴仁
2016,0.0,0.03,0.13,0.01,0.44,0.39,0.22,"[-39.25, -20.2, -6.0, 3.8, 32.25]",4,19.7,220.4,-0.04,榕江
2016,0.11,0.13,0.17,0.05,0.02,0.52,0.19,"[-28.25, -14.4, -8.5, 0.0, 26.0]",5,41.1,208.8,-0.11,恩施
2016,0.38,0.32,0.15,0.0,0.08,0.07,0.18,"[-33.5, -24.8, -14.5, -0.2, 19.0]",0,-32.5,167.6,-0.35,达县
2016,0.16,0.48,0.07,0.07,0.09,0.13,0.39,"[-32.0, -15.0, -7.0, 0.0, 16.5]",1,-17.8,223.4,0.09,酉阳
2016,0.02,0.03,0.0,0.07,0.17,0.71,0.27,"[-27.5, -17.8, -8.0, -2.0, 10.25]",5,36.8,193.2,0.07,重庆
2016,0.06,0.28,0.03,0.32,0.14,0.17,0.3,"[-34.0, -16.0, -9.0, -5.2, 8.25]",3,10.0,156.9,0.13,南充
2016,0.04,0.02,0.09,0.06,0.16,0.63,0.29,"[-37.0, -15.8, -11.0, -1.2, 24.5]",5,38.4,178.9,0.2,内江
2016,0.97,0.0,0.0,0.03,0.0,0.0,0.23,"[-35.0, -21.0, -9.5, 1.4, 32.25]",0,-55.5,97.6,-0.18,绵阳
2016,0.07,0.22,0.0,0.0,0.0,0.71,0.19,"[-43.0, -25.8, -12.0, -4.2, 22.5]",5,36.8,111.3,-0.42,成都
2016,0.48,0.19,0.07,0.2,0.05,0.01,0.29,"[-34.5, -19.2, -5.5, 11.6, 22.25]",0,-32.0,154.1,0.04,宜宾
2016,0.05,0.05,0.49,0.02,0.05,0.34,0.32,"[-28.75, -16.4, -7.5, 4.6, 14.5]",2,7.7,179.8,0.06,雅安
2016,0.11,0.05,0.09,0.08,0.33,0.34,0.23,"[-17.0, -6.0, -2.5, 6.0, 16.0]",5,15.5,172.9,0.21,康定
2016,0.18,0.01,0.01,0.61,0.15,0.04,0.24,"[-24.75, -11.8, -5.5, 9.6, 20.0]",3,5.7,205.7,0.02,西昌
2016,0.42,0.11,0.08,0.11,0.09,0.19,0.4,"[-24.5, -14.6, -3.0, 6.2, 29.0]",0,-6.1,218.2,0.01,会理
2016,0.35,0.52,0.0,0.04,0.01,0.08,0.3,"[-28.25, -10.8, -4.0, 0.8, 15.25]",1,-19.9,169.7,-0.04,丽江
2016,0.62,0.18,0.13,0.01,0.02,0.04,0.28,"[-28.25, -6.6, 6.0, 14.8, 43.0]",0,-38.9,144.8,-0.1,大理
2016,0.34,0.02,0.33,0.1,0.2,0.01,0.31,"[-44.5, -24.8, -10.5, 4.4, 34.25]",0,-12.8,127.2,0.16,保山
2016,0.05,0.0,0.0,0.95,0.0,0.0,0.26,"[-28.0, -13.4, -5.5, 1.6, 26.0]",3,-5.2,174.0,-0.39,昆明
2016,0.49,0.17,0.19,0.12,0.02,0.01,0.36,"[-24.0, -12.6, -4.5, 2.8, 20.25]",0,-24.3,180.6,0.02,临沧
2016,0.05,0.06,0.07,0.01,0.64,0.17,0.3,"[-24.75, -8.8, 5.0, 13.0, 31.0]",4,19.7,112.5,-0.02,蒙自
2016,0.44,0.14,0.29,0.04,0.04,0.05,0.37,"[-26.0, -10.4, 1.0, 13.8, 42.75]",0,-15.8,148.0,0.11,景洪
2016,0.15,0.68,0.16,0.0,0.0,0.01,0.19,"[-17.0, -6.8, -4.0, 2.0, 15.75]",1,-14.9,134.2,-0.14,甘孜
2016,0.33,0.08,0.14,0.0,0.26,0.19,0.25,"[-34.0, -13.0, 3.0, 25.0, 41.25]",0,8.5,60.2,0.07,德钦
2016,0.26,0.5,0.16,0.01,0.04,0.03,0.3,"[-25.25, -13.4, -2.0, 3.0, 25.0]",1,-7.7,89.1,0.06,昌都
2016,0.33,0.29,0.13,0.09,0.06,0.1,0.31,"[-25.0, -11.0, 0.5, 12.6, 41.0]",0,-10.2,70.9,0.2,拉萨
2016,0.05,0.17,0.0,0.05,0.06,0.67,0.27,"[-52.25, -27.8, -2.5, 5.6, 26.5]",5,12.2,64.1,0.01,西安
2016,0.46,0.21,0.05,0.06,0.21,0.01,0.36,"[-39.0, -18.4, -10.0, -5.0, 13.75]",0,-34.1,71.7,0.11,天水
2016,0.01,0.0,0.02,0.02,0.78,0.17,0.3,"[-31.0, -14.4, -7.0, 3.8, 10.0]",4,26.0,85.5,0.23,岷县
2016,0.36,0.19,0.0,0.05,0.24,0.16,0.31,"[-36.0, -20.0, -10.5, 4.2, 37.5]",0,-10.8,94.0,0.15,汉中
2016,0.32,0.12,0.01,0.03,0.33,0.19,0.24,"[-45.0, -27.0, -18.5, -1.2, 15.5]",4,19.1,116.6,-0.17,安康
2016,0.03,0.08,0.11,0.19,0.1,0.49,0.21,"[-52.25, -30.4, -19.0, -9.0, 16.25]",5,31.3,100.1,-0.07,郧县
2016,0.37,0.4,0.07,0.01,0.04,0.11,0.25,"[-42.0, -20.0, -2.5, 7.8, 32.0]",1,-15.8,71.0,0.11,长治
2016,0.38,0.0,0.5,0.0,0.0,0.12,0.23,"[-49.0, -32.0, -17.0, -3.4, 36.25]",2,-24.4,54.5,-0.08,太原
2016,0.36,0.12,0.17,0.21,0.02,0.12,0.31,"[-46.0, -32.8, -23.0, -2.4, 40.75]",0,1.0,54.1,0.15,临汾
2016,0.05,0.0,0.0,0.0,0.12,0.83,0.16,"[-58.0, -42.0, -33.0, -7.4, 13.0]",5,79.1,48.6,-0.17,榆林
2016,0.63,0.11,0.26,0.0,0.0,0.0,0.23,"[-52.0, -31.6, -19.0, -8.8, 21.5]",0,-67.2,70.5,-0.6,延安
2016,0.08,0.17,0.05,0.3,0.05,0.35,0.2,"[-47.0, -29.0, -20.0, 0.4, 24.75]",5,-12.1,66.4,0.22,西峰镇
2016,0.11,0.02,0.01,0.19,0.33,0.34,0.34,"[-54.0, -34.0, -28.5, -17.0, 17.0]",5,35.5,45.4,0.09,兰州
2016,0.0,0.02,0.03,0.0,0.1,0.85,0.19,"[-62.0, -47.4, -23.0, -12.0, 23.0]",5,123.4,28.5,-0.22,中宁
2016,0.02,0.27,0.0,0.02,0.16,0.53,0.3,"[-67.0, -49.2, -29.0, -4.8, 26.25]",5,205.2,23.9,0.2,银川
2016,0.0,0.03,0.25,0.01,0.16,0.55,0.28,"[-34.0, -26.0, -19.0, -7.4, 6.25]",5,30.8,64.7,-0.19,西宁
2016,0.04,0.28,0.04,0.46,0.13,0.05,0.29,"[-46.0, -32.0, -25.0, -13.0, 20.5]",3,-12.8,69.0,-0.01,临夏
2016,0.43,0.2,0.11,0.07,0.05,0.14,0.39,"[-25.5, -11.0, -3.5, 4.0, 21.75]",0,24.3,60.4,0.26,玛多
2016,0.06,0.0,0.88,0.06,0.0,0.0,0.16,"[-12.25, -2.6, 6.5, 9.8, 20.0]",2,1.8,98.1,-0.27,玉树
2016,0.0,0.12,0.0,0.33,0.08,0.47,0.33,"[-60.0, -44.2, -33.0, -22.8, -2.25]",5,18.1,27.1,0.0,武威
2016,0.07,0.36,0.14,0.11,0.06,0.26,0.28,"[-52.0, -32.0, -13.0, 1.0, 45.25]",1,70.7,20.8,0.26,张掖
2016,0.0,0.0,0.0,0.0,0.18,0.82,0.27,"[-57.0, -43.0, -36.0, -14.0, 29.0]",5,126.1,14.0,0.01,酒泉
2016,0.63,0.28,0.08,0.0,0.01,0.0,0.14,"[-85.0, -70.0, -47.5, -28.0, 83.75]",0,-90.2,6.7,-0.09,敦煌
2016,,0.22,,0.0,0.0,0.78,0.35,"[-100.0, -70.0, -70.0, -41.0, 49.0]",5,48.1,3.4,-0.49,吐鲁番
2016,0.01,0.16,0.12,0.04,0.18,0.49,0.28,"[-78.0, -57.0, -40.0, -14.2, 41.0]",5,44.7,18.5,0.04,库车
2016,0.02,0.11,0.0,0.01,0.13,0.73,0.25,"[-82.5, -68.0, -44.0, -11.0, 31.0]",5,110.8,9.9,-0.11,喀什
2016,0.0,0.05,0.09,0.08,0.17,0.61,0.23,"[-90.0, -70.0, -50.0, -20.0, 30.0]",5,126.0,10.0,-0.55,和田
2016,0.16,0.08,0.01,0.0,0.35,0.4,0.34,"[-85.0, -70.0, -41.0, -11.0, 51.75]",5,75.8,6.8,0.06,且末
2016,,0.11,,0.24,0.24,0.41,0.43,"[-100.0, -72.0, -65.5, -45.0, 10.0]",5,134.0,7.3,-0.23,若羌
2016,0.14,0.25,0.07,0.0,0.37,0.17,0.27,"[-68.5, -47.0, -29.0, -11.0, 64.5]",4,-26.0,5.6,0.02,哈密
2016,0.02,0.3,0.13,0.01,0.22,0.32,0.32,"[-51.0, -26.0, -13.0, 3.8, 42.0]",5,14.7,16.2,0.16,阿勒泰
2016,0.09,0.27,0.07,0.06,0.29,0.22,0.4,"[-45.0, -26.0, -14.0, -2.0, 37.0]",4,51.8,25.6,0.06,塔城
2016,0.06,0.15,0.12,0.1,0.15,0.42,0.4,"[-62.25, -27.0, -18.5, 10.2, 31.0]",5,28.9,23.3,0.29,乌苏
2016,0.0,0.0,0.11,0.08,0.05,0.76,0.36,"[-44.0, -28.8, -10.0, -4.0, 33.75]",5,92.7,30.1,0.06,伊宁
2016,0.24,0.63,0.09,0.0,0.01,0.03,0.27,"[-54.5, -38.0, -9.5, 3.0, 44.25]",1,-42.9,33.8,0.05,乌鲁木齐
