,0,1,2,3,4,5,classifier_score,divider,fcst_grade,fcst_y,norm,regressor_score,site
2016,0.02,0.01,0.0,0.01,0.04,0.92,0.18,"[-45.75, -25.0, -4.0, 9.8, 28.5]",5,33.9,75.2,-0.48,呼玛
2016,0.0,0.01,0.01,0.05,0.91,0.01,0.26,"[-45.75, -22.8, -6.0, 13.8, 41.0]",4,15.2,89.8,-0.21,博克图
2016,0.1,0.04,0.24,0.14,0.01,0.47,0.19,"[-40.25, -22.6, -9.0, 1.4, 38.25]",5,44.0,55.6,-0.16,海拉尔
2016,0.94,0.0,0.05,0.0,0.0,0.0,0.22,"[-35.0, -18.6, -11.0, -4.0, 11.25]",0,-62.0,79.1,-0.16,图里河
2016,0.74,0.0,0.0,0.0,0.25,0.0,0.22,"[-42.25, -26.2, -11.0, 2.0, 21.5]",0,-42.0,79.3,-0.61,嫩江
2016,0.0,0.0,0.0,0.0,0.99,0.01,0.29,"[-48.0, -30.2, -6.0, 12.0, 26.0]",4,24.0,75.1,-0.76,齐齐哈尔
2016,0.19,0.01,0.0,0.0,0.12,0.68,0.16,"[-36.5, -20.0, -3.5, 6.2, 26.0]",5,78.2,99.3,-0.16,海伦
2016,0.69,0.01,0.01,0.01,0.04,0.23,0.28,"[-37.75, -14.2, -5.5, 11.0, 28.0]",0,16.2,77.8,0.14,富锦
2016,0.12,0.56,0.01,0.0,0.28,0.02,0.23,"[-55.0, -34.2, -15.0, 1.8, 15.5]",1,-17.2,91.3,-0.16,佳木斯
2016,0.09,0.0,0.0,0.0,0.0,0.91,0.24,"[-43.0, -20.0, -11.5, 4.2, 23.5]",5,104.4,87.2,-0.34,鸡西
2016,0.01,0.06,0.02,0.0,0.05,0.85,0.2,"[-39.75, -18.8, -11.5, -0.2, 19.25]",5,20.6,90.2,-0.35,哈尔滨
2016,0.02,0.81,0.0,0.1,0.0,0.06,0.22,"[-45.25, -24.0, -11.0, 5.2, 18.0]",1,0.9,88.7,-0.21,牡丹江
2016,0.0,0.0,0.0,0.01,0.0,0.99,0.28,"[-47.25, -29.0, -18.0, 2.8, 19.25]",5,76.6,88.1,-0.23,乌兰浩特
2016,0.25,0.01,0.42,0.01,0.27,0.04,0.26,"[-37.0, -18.8, -11.0, -2.4, 29.5]",2,-49.1,71.6,-0.16,通辽
2016,0.01,0.0,0.01,0.0,0.0,0.98,0.19,"[-42.5, -18.0, -11.0, 8.4, 36.75]",5,20.6,94.9,-0.37,长春
2016,0.83,0.17,0.0,0.0,0.0,0.0,0.22,"[-30.5, -15.0, -7.0, -1.2, 22.0]",0,-25.8,82.0,-0.12,延吉
2016,0.0,0.02,0.48,0.0,0.47,0.02,0.11,"[-30.25, -7.8, -1.0, 9.4, 29.5]",2,16.0,111.7,-0.56,通化
2016,0.0,0.0,0.32,0.0,0.0,0.67,0.33,"[-35.0, -15.8, -7.0, 4.0, 15.25]",5,2.9,92.9,-0.11,沈阳
2016,0.01,0.0,0.98,0.0,0.0,0.0,0.21,"[-39.25, -27.6, -14.5, 3.0, 24.25]",2,-14.0,88.0,-0.63,朝阳
2016,0.32,0.52,0.0,0.0,0.12,0.03,0.27,"[-42.0, -21.2, -11.0, 7.8, 37.5]",1,-16.7,69.1,-0.3,营口
2016,0.01,0.01,0.0,0.0,0.0,0.98,0.2,"[-33.75, -22.0, -8.5, 12.4, 35.5]",5,137.3,106.5,-0.43,丹东
2016,0.02,0.0,0.0,0.01,0.0,0.97,0.27,"[-41.25, -22.8, -10.5, 12.4, 30.5]",5,160.1,74.3,-0.22,大连
2016,0.0,0.0,0.0,0.99,0.0,0.0,0.19,"[-43.25, -32.0, -21.5, -1.42108547152e-14, 25.25]",3,17.4,76.9,0.04,林东
2016,0.13,0.01,0.0,0.0,0.0,0.86,0.31,"[-33.0, -10.0, 4.0, 14.0, 35.75]",5,-12.8,45.5,-0.12,锡林浩特
2016,0.0,0.02,0.0,0.0,0.0,0.98,0.25,"[-55.0, -27.0, -19.5, 0.0, 24.0]",5,156.9,33.0,-0.16,朱日和
2016,0.01,0.0,0.0,0.0,0.0,0.99,0.15,"[-31.75, -14.4, -3.0, 9.6, 24.25]",5,21.3,63.8,-0.77,多伦
2016,0.98,0.01,0.0,0.0,0.01,0.0,0.22,"[-32.25, -19.2, -4.5, 9.4, 43.0]",0,-56.3,60.9,-0.44,赤峰
2016,0.16,0.08,0.69,0.01,0.04,0.02,0.32,"[-31.0, -22.6, -9.5, 10.0, 33.75]",2,-3.2,88.4,0.15,承德
2016,0.01,0.06,0.0,0.03,0.01,0.89,0.33,"[-32.0, -22.0, -13.0, -3.0, 23.5]",5,28.4,65.0,-0.06,张家口
2016,0.15,0.84,0.0,0.0,0.0,0.0,0.25,"[-58.5, -26.2, -18.0, -3.0, 33.5]",1,-68.3,50.5,-0.06,呼和浩特
2016,0.3,0.59,0.0,0.0,0.0,0.11,0.2,"[-51.0, -25.0, -12.0, 10.4, 33.5]",1,-26.7,30.6,0.04,包头
2016,0.02,0.88,0.0,0.0,0.0,0.1,0.3,"[-76.0, -57.0, -43.0, -29.0, 16.5]",1,20.5,21.0,-0.03,陕坝
2016,0.0,0.01,0.0,0.0,0.0,0.99,0.16,"[-49.0, -30.0, -11.0, -3.2, 44.0]",5,72.0,72.0,-0.71,北京
2016,0.0,0.78,0.0,0.0,0.01,0.21,0.31,"[-53.0, -30.0, -15.0, -9.0, 23.0]",1,7.6,81.3,-0.21,天津
2016,0.07,0.02,0.0,0.0,0.13,0.77,0.2,"[-47.75, -34.6, -25.0, -4.0, 34.0]",5,213.2,58.1,-0.15,石家庄
2016,0.99,0.0,0.0,0.01,0.0,0.0,0.17,"[-50.0, -36.0, -27.0, -8.0, 30.0]",0,-55.7,77.9,-0.08,德州
2016,0.44,0.38,0.0,0.02,0.02,0.14,0.31,"[-44.0, -21.6, -10.5, 7.0, 56.5]",0,-0.4,47.5,-0.26,邢台
2016,0.0,0.0,0.0,0.0,0.0,0.99,0.33,"[-63.0, -41.4, -26.0, -11.0, 15.0]",5,266.3,62.1,-0.13,安阳
2016,0.3,0.7,0.0,0.0,0.0,0.0,0.26,"[-43.25, -29.0, 5.0, 12.0, 40.5]",1,-52.6,66.0,0.06,烟台
2016,0.01,0.43,0.0,0.0,0.0,0.56,0.29,"[-43.0, -29.4, -16.5, 9.2, 34.25]",5,13.8,75.8,-0.37,青岛
2016,0.01,0.01,0.02,0.01,0.95,0.0,0.3,"[-44.25, -21.8, -8.0, 3.0, 46.5]",4,43.1,76.8,-0.11,潍坊
2016,0.0,0.03,0.0,0.0,0.9,0.06,0.26,"[-53.5, -36.6, -18.0, -2.8, 33.75]",4,26.9,85.8,-0.32,济南
2016,0.97,0.02,0.0,0.0,0.0,0.0,0.24,"[-46.25, -24.8, -13.0, -0.2, 41.0]",0,-48.4,94.7,-0.63,临沂
2016,0.43,0.15,0.0,0.0,0.28,0.14,0.17,"[-55.0, -23.8, -6.0, 17.6, 36.0]",0,-18.2,64.6,-0.26,荷泽
2016,0.99,0.0,0.0,0.0,0.0,0.0,0.26,"[-45.0, -23.0, -5.5, 3.4, 37.0]",0,-45.2,104.8,0.11,新浦
2016,0.0,0.0,0.36,0.0,0.01,0.62,0.16,"[-61.5, -46.8, -25.5, -11.4, 16.25]",5,67.7,130.8,0.01,清江
2016,0.36,0.09,0.04,0.03,0.44,0.04,0.27,"[-41.25, -32.6, -20.5, -11.2, 22.5]",4,-35.7,115.6,-0.23,徐州
2016,0.0,0.06,0.0,0.0,0.2,0.74,0.2,"[-52.0, -38.0, -26.0, -13.6, 15.5]",5,30.8,136.2,-0.13,蚌埠
2016,0.42,0.04,0.02,0.02,0.36,0.13,0.2,"[-62.0, -43.6, -28.5, -20.0, 21.5]",0,16.4,154.4,0.08,阜阳
2016,0.34,0.0,0.0,0.66,0.0,0.0,0.26,"[-65.75, -36.6, -22.0, -7.0, 46.75]",3,-78.3,66.6,-0.07,郑州
2016,0.0,0.0,0.0,0.0,0.0,0.99,0.29,"[-57.25, -41.0, -24.5, -14.0, 11.25]",5,80.7,120.3,-0.29,南阳
2016,0.0,0.99,0.0,0.0,0.0,0.0,0.32,"[-50.25, -26.8, -16.0, -8.4, 33.25]",1,-29.6,142.9,-0.05,信阳
2016,0.03,0.0,0.0,0.0,0.45,0.51,0.28,"[-46.75, -25.2, -18.5, -6.4, 16.5]",5,52.3,149.3,-0.22,东台
2016,0.74,0.1,0.01,0.01,0.0,0.14,0.33,"[-43.5, -26.0, -6.0, 2.8, 34.25]",0,-27.7,166.3,0.21,南京
2016,0.2,0.37,0.09,0.0,0.01,0.33,0.2,"[-48.0, -29.0, -21.0, -0.4, 28.75]",1,58.3,146.0,0.1,合肥
2016,0.66,0.02,0.3,0.0,0.0,0.01,0.26,"[-40.25, -17.0, -7.5, 0.6, 21.25]",0,-8.6,174.0,0.04,上海
2016,0.67,0.02,0.08,0.01,0.22,0.01,0.34,"[-38.25, -24.6, -15.0, -4.6, 26.25]",0,-5.5,219.5,0.21,杭州
2016,0.0,0.01,0.0,0.0,0.0,0.99,0.28,"[-44.25, -23.0, -11.0, -1.0, 24.5]",5,61.5,265.3,-0.09,安庆
2016,0.26,0.21,0.05,0.16,0.16,0.16,0.29,"[-37.5, -16.8, -1.5, 6.0, 27.25]",0,0.6,315.1,0.09,屯溪
2016,0.09,0.62,0.1,0.03,0.04,0.11,0.18,"[-41.0, -24.0, -12.5, 5.4, 20.25]",1,-0.8,223.5,0.13,九江
2016,0.01,0.0,0.01,0.0,0.0,0.97,0.28,"[-41.25, -24.6, -10.5, -1.2, 24.0]",5,83.5,220.3,-0.52,汉口
2016,0.97,0.03,0.0,0.0,0.0,0.0,0.28,"[-38.75, -19.4, -10.5, 0.4, 28.25]",0,-14.4,133.0,-0.22,钟祥
2016,0.0,0.0,0.0,0.0,0.0,0.99,0.22,"[-34.5, -17.0, -10.5, -0.2, 39.25]",5,49.4,192.3,-0.15,岳阳
2016,0.9,0.0,0.04,0.0,0.05,0.0,0.21,"[-22.75, -12.6, 5.5, 16.8, 29.0]",0,-26.1,143.1,-0.49,宜昌
2016,0.0,0.01,0.0,0.01,0.0,0.99,0.32,"[-41.25, -23.4, -12.5, -3.8, 20.5]",5,61.8,197.6,0.01,常德
2016,0.0,0.01,0.0,0.95,0.02,0.02,0.27,"[-34.25, -20.0, -12.5, -2.0, 32.5]",3,2.5,201.6,-0.19,宁波
2016,0.46,0.34,0.01,0.05,0.04,0.11,0.17,"[-33.25, -14.8, -7.0, 7.2, 34.25]",0,-10.2,297.4,-0.24,衢县
2016,0.0,0.0,0.93,0.0,0.0,0.06,0.25,"[-36.0, -20.8, -15.5, -1.2, 18.25]",2,-0.2,254.1,-0.2,温州
2016,0.0,0.13,0.0,0.0,0.34,0.53,0.14,"[-30.5, -15.2, -8.5, 5.8, 17.0]",5,36.8,371.1,-0.19,浦城
2016,0.15,0.85,0.0,0.0,0.0,0.0,0.26,"[-30.0, -7.4, 3.5, 15.4, 34.25]",1,-25.9,199.9,-0.18,福州
2016,0.15,0.0,0.0,0.85,0.0,0.0,0.25,"[-22.75, -5.8, 5.5, 18.6, 30.5]",3,-26.6,229.5,-0.17,永安
2016,0.0,0.0,0.0,0.02,0.0,0.97,0.33,"[-38.75, -24.8, -11.5, -0.4, 27.25]",5,27.7,367.3,0.28,贵溪
2016,0.02,0.03,0.02,0.55,0.31,0.07,0.19,"[-33.5, -15.4, -10.0, -2.2, 25.0]",3,8.6,299.1,-0.3,南昌
2016,0.0,0.98,0.0,0.01,0.0,0.01,0.26,"[-37.0, -20.8, -13.5, -3.2, 32.0]",1,19.6,311.5,-0.3,广昌
2016,0.05,0.01,0.0,0.0,0.7,0.24,0.24,"[-37.25, -24.6, -15.5, -7.2, 20.25]",4,31.0,251.2,-0.16,吉安
2016,0.01,0.0,0.0,0.55,0.32,0.12,0.31,"[-27.25, -13.0, -6.0, 5.0, 34.0]",3,23.9,189.2,-0.28,赣州
2016,0.01,0.29,0.0,0.0,0.09,0.6,0.28,"[-38.0, -29.0, -21.5, -4.4, 16.25]",5,34.4,225.2,-0.65,长沙
2016,0.21,0.25,0.12,0.12,0.08,0.21,0.26,"[-35.25, -19.8, -7.5, 4.0, 31.75]",1,-4.8,168.9,0.02,衡阳
2016,0.62,0.0,0.37,0.0,0.0,0.0,0.27,"[-34.25, -18.6, -5.0, 3.8, 29.75]",0,-21.7,184.7,-0.41,郴县
2016,0.0,0.0,0.0,0.0,0.0,1.0,0.25,"[-38.0, -19.8, -11.0, 2.8, 20.75]",5,73.0,184.7,0.03,零陵
2016,0.28,0.07,0.06,0.16,0.26,0.18,0.19,"[-32.0, -18.8, -10.0, -1.4, 20.0]",0,26.3,207.4,-0.01,芷江
2016,0.0,0.03,0.0,0.0,0.97,0.0,0.22,"[-36.5, -15.6, -4.5, 6.2, 36.25]",4,4.4,201.2,-0.12,夏门
2016,0.54,0.46,0.0,0.0,0.0,0.0,0.29,"[-33.25, -14.0, -4.0, 4.4, 24.0]",0,-31.7,226.8,-0.21,梅县
2016,0.82,0.18,0.0,0.0,0.0,0.0,0.34,"[-25.0, -9.0, 8.5, 20.8, 44.25]",0,-61.2,274.4,-0.2,汕头
2016,0.0,0.02,0.0,0.01,0.03,0.94,0.29,"[-36.5, -21.8, -12.5, 4.6, 26.75]",5,46.9,250.4,0.12,曲江
2016,0.93,0.01,0.0,0.0,0.05,0.01,0.28,"[-43.0, -26.4, -14.5, -8.0, 12.5]",0,-46.5,387.4,-0.03,河源
2016,0.0,0.0,0.01,0.06,0.0,0.93,0.26,"[-30.25, -22.0, -12.5, -5.0, 12.75]",5,20.0,275.9,-0.1,广州
2016,0.01,0.48,0.01,0.01,0.0,0.5,0.25,"[-47.5, -27.8, -16.0, -1.6, 12.0]",5,-17.6,457.4,-0.21,阳江
2016,0.8,0.0,0.03,0.0,0.0,0.17,0.35,"[-42.0, -26.4, -13.0, -5.0, 27.0]",0,-27.1,262.4,0.06,湛江
2016,0.01,0.0,0.0,0.0,0.99,0.0,0.24,"[-41.5, -21.8, 0.0, 16.8, 27.25]",4,-1.6,229.5,-0.21,海口
2016,0.0,0.0,0.61,0.0,0.0,0.39,0.22,"[-37.25, -21.0, -17.0, -7.0, 16.75]",2,86.1,380.8,-0.36,桂林
2016,0.0,0.0,0.0,0.0,0.0,1.0,0.31,"[-37.0, -25.0, -17.0, -6.4, 13.0]",5,88.4,291.4,-0.26,柳州
2016,0.01,0.0,0.0,0.88,0.0,0.11,0.22,"[-43.25, -20.6, -8.5, 2.4, 23.0]",3,27.7,243.2,-0.08,悟州
2016,0.0,0.0,0.0,0.0,0.01,0.99,0.32,"[-42.5, -19.4, -9.0, 12.6, 37.0]",5,39.2,219.0,-0.31,南宁
2016,0.0,0.51,0.02,0.31,0.0,0.15,0.23,"[-48.0, -26.8, -14.0, -2.4, 26.0]",1,-10.9,294.4,-0.4,北海
2016,0.01,0.01,0.0,0.0,0.05,0.93,0.21,"[-27.5, -12.6, -0.5, 13.6, 37.5]",5,31.0,193.4,-0.48,百色
2016,0.97,0.03,0.0,0.0,0.0,0.0,0.32,"[-40.25, -22.6, -8.5, 7.0, 20.25]",0,-13.0,213.1,0.1,遵义
2016,0.0,0.0,0.0,0.99,0.0,0.0,0.17,"[-18.0, -4.8, 5.5, 16.0, 38.75]",3,3.3,200.9,-0.55,贵阳
2016,0.0,0.07,0.02,0.07,0.04,0.8,0.2,"[-24.0, -16.8, -3.0, 12.8, 28.5]",5,45.0,144.2,-0.12,毕节
2016,0.0,1.0,0.0,0.0,0.0,0.0,0.25,"[-34.25, -16.2, -1.5, 8.2, 24.5]",1,-10.1,262.6,0.01,兴仁
2016,0.0,0.0,0.0,0.0,0.99,0.0,0.25,"[-39.25, -20.2, -6.0, 3.8, 32.25]",4,19.8,220.4,-0.2,榕江
2016,0.01,0.1,0.01,0.0,0.0,0.87,0.22,"[-28.25, -14.4, -8.5, 0.0, 26.0]",5,29.4,208.8,-0.58,恩施
2016,0.39,0.31,0.15,0.0,0.08,0.08,0.19,"[-33.5, -24.8, -14.5, -0.2, 19.0]",0,-32.4,167.6,-0.47,达县
2016,0.0,0.99,0.0,0.0,0.0,0.0,0.33,"[-32.0, -15.0, -7.0, 0.0, 16.5]",1,-8.6,223.4,-0.09,酉阳
2016,0.05,0.0,0.0,0.0,0.0,0.95,0.22,"[-27.5, -17.8, -8.0, -2.0, 10.25]",5,11.7,193.2,-0.3,重庆
2016,0.0,0.13,0.0,0.87,0.0,0.0,0.23,"[-34.0, -16.0, -9.0, -5.2, 8.25]",3,-38.5,156.9,0.0,南充
2016,0.0,0.0,0.0,0.0,0.0,1.0,0.29,"[-37.0, -15.8, -11.0, -1.2, 24.5]",5,38.1,178.9,0.0,内江
2016,0.99,0.0,0.0,0.0,0.0,0.0,0.23,"[-35.0, -21.0, -9.5, 1.4, 32.25]",0,-41.2,97.6,-0.5,绵阳
2016,0.01,0.0,0.0,0.0,0.0,0.99,0.19,"[-43.0, -25.8, -12.0, -4.2, 22.5]",5,62.6,111.3,-0.61,成都
2016,0.01,0.0,0.0,0.99,0.0,0.0,0.28,"[-34.5, -19.2, -5.5, 11.6, 22.25]",3,-25.1,154.1,-0.15,宜宾
2016,0.0,0.0,0.0,0.0,0.0,0.99,0.23,"[-28.75, -16.4, -7.5, 4.6, 14.5]",5,-0.6,179.8,-0.27,雅安
2016,0.02,0.04,0.0,0.0,0.81,0.13,0.22,"[-17.0, -6.0, -2.5, 6.0, 16.0]",4,25.3,172.9,0.01,康定
2016,0.01,0.0,0.0,0.97,0.01,0.01,0.21,"[-24.75, -11.8, -5.5, 9.6, 20.0]",3,5.4,205.7,-0.2,西昌
2016,0.8,0.0,0.0,0.0,0.0,0.2,0.34,"[-24.5, -14.6, -3.0, 6.2, 29.0]",0,5.2,218.2,-0.42,会理
2016,0.0,1.0,0.0,0.0,0.0,0.0,0.31,"[-28.25, -10.8, -4.0, 0.8, 15.25]",1,-15.0,169.7,-0.24,丽江
2016,0.94,0.0,0.06,0.0,0.0,0.0,0.25,"[-28.25, -6.6, 6.0, 14.8, 43.0]",0,-57.9,144.8,-0.38,大理
2016,0.02,0.01,0.19,0.0,0.76,0.02,0.27,"[-44.5, -24.8, -10.5, 4.4, 34.25]",4,-13.9,127.2,0.03,保山
2016,0.0,0.0,0.0,1.0,0.0,0.0,0.26,"[-28.0, -13.4, -5.5, 1.6, 26.0]",3,-7.2,174.0,-0.5,昆明
2016,1.0,0.0,0.0,0.0,0.0,0.0,0.27,"[-24.0, -12.6, -4.5, 2.8, 20.25]",0,-21.3,180.6,-0.36,临沧
2016,0.01,0.15,0.03,0.0,0.79,0.03,0.22,"[-24.75, -8.8, 5.0, 13.0, 31.0]",4,-5.2,112.5,-0.21,蒙自
2016,0.01,0.95,0.04,0.0,0.0,0.0,0.27,"[-26.0, -10.4, 1.0, 13.8, 42.75]",1,-21.9,148.0,0.0,景洪
2016,0.04,0.92,0.01,0.0,0.01,0.02,0.19,"[-17.0, -6.8, -4.0, 2.0, 15.75]",1,-13.6,134.2,-0.45,甘孜
2016,0.92,0.0,0.06,0.0,0.01,0.01,0.3,"[-34.0, -13.0, 3.0, 25.0, 41.25]",0,3.4,60.2,-0.13,德钦
2016,0.0,0.94,0.01,0.0,0.0,0.04,0.24,"[-25.25, -13.4, -2.0, 3.0, 25.0]",1,-15.5,89.1,-0.11,昌都
2016,0.02,0.95,0.0,0.0,0.0,0.02,0.35,"[-25.0, -11.0, 0.5, 12.6, 41.0]",1,-9.1,70.9,-0.02,拉萨
2016,0.0,0.07,0.0,0.14,0.02,0.78,0.31,"[-52.25, -27.8, -2.5, 5.6, 26.5]",5,18.0,64.1,-0.17,西安
2016,0.02,0.94,0.0,0.0,0.04,0.0,0.3,"[-39.0, -18.4, -10.0, -5.0, 13.75]",1,-49.7,71.7,0.01,天水
2016,0.0,0.0,0.0,0.0,0.99,0.01,0.23,"[-31.0, -14.4, -7.0, 3.8, 10.0]",4,9.7,85.5,0.06,岷县
2016,0.35,0.2,0.0,0.05,0.25,0.15,0.28,"[-36.0, -20.0, -10.5, 4.2, 37.5]",0,-10.5,94.0,0.15,汉中
2016,0.0,0.0,0.0,0.0,0.32,0.67,0.22,"[-45.0, -27.0, -18.5, -1.2, 15.5]",5,8.1,116.6,-0.6,安康
2016,0.0,0.0,0.0,0.0,0.0,0.99,0.22,"[-52.25, -30.4, -19.0, -9.0, 16.25]",5,51.4,100.1,-0.3,郧县
2016,0.34,0.26,0.0,0.0,0.0,0.4,0.25,"[-42.0, -20.0, -2.5, 7.8, 32.0]",5,-15.3,71.0,-0.09,长治
2016,0.46,0.0,0.47,0.0,0.01,0.05,0.21,"[-49.0, -32.0, -17.0, -3.4, 36.25]",2,-34.3,54.5,-0.26,太原
2016,0.99,0.0,0.01,0.0,0.0,0.0,0.37,"[-46.0, -32.8, -23.0, -2.4, 40.75]",0,11.7,54.1,0.0,临汾
2016,0.0,0.0,0.0,0.0,0.01,0.98,0.16,"[-58.0, -42.0, -33.0, -7.4, 13.0]",5,91.0,48.6,-0.44,榆林
2016,0.99,0.01,0.0,0.0,0.0,0.0,0.23,"[-52.0, -31.6, -19.0, -8.8, 21.5]",0,-75.7,70.5,-0.89,延安
2016,0.0,0.01,0.0,0.56,0.0,0.42,0.26,"[-47.0, -29.0, -20.0, 0.4, 24.75]",3,16.2,66.4,-0.09,西峰镇
2016,0.0,0.0,0.0,0.0,0.93,0.07,0.25,"[-54.0, -34.0, -28.5, -17.0, 17.0]",4,54.8,45.4,-0.02,兰州
2016,0.0,0.0,0.0,0.0,0.0,1.0,0.23,"[-62.0, -47.4, -23.0, -12.0, 23.0]",5,132.4,28.5,-0.55,中宁
2016,0.0,0.0,0.0,0.0,0.02,0.98,0.24,"[-67.0, -49.2, -29.0, -4.8, 26.25]",5,323.8,23.9,0.08,银川
2016,0.0,0.0,0.03,0.0,0.03,0.95,0.24,"[-34.0, -26.0, -19.0, -7.4, 6.25]",5,30.7,64.7,-0.45,西宁
2016,0.0,0.04,0.0,0.95,0.0,0.01,0.29,"[-46.0, -32.0, -25.0, -13.0, 20.5]",3,-19.5,69.0,-0.2,临夏
2016,0.06,0.02,0.44,0.0,0.0,0.47,0.36,"[-25.5, -11.0, -3.5, 4.0, 21.75]",5,22.8,60.4,0.05,玛多
2016,0.01,0.0,0.99,0.0,0.0,0.0,0.14,"[-12.25, -2.6, 6.5, 9.8, 20.0]",2,0.2,98.1,-0.63,玉树
2016,0.01,0.02,0.0,0.18,0.0,0.78,0.26,"[-60.0, -44.2, -33.0, -22.8, -2.25]",5,24.2,27.1,-0.23,武威
2016,0.0,0.82,0.0,0.0,0.0,0.18,0.24,"[-52.0, -32.0, -13.0, 1.0, 45.25]",1,102.9,20.8,0.09,张掖
2016,0.0,0.0,0.0,0.0,0.0,1.0,0.25,"[-57.0, -43.0, -36.0, -14.0, 29.0]",5,170.7,14.0,-0.05,酒泉
2016,0.93,0.05,0.0,0.0,0.01,0.0,0.14,"[-85.0, -70.0, -47.5, -28.0, 83.75]",0,-64.7,6.7,-0.34,敦煌
2016,,0.04,,0.0,0.01,0.95,0.35,"[-100.0, -70.0, -70.0, -41.0, 49.0]",5,57.2,3.4,-0.8,吐鲁番
2016,0.0,0.0,0.08,0.0,0.02,0.9,0.27,"[-78.0, -57.0, -40.0, -14.2, 41.0]",5,83.0,18.5,-0.1,库车
2016,0.01,0.0,0.0,0.0,0.0,0.99,0.22,"[-82.5, -68.0, -44.0, -11.0, 31.0]",5,85.0,9.9,-0.28,喀什
2016,0.0,0.0,0.0,0.0,0.02,0.98,0.28,"[-90.0, -70.0, -50.0, -20.0, 30.0]",5,125.3,10.0,-0.76,和田
2016,0.0,0.0,0.0,0.0,0.4,0.6,0.28,"[-85.0, -70.0, -41.0, -11.0, 51.75]",5,104.0,6.8,-0.07,且末
2016,,0.01,,0.0,0.41,0.58,0.34,"[-100.0, -72.0, -65.5, -45.0, 10.0]",5,231.5,7.3,-0.26,若羌
2016,0.02,0.28,0.0,0.0,0.63,0.06,0.28,"[-68.5, -47.0, -29.0, -11.0, 64.5]",4,-28.2,5.6,-0.42,哈密
2016,0.0,0.36,0.02,0.0,0.53,0.09,0.22,"[-51.0, -26.0, -13.0, 3.8, 42.0]",4,33.5,16.2,-0.26,阿勒泰
2016,0.06,0.0,0.0,0.0,0.11,0.83,0.28,"[-45.0, -26.0, -14.0, -2.0, 37.0]",5,82.4,25.6,0.05,塔城
2016,0.01,0.0,0.01,0.0,0.02,0.96,0.4,"[-62.25, -27.0, -18.5, 10.2, 31.0]",5,11.1,23.3,0.12,乌苏
2016,0.0,0.0,0.0,0.0,0.0,1.0,0.23,"[-44.0, -28.8, -10.0, -4.0, 33.75]",5,121.2,30.1,-0.06,伊宁
2016,0.0,0.99,0.0,0.0,0.0,0.0,0.29,"[-54.5, -38.0, -9.5, 3.0, 44.25]",1,-43.2,33.8,-0.24,乌鲁木齐
