,0,1,2,3,4,5,classifier_score,divider,fcst_grade,fcst_y,norm,regressor_score,site
2016,0.01,0.01,0.01,0.04,0.22,0.71,0.4,"[-1, -0.5, 0, 0.5, 1]",5,1.6,-23.4,0.05,呼玛
2016,0.21,0.0,0.01,0.0,0.49,0.29,0.51,"[-1, -0.5, 0, 0.5, 1]",4,0.7,-18.2,0.11,博克图
2016,0.04,0.1,0.31,0.0,0.18,0.37,0.3,"[-1, -0.5, 0, 0.5, 1]",5,0.4,-21.5,0.05,海拉尔
2016,0.08,0.05,0.11,0.19,0.26,0.31,0.48,"[-1, -0.5, 0, 0.5, 1]",5,0.6,-25.8,0.4,图里河
2016,0.15,,0.32,0.2,0.13,0.2,0.52,"[-1, -0.5, 0, 0.5, 1]",2,0.6,-20.8,0.29,嫩江
2016,0.02,0.1,0.01,0.6,0.0,0.27,0.34,"[-1, -0.5, 0, 0.5, 1]",3,0.7,-15.5,0.11,齐齐哈尔
2016,0.28,0.0,,0.25,0.04,0.43,0.49,"[-1, -0.5, 0, 0.5, 1]",5,0.1,-18.0,0.07,海伦
2016,0.75,0.02,0.05,0.03,0.12,0.03,0.48,"[-1, -0.5, 0, 0.5, 1]",0,-2.0,-16.2,0.19,富锦
2016,0.34,0.13,0.17,,0.15,0.21,0.54,"[-1, -0.5, 0, 0.5, 1]",0,-1.2,-15.3,0.08,佳木斯
2016,0.3,0.0,0.2,0.13,0.11,0.26,0.43,"[-1, -0.5, 0, 0.5, 1]",0,0.0,-13.3,0.15,鸡西
2016,0.29,0.11,0.01,0.24,0.0,0.35,0.48,"[-1, -0.5, 0, 0.5, 1]",5,0.4,-14.3,0.04,哈尔滨
2016,0.08,0.09,0.16,,0.17,0.5,0.3,"[-1, -0.5, 0, 0.5, 1]",5,1.6,-13.4,0.13,牡丹江
2016,0.01,0.02,,0.09,0.01,0.87,0.46,"[-1, -0.5, 0, 0.5, 1]",5,1.5,-12.4,0.13,乌兰浩特
2016,0.08,0.12,0.05,0.11,0.25,0.39,0.4,"[-1, -0.5, 0, 0.5, 1]",5,0.6,-10.4,0.19,通辽
2016,0.08,0.27,0.11,0.02,0.0,0.52,0.39,"[-1, -0.5, 0, 0.5, 1]",5,0.5,-11.6,0.05,长春
2016,0.0,0.06,0.0,0.0,0.09,0.85,0.45,"[-1, -0.5, 0, 0.5, 1]",5,1.4,-10.7,0.19,延吉
2016,0.11,0.09,0.14,0.13,0.19,0.34,0.4,"[-1, -0.5, 0, 0.5, 1]",5,0.8,-10.4,0.22,通化
2016,0.02,0.0,0.2,0.33,0.18,0.27,0.5,"[-1, -0.5, 0, 0.5, 1]",3,0.3,-7.7,0.28,沈阳
2016,0.07,0.07,0.04,0.2,0.18,0.44,0.38,"[-1, -0.5, 0, 0.5, 1]",5,0.5,-6.5,0.29,朝阳
2016,0.03,0.17,0.2,0.03,0.2,0.37,0.4,"[-1, -0.5, 0, 0.5, 1]",5,0.9,-5.1,0.24,营口
2016,0.3,0.03,0.01,0.1,0.36,0.2,0.36,"[-1, -0.5, 0, 0.5, 1]",4,0.4,-4.6,0.23,丹东
2016,0.04,0.0,0.14,0.05,0.1,0.67,0.35,"[-1, -0.5, 0, 0.5, 1]",5,1.1,-0.4,0.4,大连
2016,0.09,0.11,0.02,0.01,0.03,0.74,0.5,"[-1, -0.5, 0, 0.5, 1]",5,1.3,-10.9,0.01,林东
2016,0.42,0.01,0.06,0.42,0.04,0.05,0.25,"[-1, -0.5, 0, 0.5, 1]",0,-1.8,-15.5,0.23,锡林浩特
2016,0.3,0.2,0.21,0.0,0.01,0.28,0.38,"[-1, -0.5, 0, 0.5, 1]",0,-0.7,-11.2,0.1,朱日和
2016,0.06,0.0,0.05,0.21,0.13,0.55,0.35,"[-1, -0.5, 0, 0.5, 1]",5,0.6,-13.7,-0.12,多伦
2016,0.05,0.06,0.01,0.41,0.04,0.43,0.39,"[-1, -0.5, 0, 0.5, 1]",5,0.1,-7.9,0.2,赤峰
2016,0.33,0.01,0.2,0.06,0.11,0.29,0.43,"[-1, -0.5, 0, 0.5, 1]",0,-0.5,-7.4,0.17,承德
2016,0.24,0.13,0.24,0.06,0.12,0.21,0.3,"[-1, -0.5, 0, 0.5, 1]",0,-0.6,-6.1,0.08,张家口
2016,0.12,0.0,0.15,0.36,0.0,0.37,0.28,"[-1, -0.5, 0, 0.5, 1]",5,1.2,-9.0,-0.03,呼和浩特
2016,0.18,0.02,0.12,0.15,0.2,0.33,0.25,"[-1, -0.5, 0, 0.5, 1]",5,0.4,-8.6,-0.04,包头
2016,0.19,0.14,0.02,0.12,0.05,0.48,0.42,"[-1, -0.5, 0, 0.5, 1]",5,0.0,-7.9,0.02,陕坝
2016,0.0,0.0,0.0,0.0,0.02,0.98,0.22,"[-1, -0.5, 0, 0.5, 1]",5,1.4,-1.1,0.08,北京
2016,0.0,0.04,0.0,0.01,0.22,0.73,0.26,"[-1, -0.5, 0, 0.5, 1]",5,1.0,-1.2,-0.08,天津
2016,0.02,0.0,0.04,0.06,0.13,0.75,0.38,"[-1, -0.5, 0, 0.5, 1]",5,1.3,0.3,-0.41,石家庄
2016,0.0,0.07,0.2,0.0,0.15,0.58,0.32,"[-1, -0.5, 0, 0.5, 1]",5,0.9,0.3,0.13,德州
2016,0.0,0.0,0.03,0.0,0.12,0.85,0.27,"[-1, -0.5, 0, 0.5, 1]",5,1.5,0.8,0.23,邢台
2016,0.0,0.03,0.03,0.12,0.55,0.27,0.33,"[-1, -0.5, 0, 0.5, 1]",4,0.7,0.9,0.34,安阳
2016,0.28,0.16,0.11,0.07,0.2,0.18,0.37,"[-1, -0.5, 0, 0.5, 1]",0,-0.6,1.7,0.22,烟台
2016,0.04,0.01,0.23,0.02,0.35,0.35,0.25,"[-1, -0.5, 0, 0.5, 1]",4,0.5,2.5,0.14,青岛
2016,0.03,0.01,0.01,0.02,0.48,0.45,0.3,"[-1, -0.5, 0, 0.5, 1]",4,1.0,-0.2,0.5,潍坊
2016,0.01,0.0,0.0,0.26,0.12,0.61,0.48,"[-1, -0.5, 0, 0.5, 1]",5,1.1,1.6,0.36,济南
2016,0.03,0.14,0.05,0.29,0.36,0.13,0.33,"[-1, -0.5, 0, 0.5, 1]",4,0.3,1.7,0.25,临沂
2016,0.03,0.0,0.03,0.0,0.01,0.93,0.44,"[-1, -0.5, 0, 0.5, 1]",5,1.4,1.4,0.26,荷泽
2016,0.13,0.06,0.18,0.25,0.15,0.23,0.3,"[-1, -0.5, 0, 0.5, 1]",3,0.6,3.0,0.21,新浦
2016,0.23,0.04,0.04,0.03,0.13,0.53,0.32,"[-1, -0.5, 0, 0.5, 1]",5,0.7,3.5,0.09,清江
2016,0.06,0.28,0.09,0.0,0.06,0.51,0.25,"[-1, -0.5, 0, 0.5, 1]",5,0.6,2.7,0.17,徐州
2016,0.3,0.11,0.09,0.29,0.0,0.21,0.35,"[-1, -0.5, 0, 0.5, 1]",0,-0.4,4.3,0.03,蚌埠
2016,0.04,0.14,0.21,0.11,0.27,0.23,0.38,"[-1, -0.5, 0, 0.5, 1]",4,0.3,3.9,0.33,阜阳
2016,0.0,0.08,0.0,0.08,0.03,0.81,0.4,"[-1, -0.5, 0, 0.5, 1]",5,2.2,2.5,0.13,郑州
2016,0.01,0.0,0.0,0.07,0.01,0.91,0.35,"[-1, -0.5, 0, 0.5, 1]",5,1.4,3.5,0.36,南阳
2016,0.01,0.02,0.1,0.0,0.18,0.69,0.38,"[-1, -0.5, 0, 0.5, 1]",5,0.9,4.6,0.37,信阳
2016,0.08,0.15,0.03,0.11,0.23,0.4,0.34,"[-1, -0.5, 0, 0.5, 1]",5,0.6,4.4,-0.05,东台
2016,0.04,0.02,0.13,0.05,0.51,0.25,0.55,"[-1, -0.5, 0, 0.5, 1]",4,0.5,4.9,0.26,南京
2016,0.0,0.17,0.03,,0.35,0.45,0.5,"[-1, -0.5, 0, 0.5, 1]",5,0.6,5.2,0.03,合肥
2016,0.04,0.04,0.09,0.43,0.13,0.27,0.35,"[-1, -0.5, 0, 0.5, 1]",3,0.9,7.1,0.05,上海
2016,0.0,0.29,0.06,0.05,0.03,0.57,0.33,"[-1, -0.5, 0, 0.5, 1]",5,0.7,7.0,0.09,杭州
2016,0.15,0.18,0.07,0.02,0.21,0.37,0.35,"[-1, -0.5, 0, 0.5, 1]",5,-0.1,6.6,0.24,安庆
2016,0.14,0.08,0.0,0.5,0.13,0.15,0.22,"[-1, -0.5, 0, 0.5, 1]",3,0.2,6.0,0.19,屯溪
2016,0.05,0.1,0.14,0.02,0.15,0.54,0.2,"[-1, -0.5, 0, 0.5, 1]",5,0.7,7.2,0.37,九江
2016,0.16,0.01,0.03,0.06,0.11,0.63,0.31,"[-1, -0.5, 0, 0.5, 1]",5,0.8,6.2,0.46,汉口
2016,0.0,0.03,0.0,0.04,0.19,0.74,0.4,"[-1, -0.5, 0, 0.5, 1]",5,1.3,5.8,0.22,钟祥
2016,0.0,0.0,0.11,0.16,0.3,0.43,0.29,"[-1, -0.5, 0, 0.5, 1]",5,0.9,7.5,0.45,岳阳
2016,0.12,0.18,0.04,0.12,0.27,0.27,0.27,"[-1, -0.5, 0, 0.5, 1]",4,0.4,7.3,0.43,宜昌
2016,0.0,0.0,0.14,0.26,0.03,0.57,0.3,"[-1, -0.5, 0, 0.5, 1]",5,0.7,7.4,0.38,常德
2016,0.17,0.0,0.02,0.48,0.12,0.21,0.32,"[-1, -0.5, 0, 0.5, 1]",3,0.3,7.6,0.12,宁波
2016,0.03,0.19,0.1,0.19,0.16,0.33,0.21,"[-1, -0.5, 0, 0.5, 1]",5,0.6,7.4,-0.11,衢县
2016,0.17,0.0,0.1,0.39,0.12,0.22,0.34,"[-1, -0.5, 0, 0.5, 1]",3,0.4,10.6,0.29,温州
2016,0.51,0.02,0.19,0.1,0.01,0.17,0.43,"[-1, -0.5, 0, 0.5, 1]",0,-0.5,8.2,0.38,浦城
2016,0.07,0.11,0.01,0.42,0.12,0.27,0.32,"[-1, -0.5, 0, 0.5, 1]",3,0.5,13.4,0.32,福州
2016,0.06,0.31,0.17,0.01,0.18,0.27,0.36,"[-1, -0.5, 0, 0.5, 1]",1,0.3,10.8,0.38,永安
2016,0.09,0.19,0.11,0.19,0.2,0.22,0.4,"[-1, -0.5, 0, 0.5, 1]",5,0.2,8.5,0.13,贵溪
2016,0.07,0.16,0.35,0.06,0.06,0.3,0.32,"[-1, -0.5, 0, 0.5, 1]",2,-0.1,7.9,0.33,南昌
2016,0.02,0.33,0.07,0.14,0.05,0.39,0.33,"[-1, -0.5, 0, 0.5, 1]",5,0.6,8.5,-0.01,广昌
2016,0.06,0.11,0.35,0.24,0.01,0.23,0.27,"[-1, -0.5, 0, 0.5, 1]",2,0.6,8.7,0.07,吉安
2016,0.11,0.1,0.1,0.21,0.05,0.43,0.36,"[-1, -0.5, 0, 0.5, 1]",5,0.4,10.2,0.0,赣州
2016,0.0,0.05,0.03,0.38,0.33,0.21,0.22,"[-1, -0.5, 0, 0.5, 1]",3,0.8,7.2,0.22,长沙
2016,0.01,0.04,0.05,0.4,0.15,0.35,0.23,"[-1, -0.5, 0, 0.5, 1]",3,0.8,8.5,0.4,衡阳
2016,0.0,0.08,0.04,0.02,0.16,0.7,0.36,"[-1, -0.5, 0, 0.5, 1]",5,0.9,8.0,0.33,郴县
2016,0.02,0.11,0.02,0.48,0.01,0.36,0.37,"[-1, -0.5, 0, 0.5, 1]",3,0.8,8.5,0.3,零陵
2016,0.0,0.01,0.11,0.4,0.08,0.4,0.36,"[-1, -0.5, 0, 0.5, 1]",3,0.6,7.2,0.31,芷江
2016,0.23,0.09,0.03,0.12,0.39,0.14,0.47,"[-1, -0.5, 0, 0.5, 1]",4,0.2,14.8,0.25,夏门
2016,0.22,0.09,0.38,0.24,0.04,0.03,0.31,"[-1, -0.5, 0, 0.5, 1]",2,-0.4,13.7,0.25,梅县
2016,0.06,0.08,0.03,0.16,0.11,0.56,0.34,"[-1, -0.5, 0, 0.5, 1]",5,1.0,16.0,0.08,汕头
2016,0.34,0.13,0.43,0.02,0.0,0.08,0.47,"[-1, -0.5, 0, 0.5, 1]",2,-1.0,11.9,0.26,曲江
2016,0.23,0.27,0.07,0.25,0.0,0.18,0.14,"[-1, -0.5, 0, 0.5, 1]",1,-0.3,14.4,-0.03,河源
2016,0.01,0.01,0.0,0.05,0.17,0.76,0.2,"[-1, -0.5, 0, 0.5, 1]",5,1.1,15.7,-0.11,广州
2016,0.01,0.12,0.08,0.17,0.28,0.34,0.3,"[-1, -0.5, 0, 0.5, 1]",5,0.6,16.8,0.14,阳江
2016,0.07,0.05,0.02,0.16,0.14,0.56,0.35,"[-1, -0.5, 0, 0.5, 1]",5,0.6,17.6,0.28,湛江
2016,0.2,0.05,0.04,0.65,0.01,0.05,0.37,"[-1, -0.5, 0, 0.5, 1]",3,0.0,19.4,0.3,海口
2016,0.0,0.0,0.06,0.14,0.12,0.68,0.24,"[-1, -0.5, 0, 0.5, 1]",5,1.5,10.6,0.15,桂林
2016,0.49,0.23,0.19,0.05,0.0,0.04,0.36,"[-1, -0.5, 0, 0.5, 1]",0,-0.9,11.9,-0.12,柳州
2016,0.36,0.2,0.13,0.08,0.06,0.17,0.3,"[-1, -0.5, 0, 0.5, 1]",0,-0.2,13.8,-0.08,悟州
2016,0.62,0.03,0.07,0.02,0.15,0.11,0.38,"[-1, -0.5, 0, 0.5, 1]",0,-1.5,14.7,-0.2,南宁
2016,0.42,0.12,0.03,0.15,0.01,0.27,0.45,"[-1, -0.5, 0, 0.5, 1]",0,-0.4,16.6,0.12,北海
2016,0.21,0.01,0.62,0.03,0.01,0.12,0.25,"[-1, -0.5, 0, 0.5, 1]",2,-0.2,14.7,0.26,百色
2016,0.0,0.0,0.0,0.47,0.2,0.33,0.22,"[-1, -0.5, 0, 0.5, 1]",3,0.6,6.3,0.11,遵义
2016,0.21,0.15,0.12,0.16,0.06,0.3,0.37,"[-1, -0.5, 0, 0.5, 1]",5,0.3,6.8,-0.06,贵阳
2016,0.02,0.04,0.13,0.27,0.29,0.25,0.34,"[-1, -0.5, 0, 0.5, 1]",4,0.4,4.7,0.19,毕节
2016,0.01,0.11,0.29,0.19,0.02,0.38,0.28,"[-1, -0.5, 0, 0.5, 1]",5,0.7,8.1,0.19,兴仁
2016,0.13,0.02,0.1,0.19,0.25,0.31,0.32,"[-1, -0.5, 0, 0.5, 1]",5,0.2,9.7,0.22,榕江
2016,0.04,0.12,0.32,0.35,0.09,0.08,0.31,"[-1, -0.5, 0, 0.5, 1]",3,0.2,6.7,0.28,恩施
2016,0.02,0.04,0.2,0.12,0.34,0.28,0.28,"[-1, -0.5, 0, 0.5, 1]",4,0.6,7.6,0.47,达县
2016,0.08,0.08,0.28,0.12,0.13,0.31,0.3,"[-1, -0.5, 0, 0.5, 1]",5,0.4,6.2,0.02,酉阳
2016,0.0,0.0,0.07,0.29,0.04,0.6,0.25,"[-1, -0.5, 0, 0.5, 1]",5,0.6,9.1,0.26,重庆
2016,0.0,0.0,0.15,0.18,0.07,0.6,0.27,"[-1, -0.5, 0, 0.5, 1]",5,0.6,7.8,0.2,南充
2016,0.0,0.06,0.03,0.02,0.29,0.6,0.28,"[-1, -0.5, 0, 0.5, 1]",5,1.0,8.5,0.17,内江
2016,0.03,0.0,0.01,0.39,0.18,0.39,0.28,"[-1, -0.5, 0, 0.5, 1]",3,0.6,6.9,0.13,绵阳
2016,0.0,0.0,0.53,0.0,0.15,0.32,0.24,"[-1, -0.5, 0, 0.5, 1]",2,0.2,7.2,0.32,成都
2016,0.05,0.07,0.11,0.21,0.39,0.17,0.23,"[-1, -0.5, 0, 0.5, 1]",4,0.6,9.3,0.19,宜宾
2016,0.01,0.01,0.1,0.12,0.16,0.6,0.41,"[-1, -0.5, 0, 0.5, 1]",5,0.8,7.8,0.34,雅安
2016,0.0,0.02,0.01,0.11,0.18,0.68,0.35,"[-1, -0.5, 0, 0.5, 1]",5,1.2,-0.5,0.3,康定
2016,0.03,0.0,0.01,0.43,0.05,0.48,0.21,"[-1, -0.5, 0, 0.5, 1]",5,0.3,10.0,-0.08,西昌
2016,0.01,0.06,0.04,0.57,0.16,0.16,0.32,"[-1, -0.5, 0, 0.5, 1]",3,0.3,7.6,0.22,会理
2016,0.0,0.09,0.01,0.28,0.13,0.49,0.41,"[-1, -0.5, 0, 0.5, 1]",5,0.5,6.6,0.1,丽江
2016,0.0,0.09,0.08,0.4,0.22,0.21,0.4,"[-1, -0.5, 0, 0.5, 1]",3,0.6,8.4,0.34,大理
2016,0.0,0.0,0.1,0.12,0.3,0.48,0.38,"[-1, -0.5, 0, 0.5, 1]",5,0.9,9.7,0.42,保山
2016,0.09,0.02,0.31,0.02,0.1,0.46,0.33,"[-1, -0.5, 0, 0.5, 1]",5,0.4,8.9,0.43,昆明
2016,0.07,0.02,0.03,0.15,0.47,0.26,0.38,"[-1, -0.5, 0, 0.5, 1]",4,0.7,11.8,0.25,临沧
2016,0.01,0.0,0.18,0.04,0.06,0.71,0.34,"[-1, -0.5, 0, 0.5, 1]",5,1.7,12.7,0.2,蒙自
2016,0.05,0.01,0.01,0.09,0.24,0.6,0.24,"[-1, -0.5, 0, 0.5, 1]",5,0.9,17.0,0.19,景洪
2016,0.08,0.0,0.09,0.09,0.17,0.57,0.27,"[-1, -0.5, 0, 0.5, 1]",5,1.3,-3.8,0.25,甘孜
2016,0.0,0.0,0.2,0.13,0.18,0.49,0.24,"[-1, -0.5, 0, 0.5, 1]",5,0.9,-0.6,0.14,德钦
2016,0.0,0.09,0.05,0.03,0.49,0.34,0.37,"[-1, -0.5, 0, 0.5, 1]",4,0.9,-1.5,0.31,昌都
2016,0.0,0.01,0.04,0.27,0.19,0.49,0.45,"[-1, -0.5, 0, 0.5, 1]",5,0.9,-0.5,0.38,拉萨
2016,0.06,0.01,0.15,0.05,0.19,0.54,0.34,"[-1, -0.5, 0, 0.5, 1]",5,1.1,1.7,0.14,西安
2016,0.04,0.0,0.32,0.21,0.42,0.01,0.33,"[-1, -0.5, 0, 0.5, 1]",4,0.2,-0.4,0.46,天水
2016,0.08,0.09,0.04,0.04,0.58,0.17,0.24,"[-1, -0.5, 0, 0.5, 1]",4,0.6,-4.7,0.27,岷县
2016,0.0,0.02,0.02,0.11,0.45,0.4,0.2,"[-1, -0.5, 0, 0.5, 1]",4,0.6,3.8,0.27,汉中
2016,0.02,0.01,0.02,0.27,0.2,0.48,0.42,"[-1, -0.5, 0, 0.5, 1]",5,1.0,4.9,0.21,安康
2016,0.0,0.0,0.03,0.23,0.02,0.72,0.46,"[-1, -0.5, 0, 0.5, 1]",5,1.6,4.6,0.35,郧县
2016,0.05,0.1,0.23,0.34,0.28,0.0,0.42,"[-1, -0.5, 0, 0.5, 1]",3,0.3,-2.8,0.08,长治
2016,0.44,0.0,0.0,0.02,0.1,0.44,0.22,"[-1, -0.5, 0, 0.5, 1]",0,0.1,-3.2,-0.21,太原
2016,0.03,0.04,0.16,0.15,0.34,0.28,0.33,"[-1, -0.5, 0, 0.5, 1]",4,0.4,-0.7,0.37,临汾
2016,0.17,0.09,0.26,0.0,0.2,0.28,0.33,"[-1, -0.5, 0, 0.5, 1]",5,0.6,-6.5,0.19,榆林
2016,0.09,0.0,0.09,0.07,0.43,0.32,0.3,"[-1, -0.5, 0, 0.5, 1]",4,0.6,-3.2,0.14,延安
2016,0.0,0.0,0.0,0.01,0.18,0.81,0.38,"[-1, -0.5, 0, 0.5, 1]",5,1.6,-2.6,0.37,西峰镇
2016,0.01,0.21,0.08,0.07,0.14,0.49,0.42,"[-1, -0.5, 0, 0.5, 1]",5,1.3,-3.2,0.31,兰州
2016,0.01,0.01,0.27,0.0,0.05,0.66,0.5,"[-1, -0.5, 0, 0.5, 1]",5,1.6,-4.4,0.24,中宁
2016,0.0,0.0,0.09,0.01,0.47,0.43,0.36,"[-1, -0.5, 0, 0.5, 1]",4,1.5,-5.2,0.23,银川
2016,0.16,0.39,0.01,0.31,0.09,0.04,0.43,"[-1, -0.5, 0, 0.5, 1]",1,0.0,-5.8,0.24,西宁
2016,0.0,0.13,0.12,0.06,0.28,0.41,0.39,"[-1, -0.5, 0, 0.5, 1]",5,1.0,-4.6,0.23,临夏
2016,0.02,0.12,0.03,0.05,0.31,0.47,0.53,"[-1, -0.5, 0, 0.5, 1]",5,1.1,-14.5,0.29,玛多
2016,0.1,0.15,0.09,0.23,0.05,0.38,0.34,"[-1, -0.5, 0, 0.5, 1]",5,0.4,-6.2,0.42,玉树
2016,0.04,0.12,,0.02,0.23,0.59,0.58,"[-1, -0.5, 0, 0.5, 1]",5,1.5,-5.5,0.34,武威
2016,0.55,0.16,0.07,0.1,0.01,0.11,0.5,"[-1, -0.5, 0, 0.5, 1]",0,-0.7,-7.3,0.22,张掖
2016,0.29,0.06,0.09,0.31,0.03,0.22,0.38,"[-1, -0.5, 0, 0.5, 1]",3,0.0,-7.3,0.26,酒泉
2016,0.29,0.13,0.02,0.05,0.29,0.22,0.46,"[-1, -0.5, 0, 0.5, 1]",0,-0.2,-6.4,0.24,敦煌
2016,0.02,0.0,0.23,0.02,0.11,0.62,0.45,"[-1, -0.5, 0, 0.5, 1]",5,2.0,-5.0,0.21,吐鲁番
2016,0.02,0.01,0.01,0.17,0.3,0.49,0.39,"[-1, -0.5, 0, 0.5, 1]",5,1.1,-5.2,0.24,库车
2016,0.2,0.02,0.2,0.32,0.09,0.17,0.37,"[-1, -0.5, 0, 0.5, 1]",3,0.1,-2.8,0.26,喀什
2016,0.01,0.07,0.0,0.0,0.53,0.39,0.37,"[-1, -0.5, 0, 0.5, 1]",4,1.5,-2.3,0.13,和田
2016,0.11,0.0,0.13,0.0,0.25,0.51,0.49,"[-1, -0.5, 0, 0.5, 1]",5,0.7,-5.6,0.48,且末
2016,0.35,0.01,0.01,0.03,0.17,0.43,0.3,"[-1, -0.5, 0, 0.5, 1]",5,0.7,-5.6,0.27,若羌
2016,0.18,0.0,0.12,0.0,0.25,0.45,0.37,"[-1, -0.5, 0, 0.5, 1]",5,1.1,-8.0,0.19,哈密
2016,0.07,0.09,0.12,0.45,0.09,0.18,0.56,"[-1, -0.5, 0, 0.5, 1]",3,0.5,-12.6,0.34,阿勒泰
2016,0.0,0.0,0.01,0.04,0.12,0.83,0.5,"[-1, -0.5, 0, 0.5, 1]",5,2.1,-7.6,0.25,塔城
2016,0.01,0.0,0.27,0.0,0.03,0.69,0.61,"[-1, -0.5, 0, 0.5, 1]",5,1.0,-10.4,0.02,乌苏
2016,0.05,0.0,0.06,0.01,0.14,0.74,0.45,"[-1, -0.5, 0, 0.5, 1]",5,3.6,-4.9,0.19,伊宁
2016,0.06,0.0,0.21,0.0,0.09,0.64,0.58,"[-1, -0.5, 0, 0.5, 1]",5,1.7,-9.3,0.14,乌鲁木齐
