,0,1,2,3,4,5,classifier_score,divider,fcst_grade,fcst_y,norm,regressor_score,site
2016,0.0,0.99,0.0,0.0,0.0,0.0,0.23,"[-50, -20, 0, 20, 50]",1,-45.4,45.0,-0.75,呼玛
2016,0.0,0.0,0.0,0.0,0.0,0.99,0.22,"[-50, -20, 0, 20, 50]",5,109.0,47.2,-0.18,博克图
2016,0.96,0.0,0.0,0.0,0.0,0.03,0.16,"[-50, -20, 0, 20, 50]",0,-46.3,32.9,-0.54,海拉尔
2016,0.96,0.01,0.0,0.04,0.0,0.0,0.19,"[-50, -20, 0, 20, 50]",0,-0.7,49.6,-0.27,图里河
2016,0.04,0.01,0.02,0.0,0.01,0.92,0.14,"[-50, -20, 0, 20, 50]",5,50.9,53.4,-0.53,嫩江
2016,0.02,0.04,0.0,0.01,0.09,0.84,0.28,"[-50, -20, 0, 20, 50]",5,36.6,40.6,0.1,齐齐哈尔
2016,0.14,0.0,0.84,0.0,0.02,0.0,0.32,"[-50, -20, 0, 20, 50]",2,-46.0,58.8,-0.05,海伦
2016,0.0,0.0,1.0,0.0,0.0,0.0,0.26,"[-50, -20, 0, 20, 50]",2,-21.7,53.4,-0.27,富锦
2016,0.95,0.05,0.0,0.0,0.0,0.0,0.2,"[-50, -20, 0, 20, 50]",0,-14.2,57.6,-0.03,佳木斯
2016,0.23,0.0,0.0,0.77,0.0,0.0,0.19,"[-50, -20, 0, 20, 50]",3,-3.5,53.1,-0.25,鸡西
2016,0.97,0.01,0.02,0.0,0.0,0.0,0.27,"[-50, -20, 0, 20, 50]",0,2.7,55.0,-0.11,哈尔滨
2016,0.37,0.0,0.0,0.0,0.0,0.62,0.22,"[-50, -20, 0, 20, 50]",5,73.4,54.6,0.08,牡丹江
2016,0.14,0.18,0.0,0.01,0.12,0.55,0.3,"[-50, -20, 0, 20, 50]",5,32.7,30.0,-0.4,乌兰浩特
2016,0.04,0.11,0.02,0.28,0.0,0.55,0.34,"[-50, -20, 0, 20, 50]",5,-10.8,26.7,-0.11,通辽
2016,0.01,0.95,0.04,0.0,0.0,0.0,0.26,"[-50, -20, 0, 20, 50]",1,-9.8,42.8,-0.52,长春
2016,0.11,0.61,0.13,0.0,0.14,0.0,0.3,"[-50, -20, 0, 20, 50]",1,-86.4,60.4,-0.28,延吉
2016,0.0,1.0,0.0,0.0,0.0,0.0,0.2,"[-50, -20, 0, 20, 50]",1,-33.4,70.9,-0.4,通化
2016,0.0,0.0,0.46,0.53,0.0,0.0,0.11,"[-50, -20, 0, 20, 50]",3,-19.3,64.4,-0.44,沈阳
2016,0.0,0.02,0.0,0.0,0.0,0.98,0.17,"[-50, -20, 0, 20, 50]",5,24.0,41.6,-0.57,朝阳
2016,0.11,0.6,0.18,0.01,0.01,0.1,0.31,"[-50, -20, 0, 20, 50]",1,2.1,54.0,0.03,营口
2016,0.02,0.0,0.0,0.0,0.0,0.97,0.27,"[-50, -20, 0, 20, 50]",5,79.2,99.3,-0.06,丹东
2016,0.01,0.2,0.76,0.02,0.01,0.0,0.18,"[-50, -20, 0, 20, 50]",2,48.7,60.0,-0.11,大连
2016,0.03,0.07,0.89,0.0,0.01,0.0,0.33,"[-50, -20, 0, 20, 50]",2,57.2,31.2,-0.63,林东
2016,0.01,0.0,0.0,0.99,0.0,0.0,0.34,"[-50, -20, 0, 20, 50]",3,-44.5,24.9,0.12,锡林浩特
2016,0.0,0.0,0.0,0.0,0.01,0.98,0.25,"[-50, -20, 0, 20, 50]",5,307.8,25.6,-0.1,朱日和
2016,0.01,0.0,0.0,0.19,0.0,0.8,0.17,"[-50, -20, 0, 20, 50]",5,81.1,45.8,-0.07,多伦
2016,0.1,0.1,0.77,0.0,0.03,0.01,0.33,"[-50, -20, 0, 20, 50]",2,11.7,33.2,-0.26,赤峰
2016,0.72,0.12,0.12,0.0,0.03,0.01,0.2,"[-50, -20, 0, 20, 50]",0,-39.9,50.7,-0.38,承德
2016,0.0,0.0,0.01,0.0,0.0,0.98,0.26,"[-50, -20, 0, 20, 50]",5,51.4,50.0,-0.37,张家口
2016,0.0,0.0,0.0,0.0,0.01,0.99,0.29,"[-50, -20, 0, 20, 50]",5,124.9,50.9,0.0,呼和浩特
2016,0.0,0.01,0.0,0.0,0.01,0.97,0.23,"[-50, -20, 0, 20, 50]",5,127.4,41.7,-0.2,包头
2016,0.24,0.0,0.56,0.0,0.0,0.2,0.31,"[-50, -20, 0, 20, 50]",2,38.7,22.9,-0.18,陕坝
2016,0.07,0.0,0.92,0.0,0.0,0.0,0.23,"[-50, -20, 0, 20, 50]",2,-57.0,48.8,-0.14,北京
2016,0.17,0.0,0.0,0.01,0.0,0.81,0.22,"[-50, -20, 0, 20, 50]",5,66.8,43.3,-0.29,天津
2016,0.22,0.0,0.0,0.0,0.01,0.78,0.4,"[-50, -20, 0, 20, 50]",5,53.5,53.3,0.16,石家庄
2016,0.74,0.04,0.15,0.05,0.0,0.01,0.25,"[-50, -20, 0, 20, 50]",0,-17.9,42.1,-0.42,德州
2016,0.86,0.05,0.0,0.09,0.0,0.0,0.27,"[-50, -20, 0, 20, 50]",0,-96.3,53.1,-0.03,邢台
2016,0.26,0.0,0.25,0.0,0.0,0.49,0.3,"[-50, -20, 0, 20, 50]",5,209.3,56.8,-0.35,安阳
2016,0.9,0.01,0.0,0.01,0.0,0.07,0.36,"[-50, -20, 0, 20, 50]",0,17.2,58.5,-0.1,烟台
2016,0.68,0.04,0.0,0.0,0.28,0.0,0.19,"[-50, -20, 0, 20, 50]",0,123.7,70.8,-0.86,青岛
2016,0.0,0.0,0.0,0.0,0.01,0.98,0.3,"[-50, -20, 0, 20, 50]",5,162.9,57.0,-0.31,潍坊
2016,0.66,0.0,0.0,0.34,0.0,0.0,0.4,"[-50, -20, 0, 20, 50]",0,-43.9,62.3,-0.05,济南
2016,0.0,0.0,0.0,0.0,0.0,1.0,0.37,"[-50, -20, 0, 20, 50]",5,67.5,70.4,-0.08,临沂
2016,0.39,0.0,0.0,0.02,0.0,0.58,0.23,"[-50, -20, 0, 20, 50]",5,0.1,71.6,-0.06,荷泽
2016,0.01,0.0,0.99,0.0,0.0,0.0,0.31,"[-50, -20, 0, 20, 50]",2,-25.0,77.6,-0.06,新浦
2016,0.02,0.05,0.0,0.01,0.01,0.91,0.21,"[-50, -20, 0, 20, 50]",5,40.7,82.8,-0.35,清江
2016,0.0,0.0,0.0,0.0,0.2,0.8,0.28,"[-50, -20, 0, 20, 50]",5,128.2,71.9,0.15,徐州
2016,0.0,0.01,0.0,0.0,0.0,0.99,0.36,"[-50, -20, 0, 20, 50]",5,54.8,84.9,-0.29,蚌埠
2016,0.99,0.0,0.0,0.0,0.0,0.0,0.31,"[-50, -20, 0, 20, 50]",0,-34.1,78.7,-0.34,阜阳
2016,0.99,0.0,0.0,0.0,0.0,0.0,0.16,"[-50, -20, 0, 20, 50]",0,-47.0,76.4,-0.42,郑州
2016,0.0,0.0,0.0,0.0,0.72,0.28,0.41,"[-50, -20, 0, 20, 50]",4,223.5,76.4,-0.23,南阳
2016,0.0,0.98,0.0,0.0,0.01,0.01,0.3,"[-50, -20, 0, 20, 50]",1,-15.9,88.8,-0.11,信阳
2016,0.02,0.98,0.0,0.0,0.0,0.0,0.29,"[-50, -20, 0, 20, 50]",1,-23.5,91.4,-0.52,东台
2016,0.99,0.0,0.01,0.0,0.0,0.0,0.09,"[-50, -20, 0, 20, 50]",0,-50.7,72.9,-1.08,南京
2016,1.0,0.0,0.0,0.0,0.0,0.0,0.4,"[-50, -20, 0, 20, 50]",0,-39.5,65.5,0.11,合肥
2016,0.93,0.04,0.02,0.0,0.0,0.0,0.32,"[-50, -20, 0, 20, 50]",0,-30.4,110.9,-0.13,上海
2016,0.01,0.01,0.97,0.0,0.0,0.0,0.28,"[-50, -20, 0, 20, 50]",2,-49.7,123.7,-0.14,杭州
2016,0.0,0.99,0.0,0.0,0.0,0.0,0.15,"[-50, -20, 0, 20, 50]",1,74.8,66.8,-0.5,安庆
2016,0.01,0.0,0.0,0.0,0.99,0.0,0.25,"[-50, -20, 0, 20, 50]",4,12.4,81.0,-0.89,屯溪
2016,0.01,0.04,0.35,0.0,0.41,0.19,0.29,"[-50, -20, 0, 20, 50]",4,21.8,71.6,0.16,九江
2016,0.0,0.0,0.0,0.0,0.0,1.0,0.33,"[-50, -20, 0, 20, 50]",5,85.0,74.4,-0.03,汉口
2016,1.0,0.0,0.0,0.0,0.0,0.0,0.33,"[-50, -20, 0, 20, 50]",0,-60.7,67.9,-0.22,钟祥
2016,0.0,0.7,0.0,0.0,0.0,0.29,0.3,"[-50, -20, 0, 20, 50]",1,75.8,69.8,-0.14,岳阳
2016,0.02,0.01,0.01,0.95,0.0,0.0,0.17,"[-50, -20, 0, 20, 50]",3,-9.9,115.6,-0.1,宜昌
2016,0.95,0.01,0.0,0.01,0.0,0.02,0.28,"[-50, -20, 0, 20, 50]",0,-31.8,70.4,-0.56,常德
2016,0.0,1.0,0.0,0.0,0.0,0.0,0.21,"[-50, -20, 0, 20, 50]",1,-50.4,167.2,-0.16,宁波
2016,0.0,0.99,0.0,0.0,0.01,0.0,0.19,"[-50, -20, 0, 20, 50]",1,68.1,90.5,-0.44,衢县
2016,0.0,0.01,0.98,0.0,0.0,0.0,0.4,"[-50, -20, 0, 20, 50]",2,-8.1,231.8,0.12,温州
2016,0.01,0.0,0.0,0.57,0.0,0.41,0.22,"[-50, -20, 0, 20, 50]",3,176.8,86.2,-0.22,浦城
2016,0.03,0.77,0.0,0.0,0.07,0.12,0.33,"[-50, -20, 0, 20, 50]",1,-7.3,154.9,-0.43,福州
2016,0.97,0.02,0.0,0.0,0.0,0.0,0.22,"[-50, -20, 0, 20, 50]",0,-38.0,98.1,-0.64,永安
2016,0.14,0.0,0.0,0.53,0.09,0.24,0.19,"[-50, -20, 0, 20, 50]",3,51.3,82.4,-0.05,贵溪
2016,0.0,0.0,0.88,0.08,0.0,0.03,0.32,"[-50, -20, 0, 20, 50]",2,6.9,70.3,-0.03,南昌
2016,0.01,0.01,0.98,0.0,0.0,0.0,0.32,"[-50, -20, 0, 20, 50]",2,-25.6,83.0,-0.7,广昌
2016,0.0,0.01,0.0,0.0,0.99,0.0,0.23,"[-50, -20, 0, 20, 50]",4,78.7,87.2,-0.61,吉安
2016,0.02,0.01,0.0,0.0,0.0,0.96,0.24,"[-50, -20, 0, 20, 50]",5,86.0,87.6,0.33,赣州
2016,0.0,0.0,1.0,0.0,0.0,0.0,0.35,"[-50, -20, 0, 20, 50]",2,0.9,80.9,-0.2,长沙
2016,0.0,0.0,0.02,0.97,0.01,0.0,0.32,"[-50, -20, 0, 20, 50]",3,39.8,63.5,-0.1,衡阳
2016,0.19,0.78,0.0,0.0,0.0,0.03,0.24,"[-50, -20, 0, 20, 50]",1,-37.3,86.8,0.12,郴县
2016,0.0,0.02,0.0,0.0,0.06,0.92,0.3,"[-50, -20, 0, 20, 50]",5,77.0,62.0,-0.5,零陵
2016,0.0,0.0,0.0,0.99,0.0,0.0,0.22,"[-50, -20, 0, 20, 50]",3,13.1,57.4,-0.82,芷江
2016,0.98,0.0,0.0,0.0,0.01,0.01,0.26,"[-50, -20, 0, 20, 50]",0,-65.2,142.1,-0.52,夏门
2016,0.0,0.88,0.04,0.0,0.0,0.08,0.34,"[-50, -20, 0, 20, 50]",1,15.8,119.8,0.14,梅县
2016,0.03,0.94,0.01,0.01,0.0,0.01,0.17,"[-50, -20, 0, 20, 50]",1,-25.5,157.9,-0.34,汕头
2016,0.25,0.74,0.01,0.0,0.0,0.0,0.19,"[-50, -20, 0, 20, 50]",1,-83.2,99.2,-0.18,曲江
2016,0.01,0.32,0.01,0.32,0.33,0.01,0.17,"[-50, -20, 0, 20, 50]",4,2.9,156.8,-0.91,河源
2016,0.05,0.01,0.94,0.0,0.0,0.0,0.19,"[-50, -20, 0, 20, 50]",2,-58.4,193.7,-0.11,广州
2016,0.97,0.0,0.0,0.02,0.0,0.0,0.38,"[-50, -20, 0, 20, 50]",0,-62.4,253.3,0.0,阳江
2016,0.01,0.85,0.0,0.0,0.02,0.11,0.25,"[-50, -20, 0, 20, 50]",1,20.3,243.7,-0.2,湛江
2016,0.98,0.01,0.0,0.01,0.0,0.0,0.18,"[-50, -20, 0, 20, 50]",0,-52.3,262.6,-0.42,海口
2016,0.0,0.0,0.01,0.83,0.0,0.15,0.21,"[-50, -20, 0, 20, 50]",3,50.2,78.1,-0.2,桂林
2016,0.0,0.17,0.0,0.17,0.33,0.33,0.41,"[-50, -20, 0, 20, 50]",4,62.4,69.6,-0.05,柳州
2016,1.0,0.0,0.0,0.0,0.0,0.0,0.27,"[-50, -20, 0, 20, 50]",0,-35.1,86.3,-0.41,悟州
2016,0.0,0.0,0.0,0.0,0.0,1.0,0.17,"[-50, -20, 0, 20, 50]",5,62.8,130.7,-0.21,南宁
2016,0.0,0.0,0.0,0.0,1.0,0.0,0.23,"[-50, -20, 0, 20, 50]",4,31.4,212.2,-0.02,北海
2016,0.51,0.43,0.01,0.0,0.0,0.05,0.19,"[-50, -20, 0, 20, 50]",0,-31.4,108.9,-0.25,百色
2016,0.0,0.99,0.0,0.0,0.0,0.0,0.31,"[-50, -20, 0, 20, 50]",1,-31.8,92.2,-0.36,遵义
2016,0.17,0.32,0.0,0.51,0.0,0.0,0.22,"[-50, -20, 0, 20, 50]",3,-26.1,85.9,0.02,贵阳
2016,0.1,0.0,0.0,0.89,0.0,0.0,0.19,"[-50, -20, 0, 20, 50]",3,-46.8,92.3,-0.66,毕节
2016,0.01,0.99,0.0,0.0,0.0,0.0,0.21,"[-50, -20, 0, 20, 50]",1,-41.3,128.7,-0.11,兴仁
2016,0.0,0.77,0.0,0.0,0.0,0.23,0.29,"[-50, -20, 0, 20, 50]",1,-2.2,72.7,-0.1,榕江
2016,0.09,0.89,0.0,0.01,0.0,0.0,0.33,"[-50, -20, 0, 20, 50]",1,-33.5,134.8,0.14,恩施
2016,0.06,0.9,0.0,0.02,0.0,0.01,0.33,"[-50, -20, 0, 20, 50]",1,-44.6,143.0,-0.26,达县
2016,0.14,0.06,0.79,0.0,0.0,0.0,0.2,"[-50, -20, 0, 20, 50]",2,-38.4,97.5,-0.34,酉阳
2016,0.0,1.0,0.0,0.0,0.0,0.0,0.37,"[-50, -20, 0, 20, 50]",1,-38.3,106.3,-0.43,重庆
2016,0.08,0.12,0.78,0.0,0.01,0.0,0.26,"[-50, -20, 0, 20, 50]",2,-29.6,121.5,-0.16,南充
2016,0.96,0.02,0.01,0.0,0.0,0.01,0.13,"[-50, -20, 0, 20, 50]",0,-44.8,121.8,-0.44,内江
2016,0.0,0.09,0.04,0.05,0.01,0.81,0.39,"[-50, -20, 0, 20, 50]",5,-44.3,134.5,-0.3,绵阳
2016,0.8,0.0,0.0,0.0,0.2,0.0,0.29,"[-50, -20, 0, 20, 50]",0,-5.5,112.3,0.28,成都
2016,0.0,0.0,0.99,0.0,0.0,0.0,0.21,"[-50, -20, 0, 20, 50]",2,0.2,106.3,0.04,宜宾
2016,0.0,0.99,0.0,0.0,0.0,0.0,0.25,"[-50, -20, 0, 20, 50]",1,-27.7,177.9,-0.19,雅安
2016,0.0,0.0,0.0,0.41,0.23,0.35,0.2,"[-50, -20, 0, 20, 50]",3,39.9,128.1,-0.05,康定
2016,0.01,0.01,0.95,0.01,0.02,0.0,0.16,"[-50, -20, 0, 20, 50]",2,-18.9,151.9,-0.31,西昌
2016,0.0,0.0,0.0,0.0,1.0,0.0,0.25,"[-50, -20, 0, 20, 50]",4,20.8,192.4,-0.23,会理
2016,0.01,0.01,0.9,0.06,0.02,0.0,0.24,"[-50, -20, 0, 20, 50]",2,-21.6,164.0,-0.1,丽江
2016,0.0,0.0,1.0,0.0,0.0,0.0,0.3,"[-50, -20, 0, 20, 50]",2,-9.4,160.9,0.13,大理
2016,0.32,0.02,0.58,0.01,0.02,0.05,0.27,"[-50, -20, 0, 20, 50]",2,56.9,152.7,-0.14,保山
2016,0.1,0.36,0.11,0.15,0.23,0.05,0.26,"[-50, -20, 0, 20, 50]",1,0.6,112.8,-0.21,昆明
2016,0.0,0.02,0.26,0.71,0.01,0.0,0.32,"[-50, -20, 0, 20, 50]",3,-7.9,151.0,0.02,临沧
2016,0.22,0.03,0.02,0.69,0.02,0.03,0.17,"[-50, -20, 0, 20, 50]",3,-29.7,91.6,-0.07,蒙自
2016,0.0,0.0,0.98,0.01,0.01,0.0,0.17,"[-50, -20, 0, 20, 50]",2,-4.0,136.2,-1.06,景洪
2016,0.91,0.01,0.01,0.0,0.01,0.05,0.22,"[-50, -20, 0, 20, 50]",0,-35.5,95.1,-0.09,甘孜
2016,0.02,0.05,0.08,0.58,0.01,0.25,0.3,"[-50, -20, 0, 20, 50]",3,38.2,68.6,-0.04,德钦
2016,0.0,0.0,0.0,0.0,1.0,0.0,0.26,"[-50, -20, 0, 20, 50]",4,24.7,74.3,-0.15,昌都
2016,0.0,0.95,0.04,0.0,0.0,0.0,0.18,"[-50, -20, 0, 20, 50]",1,-27.9,68.5,-0.1,拉萨
2016,0.0,0.99,0.0,0.01,0.0,0.0,0.23,"[-50, -20, 0, 20, 50]",1,-31.8,93.3,-0.59,西安
2016,1.0,0.0,0.0,0.0,0.0,0.0,0.25,"[-50, -20, 0, 20, 50]",0,-60.5,76.4,-0.3,天水
2016,0.0,0.15,0.09,0.29,0.43,0.04,0.28,"[-50, -20, 0, 20, 50]",4,22.8,74.9,-0.41,岷县
2016,0.02,0.13,0.0,0.01,0.27,0.57,0.22,"[-50, -20, 0, 20, 50]",5,2.1,139.3,-0.3,汉中
2016,0.0,0.0,0.99,0.0,0.0,0.0,0.16,"[-50, -20, 0, 20, 50]",2,-19.5,116.1,-0.45,安康
2016,0.01,0.0,0.0,0.0,0.99,0.0,0.16,"[-50, -20, 0, 20, 50]",4,31.3,107.0,0.05,郧县
2016,0.99,0.0,0.0,0.0,0.0,0.0,0.3,"[-50, -20, 0, 20, 50]",0,-54.7,63.0,-0.06,长治
2016,0.0,0.0,0.0,0.0,0.0,1.0,0.31,"[-50, -20, 0, 20, 50]",5,131.0,56.7,0.04,太原
2016,0.04,0.12,0.01,0.8,0.03,0.0,0.23,"[-50, -20, 0, 20, 50]",3,-62.1,63.6,-0.01,临汾
2016,0.01,0.0,0.0,0.0,0.0,0.99,0.22,"[-50, -20, 0, 20, 50]",5,96.6,53.3,0.14,榆林
2016,0.18,0.0,0.0,0.81,0.0,0.0,0.12,"[-50, -20, 0, 20, 50]",3,-4.8,74.6,-0.34,延安
2016,0.98,0.01,0.0,0.0,0.01,0.0,0.24,"[-50, -20, 0, 20, 50]",0,-39.8,78.6,-0.18,西峰镇
2016,0.0,0.0,0.95,0.0,0.0,0.04,0.07,"[-50, -20, 0, 20, 50]",2,0.0,40.6,-0.78,兰州
2016,0.09,0.09,0.0,0.09,0.36,0.36,0.36,"[-50, -20, 0, 20, 50]",4,29.0,31.9,-0.01,中宁
2016,0.02,0.97,0.0,0.0,0.01,0.0,0.31,"[-50, -20, 0, 20, 50]",1,-8.1,24.5,0.1,银川
2016,0.0,0.01,0.95,0.03,0.0,0.0,0.16,"[-50, -20, 0, 20, 50]",2,-11.9,61.0,-0.17,西宁
2016,0.01,0.0,0.02,0.0,0.01,0.95,0.14,"[-50, -20, 0, 20, 50]",5,47.6,70.7,-0.61,临夏
2016,0.0,0.0,0.0,0.0,1.0,0.0,0.14,"[-50, -20, 0, 20, 50]",4,25.5,49.5,-0.55,玛多
2016,0.0,1.0,0.0,0.0,0.0,0.0,0.19,"[-50, -20, 0, 20, 50]",1,-53.0,72.7,0.06,玉树
2016,0.96,0.01,0.0,0.0,0.01,0.01,0.2,"[-50, -20, 0, 20, 50]",0,-66.2,24.9,-0.17,武威
2016,0.04,0.0,0.0,0.96,0.0,0.0,0.34,"[-50, -20, 0, 20, 50]",3,34.0,18.8,0.07,张掖
2016,0.03,0.0,0.0,0.0,0.0,0.97,0.33,"[-50, -20, 0, 20, 50]",5,237.9,10.8,-1.03,酒泉
2016,0.0,0.1,0.0,,0.0,0.9,0.51,"[-50, -20, 0, 20, 50]",5,314.3,3.3,-0.55,敦煌
2016,0.0,,0.0,,0.0,1.0,0.64,"[-50, -20, 0, 20, 50]",5,427.5,2.1,-0.35,吐鲁番
2016,0.98,0.0,0.0,0.0,0.0,0.01,0.42,"[-50, -20, 0, 20, 50]",0,-46.1,6.8,-0.15,库车
2016,0.55,0.0,0.0,0.0,0.01,0.44,0.34,"[-50, -20, 0, 20, 50]",0,53.3,6.6,-0.48,喀什
2016,0.0,0.99,,0.0,,0.0,0.68,"[-50, -20, 0, 20, 50]",1,308.8,3.7,-0.42,和田
2016,0.93,,0.01,,,0.05,0.63,"[-50, -20, 0, 20, 50]",0,397.6,1.1,-0.49,且末
2016,0.0,0.15,,,0.0,0.85,0.65,"[-50, -20, 0, 20, 50]",5,374.0,1.6,-0.44,若羌
2016,0.08,0.87,0.0,0.0,0.03,0.02,0.35,"[-50, -20, 0, 20, 50]",1,-8.9,3.4,-0.29,哈密
2016,0.0,0.0,0.0,0.0,0.0,1.0,0.38,"[-50, -20, 0, 20, 50]",5,83.0,13.7,0.13,阿勒泰
2016,0.0,0.0,1.0,0.0,0.0,0.0,0.31,"[-50, -20, 0, 20, 50]",2,9.4,12.4,0.02,塔城
2016,0.6,0.0,0.05,0.03,0.29,0.02,0.42,"[-50, -20, 0, 20, 50]",0,29.9,17.0,-0.08,乌苏
2016,0.8,0.13,0.0,0.07,0.0,0.0,0.29,"[-50, -20, 0, 20, 50]",0,-1.3,17.0,-0.14,伊宁
2016,0.0,0.0,0.0,0.97,0.01,0.02,0.27,"[-50, -20, 0, 20, 50]",3,75.9,25.0,-0.04,乌鲁木齐
