,0,1,2,3,4,5,classifier_score,divider,fcst_grade,fcst_y,norm,regressor_score,site
2016,0.44,0.13,0.11,0.14,0.0,0.18,0.2,"[-30.75, -10.6, 17.0, 30.6, 49.0]",0,-4.5,45.0,-0.23,呼玛
2016,0.16,0.2,0.02,0.19,0.19,0.24,0.23,"[-47.5, -13.8, -3.5, 19.2, 53.0]",5,52.7,47.2,-0.1,博克图
2016,0.28,0.08,0.37,0.05,0.1,0.12,0.29,"[-54.0, -11.4, 3.0, 18.0, 52.75]",2,-9.0,32.9,-0.27,海拉尔
2016,0.33,0.16,0.02,0.17,0.26,0.07,0.28,"[-35.5, -18.6, -1.0, 7.0, 29.5]",0,-18.5,49.6,-0.12,图里河
2016,0.19,0.19,0.14,0.09,0.19,0.19,0.14,"[-36.0, -11.2, 9.5, 40.2, 67.0]",1,21.5,53.4,-0.75,嫩江
2016,0.15,0.22,0.22,0.0,0.21,0.2,0.32,"[-60.0, -28.4, 11.0, 21.0, 60.5]",1,42.4,40.6,0.01,齐齐哈尔
2016,0.24,0.15,0.36,0.1,0.0,0.15,0.25,"[-34.0, -11.6, 3.0, 38.4, 58.5]",2,-47.9,58.8,-0.06,海伦
2016,0.42,0.34,0.02,0.18,0.02,0.02,0.24,"[-37.0, -13.2, 8.5, 24.4, 86.0]",0,10.3,53.4,-0.35,富锦
2016,0.15,0.76,0.0,0.03,0.06,0.0,0.27,"[-31.25, -6.0, 1.5, 17.4, 44.5]",1,2.0,57.6,-0.03,佳木斯
2016,0.02,0.52,0.02,0.4,0.02,0.02,0.19,"[-47.5, -26.2, -2.0, 15.4, 52.25]",1,-21.1,53.1,-0.28,鸡西
2016,0.58,0.01,0.38,0.01,0.01,0.01,0.2,"[-42.0, -19.6, 1.0, 13.8, 45.5]",0,-6.8,55.0,-0.02,哈尔滨
2016,0.2,0.2,0.0,0.2,0.21,0.18,0.28,"[-47.5, -22.2, 1.5, 20.6, 45.75]",4,13.0,54.6,0.2,牡丹江
2016,0.2,0.2,0.2,0.0,0.2,0.2,0.22,"[-47.0, -33.0, -6.5, 23.0, 73.25]",5,39.4,30.0,-0.11,乌兰浩特
2016,0.25,0.25,0.0,0.25,0.0,0.25,0.21,"[-53.0, -20.4, 3.0, 20.0, 73.0]",3,1.5,26.7,-0.11,通辽
2016,0.2,0.2,0.2,0.01,0.2,0.19,0.19,"[-44.0, -17.6, 0.5, 39.6, 71.0]",0,-7.9,42.8,-0.35,长春
2016,1.0,0.0,0.0,0.0,0.0,0.0,0.32,"[-57.0, -40.0, -26.0, -11.0, 26.0]",0,-39.6,60.4,-0.07,延吉
2016,0.49,0.17,0.04,0.01,0.24,0.05,0.14,"[-40.75, -19.6, -5.0, 16.8, 41.0]",0,-5.7,70.9,-0.31,通化
2016,0.26,0.19,0.17,0.2,0.0,0.18,0.23,"[-24.0, -14.6, -4.0, 14.0, 44.5]",0,-42.2,64.4,-0.25,沈阳
2016,0.14,0.24,0.12,0.09,0.16,0.26,0.25,"[-40.5, -28.0, -18.0, 1.6, 36.0]",5,8.5,41.6,-0.24,朝阳
2016,0.19,0.2,0.2,0.0,0.2,0.2,0.27,"[-33.0, -10.2, 15.0, 30.8, 67.75]",1,-7.5,54.0,0.09,营口
2016,0.01,0.01,0.26,0.01,0.29,0.41,0.34,"[-47.25, -25.8, -14.0, -2.8, 32.0]",5,43.8,99.3,0.21,丹东
2016,0.08,0.09,0.13,0.18,0.22,0.29,0.2,"[-53.5, -36.6, -20.0, 6.2, 34.75]",5,5.8,60.0,0.05,大连
2016,0.23,0.2,0.04,0.3,0.04,0.19,0.31,"[-55.0, -38.4, -21.5, -7.0, 16.0]",3,14.0,31.2,-0.17,林东
2016,0.3,0.24,0.01,0.09,0.2,0.16,0.26,"[-60.0, -36.0, -18.0, 5.6, 50.0]",0,-37.7,24.9,0.25,锡林浩特
2016,0.21,0.02,0.19,0.17,0.2,0.21,0.29,"[-58.0, -33.2, -18.0, 1.2, 33.0]",5,315.0,25.6,-0.2,朱日和
2016,0.0,0.0,0.36,0.29,0.0,0.36,0.25,"[-48.5, -24.0, -15.0, 2.0, 33.5]",2,87.5,45.8,-0.16,多伦
2016,0.18,0.36,0.11,0.0,0.08,0.27,0.21,"[-47.5, -23.8, -7.0, 11.0, 33.75]",1,-11.3,33.2,0.01,赤峰
2016,0.3,0.3,0.01,0.08,0.29,0.03,0.2,"[-27.5, -13.0, -3.0, 7.8, 46.5]",0,-52.0,50.7,-0.11,承德
2016,0.0,0.09,0.1,0.26,0.03,0.51,0.2,"[-40.0, -25.6, -13.0, -4.0, 32.5]",5,39.7,50.0,0.04,张家口
2016,0.0,0.0,0.0,0.98,0.0,0.02,0.27,"[-45.0, -28.6, -16.5, 4.4, 36.75]",3,127.3,50.9,-0.12,呼和浩特
2016,0.0,0.0,1.0,0.0,0.0,0.0,0.31,"[-52.5, -27.6, -18.0, 5.4, 32.5]",2,128.1,41.7,-0.11,包头
2016,0.2,0.2,0.2,0.0,0.2,0.2,0.28,"[-66.0, -55.2, -48.0, -31.8, 30.25]",5,74.7,22.9,-0.06,陕坝
2016,0.14,0.16,0.34,0.11,0.08,0.16,0.2,"[-49.0, -21.6, -1.0, 30.6, 66.0]",2,-7.0,48.8,-0.15,北京
2016,0.17,0.17,0.0,0.24,0.17,0.24,0.25,"[-48.0, -25.6, -13.5, 11.2, 48.0]",3,53.0,43.3,-0.06,天津
2016,0.0,0.0,0.0,0.0,0.0,0.99,0.31,"[-53.5, -28.6, 5.0, 21.6, 60.75]",5,21.0,53.3,0.27,石家庄
2016,0.2,0.2,0.2,0.2,0.0,0.2,0.28,"[-45.0, -16.0, -5.0, 11.4, 56.0]",0,-43.5,42.1,-0.04,德州
2016,0.0,0.0,1.0,0.0,0.0,0.0,0.27,"[-61.0, -26.2, -11.5, 5.6, 37.25]",2,-55.6,53.1,0.0,邢台
2016,0.2,0.2,0.2,0.2,0.2,0.0,0.28,"[-61.25, -44.8, -27.0, -12.4, 29.5]",0,162.0,56.8,0.04,安阳
2016,0.2,0.2,0.2,0.0,0.19,0.2,0.36,"[-58.75, -14.6, 18.0, 33.6, 101.25]",1,-9.3,58.5,0.17,烟台
2016,0.25,0.13,0.37,0.01,0.18,0.06,0.19,"[-60.75, -46.4, 0.0, 13.2, 47.75]",2,-25.5,70.8,-0.62,青岛
2016,0.03,0.23,0.03,0.23,0.23,0.24,0.21,"[-67.75, -27.4, -7.0, 9.0, 47.5]",5,118.1,57.0,-0.07,潍坊
2016,0.21,0.19,0.21,0.19,0.2,0.0,0.26,"[-60.25, -40.8, -18.0, -5.4, 29.75]",0,-44.3,62.3,0.02,济南
2016,0.19,0.26,0.05,0.0,0.25,0.25,0.35,"[-54.0, -34.6, -13.5, 27.2, 58.25]",1,135.8,70.4,0.04,临沂
2016,0.09,0.38,0.03,0.06,0.0,0.44,0.25,"[-61.25, -33.8, -9.5, 11.0, 38.75]",5,-10.1,71.6,0.13,荷泽
2016,0.19,0.1,0.02,0.03,0.6,0.06,0.31,"[-50.5, -35.2, -13.5, 27.6, 81.0]",4,1.9,77.6,0.18,新浦
2016,0.19,0.19,0.04,0.19,0.19,0.19,0.21,"[-42.25, -24.2, 1.0, 16.6, 52.5]",5,-11.5,82.8,-0.03,清江
2016,0.14,0.14,0.08,0.14,0.28,0.23,0.27,"[-49.0, -31.6, -12.0, 13.0, 62.75]",4,104.7,71.9,0.04,徐州
2016,0.0,0.0,0.96,0.02,0.0,0.01,0.24,"[-61.25, -35.0, -19.0, 0.6, 65.0]",2,59.0,84.9,-0.05,蚌埠
2016,0.16,0.41,0.02,0.02,0.25,0.14,0.24,"[-63.75, -32.0, -10.5, -2.0, 22.25]",1,9.1,78.7,0.1,阜阳
2016,0.26,0.26,0.0,0.21,0.26,0.0,0.28,"[-57.0, -33.8, -17.5, 6.6, 45.75]",1,-47.6,76.4,-0.13,郑州
2016,0.2,0.2,0.2,0.0,0.2,0.2,0.27,"[-54.25, -24.0, -3.5, 5.4, 55.5]",5,126.6,76.4,-0.34,南阳
2016,0.22,0.22,0.22,0.17,0.0,0.17,0.33,"[-53.5, -27.6, -12.0, 5.8, 51.25]",0,16.2,88.8,0.07,信阳
2016,0.26,0.01,0.21,0.26,0.26,0.01,0.26,"[-43.5, -26.6, -16.5, 6.4, 67.25]",3,5.4,91.4,-0.48,东台
2016,0.22,0.21,0.19,0.16,0.18,0.04,0.24,"[-49.75, -17.2, -4.5, 10.8, 53.25]",0,-16.2,72.9,-0.32,南京
2016,0.33,0.34,0.09,0.01,0.13,0.1,0.33,"[-42.75, -21.2, 6.0, 32.6, 77.5]",1,-54.6,65.5,0.1,合肥
2016,0.2,0.2,0.2,0.2,0.2,0.0,0.26,"[-30.75, -7.0, 11.0, 30.2, 55.5]",0,-7.5,110.9,0.01,上海
2016,0.2,0.2,0.19,0.0,0.19,0.21,0.3,"[-45.75, -12.8, 4.5, 27.4, 69.75]",5,-33.2,123.7,-0.11,杭州
2016,0.22,0.21,0.23,0.0,0.15,0.19,0.21,"[-58.5, -23.6, -10.0, 7.6, 48.75]",2,14.0,66.8,-0.35,安庆
2016,0.21,0.21,0.2,0.0,0.18,0.21,0.18,"[-40.5, -6.4, 7.0, 27.4, 67.0]",0,2.0,81.0,-0.11,屯溪
2016,0.2,0.19,0.2,0.16,0.0,0.25,0.28,"[-35.5, -24.6, -12.0, 8.2, 31.0]",5,30.4,71.6,0.15,九江
2016,0.21,0.21,0.15,0.0,0.21,0.22,0.25,"[-53.75, -33.8, -19.0, 4.0, 53.0]",5,66.9,74.4,-0.08,汉口
2016,0.24,0.25,0.02,0.19,0.24,0.07,0.23,"[-48.0, -27.6, -5.0, 12.4, 54.0]",1,-20.3,67.9,0.01,钟祥
2016,0.08,0.14,0.21,0.06,0.06,0.45,0.22,"[-59.25, -35.0, -23.0, -7.0, 25.25]",5,28.9,69.8,-0.1,岳阳
2016,0.2,0.2,0.2,0.2,0.0,0.2,0.39,"[-50.5, -16.6, -7.5, 5.8, 31.25]",5,-20.8,115.6,0.09,宜昌
2016,0.21,0.18,0.05,0.2,0.2,0.15,0.22,"[-59.25, -42.4, -19.0, 0.6, 55.0]",0,-9.6,70.4,-0.8,常德
2016,0.12,0.12,0.55,0.0,0.1,0.11,0.22,"[-45.25, -9.6, 12.0, 26.0, 46.25]",2,1.0,167.2,-0.09,宁波
2016,0.01,0.42,0.01,0.01,0.01,0.55,0.22,"[-45.0, -26.4, -6.0, 7.8, 37.0]",5,3.7,90.5,-0.28,衢县
2016,0.01,0.33,0.01,0.29,0.12,0.24,0.27,"[-50.75, -26.6, -12.5, 3.0, 30.5]",1,-2.0,231.8,-0.01,温州
2016,0.2,0.2,0.0,0.2,0.2,0.19,0.15,"[-40.5, -18.0, 0.0, 12.2, 32.0]",4,122.2,86.2,-0.43,浦城
2016,0.2,0.2,0.2,0.0,0.2,0.2,0.21,"[-67.25, -32.4, -24.0, -6.2, 34.25]",1,1.8,154.9,-0.09,福州
2016,0.23,0.23,0.05,0.23,0.05,0.22,0.38,"[-44.25, -20.8, -3.5, 4.6, 32.25]",0,-26.6,98.1,-0.3,永安
2016,0.2,0.2,0.2,0.2,0.0,0.2,0.27,"[-35.25, -20.8, -9.5, 23.4, 45.25]",3,4.6,82.4,0.06,贵溪
2016,0.0,0.2,0.2,0.2,0.2,0.2,0.31,"[-63.75, -36.2, -2.5, 14.2, 43.0]",5,15.7,70.3,0.21,南昌
2016,0.13,0.13,0.24,0.24,0.13,0.13,0.24,"[-53.0, -38.6, -27.5, -3.8, 27.0]",3,-21.0,83.0,-0.22,广昌
2016,0.09,0.16,0.12,0.06,0.26,0.31,0.24,"[-55.75, -31.8, -14.0, 2.6, 33.75]",5,27.4,87.2,-0.43,吉安
2016,0.2,0.2,0.0,0.2,0.2,0.2,0.27,"[-48.0, -33.8, -21.0, -5.6, 24.5]",5,68.3,87.6,0.23,赣州
2016,0.0,0.26,0.0,0.21,0.26,0.26,0.21,"[-63.5, -44.6, -31.5, -1.2, 22.5]",5,-12.7,80.9,-0.18,长沙
2016,0.18,0.0,0.18,0.21,0.21,0.21,0.25,"[-66.0, -42.8, -30.0, -14.0, 13.5]",5,53.7,63.5,-0.01,衡阳
2016,0.2,0.2,0.2,0.2,0.2,0.0,0.27,"[-45.0, -31.8, -23.0, -3.8, 38.0]",0,-40.9,86.8,0.26,郴县
2016,0.08,0.1,0.0,0.38,0.23,0.21,0.22,"[-60.75, -45.0, -5.5, 20.0, 45.5]",3,67.7,62.0,-0.03,零陵
2016,0.0,0.14,0.14,0.27,0.32,0.14,0.24,"[-56.0, -29.0, -16.0, 9.6, 60.75]",4,72.9,57.4,-0.36,芷江
2016,0.21,0.21,0.17,0.2,0.0,0.21,0.28,"[-77.25, -58.0, -46.0, -9.8, 19.0]",5,9.2,142.1,-0.23,夏门
2016,0.0,0.2,0.2,0.2,0.2,0.2,0.32,"[-37.5, -27.0, -17.0, -6.2, 43.75]",5,17.9,119.8,0.23,梅县
2016,0.17,0.22,0.0,0.22,0.17,0.21,0.29,"[-53.25, -37.0, -25.0, -4.0, 25.75]",1,6.2,157.9,-0.2,汕头
2016,0.2,0.2,0.2,0.2,0.0,0.2,0.34,"[-48.5, -23.0, -10.5, -0.4, 17.25]",0,-36.2,99.2,-0.23,曲江
2016,0.2,0.2,0.2,0.0,0.2,0.2,0.27,"[-46.0, -27.0, -16.0, -3.2, 17.25]",5,-11.9,156.8,-0.22,河源
2016,0.14,0.27,0.03,0.21,0.28,0.07,0.2,"[-44.5, -28.8, -16.0, 6.6, 25.75]",4,-6.9,193.7,-0.13,广州
2016,0.27,0.21,0.26,0.0,0.26,0.0,0.29,"[-44.5, -24.4, -11.0, 3.8, 40.0]",0,-46.0,253.3,0.25,阳江
2016,0.2,0.2,0.2,0.0,0.2,0.2,0.25,"[-29.5, -17.0, -3.5, 9.0, 31.75]",4,29.0,243.7,0.01,湛江
2016,0.04,0.03,0.0,0.91,0.0,0.02,0.18,"[-33.0, -12.0, -2.0, 15.6, 50.25]",3,-29.3,262.6,-0.1,海口
2016,0.21,0.0,0.18,0.21,0.19,0.21,0.23,"[-62.75, -40.6, -20.0, -4.0, 28.75]",5,23.9,78.1,-0.24,桂林
2016,0.06,0.2,0.06,0.2,0.24,0.24,0.36,"[-60.0, -33.6, -16.0, 3.0, 38.75]",5,-11.8,69.6,0.05,柳州
2016,0.2,0.23,0.0,0.24,0.17,0.17,0.25,"[-43.0, -19.6, -9.0, 10.8, 49.75]",3,-41.6,86.3,-0.13,悟州
2016,0.0,0.02,0.12,0.68,0.05,0.14,0.24,"[-46.5, -15.6, -0.5, 12.0, 35.5]",3,57.6,130.7,0.07,南宁
2016,0.11,0.22,0.11,0.11,0.22,0.22,0.3,"[-42.25, -24.6, -11.5, 9.8, 31.5]",5,-25.0,212.2,-0.03,北海
2016,0.2,0.2,0.2,0.0,0.2,0.2,0.22,"[-45.0, -24.8, -16.0, -0.4, 24.5]",0,-12.2,108.9,-0.05,百色
2016,0.25,0.25,0.25,0.0,0.25,0.0,0.35,"[-44.25, -26.2, -10.5, 11.2, 35.25]",1,1.1,92.2,-0.18,遵义
2016,0.15,0.1,0.01,0.13,0.26,0.35,0.15,"[-34.25, -16.6, -6.0, 7.0, 36.0]",5,-3.3,85.9,0.1,贵阳
2016,0.03,0.03,0.03,0.83,0.03,0.03,0.22,"[-30.0, -10.8, -6.0, 13.2, 38.25]",3,-12.0,92.3,-0.19,毕节
2016,0.24,0.2,0.22,0.0,0.13,0.21,0.21,"[-33.5, -14.8, -8.0, 6.0, 27.5]",0,-35.5,128.7,-0.03,兴仁
2016,0.23,0.23,0.0,0.08,0.23,0.23,0.31,"[-42.5, -25.6, -14.5, -1.6, 26.0]",4,9.8,72.7,0.06,榕江
2016,0.06,0.1,0.77,0.01,0.02,0.04,0.25,"[-35.75, -5.4, 10.5, 28.2, 54.0]",2,-46.5,134.8,0.04,恩施
2016,0.13,0.14,0.02,0.51,0.07,0.13,0.22,"[-38.5, -18.4, 8.0, 21.6, 45.0]",3,-33.6,143.0,0.04,达县
2016,0.2,0.2,0.0,0.2,0.2,0.2,0.18,"[-24.75, -7.4, 12.0, 22.2, 51.5]",3,16.2,97.5,0.01,酉阳
2016,0.25,0.25,0.25,0.0,0.25,0.01,0.36,"[-32.75, 1.4, 18.0, 29.4, 52.25]",0,-22.6,106.3,0.08,重庆
2016,0.25,0.25,0.0,0.25,0.25,0.0,0.3,"[-27.0, 0.4, 11.0, 24.8, 56.75]",0,-21.2,121.5,-0.09,南充
2016,0.22,0.15,0.15,0.19,0.09,0.19,0.17,"[-36.25, -14.8, -7.5, 8.0, 29.25]",0,-36.9,121.8,-0.28,内江
2016,0.17,0.23,0.17,0.23,0.2,0.0,0.28,"[-44.0, -23.8, -16.0, -2.2, 34.0]",3,7.1,134.5,-0.01,绵阳
2016,0.27,0.18,0.18,0.0,0.19,0.18,0.23,"[-40.25, -16.8, -11.0, 0.6, 38.0]",0,10.5,112.3,0.34,成都
2016,0.21,0.0,0.21,0.2,0.2,0.18,0.39,"[-28.0, -7.8, 0.5, 18.4, 48.25]",0,11.2,106.3,0.01,宜宾
2016,0.21,0.21,0.0,0.19,0.19,0.2,0.2,"[-23.0, -9.8, -6.5, 11.8, 26.0]",0,-6.9,177.9,-0.06,雅安
2016,0.01,0.0,0.14,0.02,0.25,0.57,0.2,"[-28.0, -11.4, -1.5, 4.0, 26.5]",5,19.6,128.1,0.03,康定
2016,0.19,0.23,0.07,0.06,0.23,0.23,0.24,"[-15.25, -6.8, -1.5, 11.8, 28.25]",1,-38.2,151.9,-0.12,西昌
2016,0.0,0.2,0.2,0.2,0.2,0.2,0.28,"[-31.0, -13.8, -12.0, -2.0, 25.25]",5,13.3,192.4,0.0,会理
2016,0.2,0.21,0.0,0.23,0.16,0.2,0.24,"[-30.0, -21.8, -12.5, -4.4, 15.25]",3,4.0,164.0,0.03,丽江
2016,0.25,0.25,0.25,0.0,0.25,0.0,0.31,"[-32.0, -12.4, -8.0, 15.8, 28.0]",0,-23.9,160.9,0.22,大理
2016,0.2,0.2,0.2,0.0,0.2,0.2,0.11,"[-43.25, -25.8, -16.0, -0.4, 13.0]",0,121.0,152.7,0.01,保山
2016,0.21,0.24,0.08,0.0,0.25,0.22,0.29,"[-32.0, -12.0, -6.5, 7.4, 30.5]",4,-2.2,112.8,-0.22,昆明
2016,0.16,0.0,0.15,0.24,0.21,0.24,0.3,"[-27.0, -14.4, -7.5, 6.0, 14.25]",5,-0.1,151.0,0.14,临沧
2016,0.21,0.18,0.0,0.21,0.19,0.2,0.15,"[-38.0, -15.2, 5.0, 10.0, 28.5]",0,-25.0,91.6,0.13,蒙自
2016,0.0,0.21,0.18,0.19,0.21,0.21,0.26,"[-25.5, -8.0, 1.0, 11.6, 28.5]",5,22.5,136.2,-0.18,景洪
2016,0.23,0.24,0.28,0.08,0.01,0.16,0.27,"[-11.0, 0.4, 16.5, 22.6, 31.25]",2,-93.0,95.1,-0.25,甘孜
2016,0.17,0.12,0.07,0.17,0.27,0.2,0.29,"[-48.25, -29.4, -12.0, 0.6, 12.0]",4,15.0,68.6,-0.01,德钦
2016,0.05,0.07,0.04,0.01,0.47,0.37,0.11,"[-20.5, -7.0, -1.0, 5.0, 20.25]",4,15.8,74.3,-0.03,昌都
2016,0.2,0.2,0.2,0.0,0.2,0.2,0.29,"[-42.75, -25.4, -17.0, -8.2, 8.25]",5,-17.5,68.5,0.24,拉萨
2016,0.25,0.25,0.01,0.01,0.25,0.25,0.19,"[-39.75, -14.8, -8.5, 8.2, 31.5]",0,-24.0,93.3,-0.18,西安
2016,0.25,0.26,0.25,0.0,0.25,0.0,0.21,"[-33.75, -14.0, -8.5, 8.6, 52.25]",1,-25.2,76.4,-0.08,天水
2016,0.21,0.23,0.08,0.11,0.35,0.03,0.31,"[-23.0, -8.0, 15.0, 22.6, 43.0]",4,-14.3,74.9,0.12,岷县
2016,0.06,0.04,0.09,0.2,0.23,0.38,0.27,"[-39.25, -23.8, -3.0, 8.0, 42.5]",5,39.7,139.3,0.08,汉中
2016,0.23,0.2,0.22,0.19,0.0,0.16,0.15,"[-40.75, -17.0, -4.5, 17.4, 45.25]",0,-16.5,116.1,-0.42,安康
2016,0.0,0.05,0.01,0.04,0.64,0.24,0.31,"[-49.0, -26.0, -7.0, 8.6, 29.0]",4,19.7,107.0,0.15,郧县
2016,0.2,0.2,0.0,0.19,0.2,0.2,0.3,"[-39.25, -18.0, -2.5, 11.0, 35.25]",5,-21.4,63.0,-0.06,长治
2016,0.09,0.17,0.09,0.09,0.23,0.34,0.32,"[-47.0, -20.6, 3.0, 19.0, 49.5]",5,131.0,56.7,0.02,太原
2016,0.2,0.19,0.2,0.2,0.2,0.0,0.26,"[-42.0, -17.8, -8.0, 3.6, 40.0]",0,-31.0,63.6,-0.13,临汾
2016,0.2,0.2,0.0,0.2,0.2,0.2,0.27,"[-40.25, -14.4, 0.0, 16.0, 54.75]",5,73.0,53.3,0.29,榆林
2016,0.19,0.0,0.21,0.19,0.21,0.21,0.21,"[-43.0, -16.4, 9.5, 21.0, 45.25]",5,-15.4,74.6,-0.3,延安
2016,0.2,0.2,0.2,0.2,0.2,0.0,0.22,"[-43.25, -16.0, 3.5, 27.4, 58.5]",0,-27.6,78.6,0.0,西峰镇
2016,0.09,0.27,0.07,0.18,0.18,0.2,0.17,"[-31.5, -4.0, 7.0, 32.6, 59.25]",1,15.2,40.6,-0.21,兰州
2016,0.2,0.0,0.2,0.2,0.2,0.2,0.33,"[-54.5, -37.0, -22.0, 18.4, 51.0]",4,34.2,31.9,0.1,中宁
2016,0.2,0.2,0.2,0.0,0.2,0.2,0.27,"[-48.0, -25.2, -12.0, 18.0, 56.0]",0,5.6,24.5,0.14,银川
2016,0.11,0.3,0.12,0.19,0.03,0.26,0.22,"[-23.5, -12.0, -7.0, 0.0, 11.5]",1,-7.1,61.0,-0.24,西宁
2016,0.22,0.22,0.01,0.15,0.19,0.2,0.26,"[-19.0, -7.2, 8.0, 20.8, 42.25]",0,14.5,70.7,-0.01,临夏
2016,0.04,0.2,0.09,0.2,0.18,0.29,0.3,"[-37.5, -12.6, -3.0, 4.6, 23.5]",5,21.6,49.5,-0.03,玛多
2016,0.01,0.99,0.0,0.0,0.0,0.0,0.31,"[-19.0, -6.0, 3.0, 8.6, 25.25]",1,-32.1,72.7,0.1,玉树
2016,0.19,0.2,0.0,0.2,0.2,0.2,0.23,"[-38.0, -20.0, -10.0, 11.2, 36.0]",1,-45.3,24.9,-0.38,武威
2016,0.0,0.0,0.0,0.0,0.0,1.0,0.31,"[-68.0, -42.0, -31.0, -5.2, 43.0]",5,-2.0,18.8,0.26,张掖
2016,0.14,0.21,0.2,0.01,0.22,0.22,0.34,"[-91.0, -72.0, -54.0, -35.0, 38.0]",4,74.4,10.8,-0.28,酒泉
2016,,0.11,0.0,,0.6,0.29,0.39,"[-100.0, -100.0, -69.0, -69.0, -31.25]",4,329.0,3.3,-0.24,敦煌
2016,,0.01,,0.0,0.0,0.99,0.47,"[-100.0, -100.0, -100.0, -52.0, -5.0]",5,431.8,2.1,-0.06,吐鲁番
2016,0.2,0.2,0.0,0.2,0.2,0.2,0.3,"[-85.0, -56.0, -41.0, -26.0, 33.0]",1,-32.8,6.8,0.02,库车
2016,0.18,0.15,0.18,0.09,0.2,0.2,0.21,"[-88.75, -70.0, -54.0, -24.0, 37.0]",4,17.0,6.6,-0.15,喀什
2016,,0.32,,,0.33,0.35,0.54,"[-100.0, -100.0, -100.0, -78.4, -45.0]",5,-4.1,3.7,-0.01,和田
2016,,0.45,,,0.18,0.37,0.66,"[-100.0, -100.0, -100.0, -100.0, -12.0]",1,606.0,1.1,-0.07,且末
2016,,0.0,,,0.0,1.0,0.74,"[-100.0, -100.0, -100.0, -100.0, -38.0]",5,462.0,1.6,-0.09,若羌
2016,,0.25,0.25,0.0,0.25,0.25,0.37,"[-100.0, -71.0, -41.0, -12.0, 47.0]",1,18.5,3.4,-0.18,哈密
2016,0.14,0.14,0.14,0.14,0.14,0.29,0.32,"[-57.75, -27.0, -12.0, 15.6, 46.0]",5,83.0,13.7,0.0,阿勒泰
2016,0.06,0.05,0.0,0.53,0.15,0.2,0.27,"[-60.0, -34.4, -20.0, 5.0, 39.0]",3,45.0,12.4,-0.2,塔城
2016,0.23,0.23,0.0,0.16,0.16,0.21,0.26,"[-77.0, -51.8, -38.0, -24.0, 20.0]",1,16.8,17.0,0.15,乌苏
2016,0.18,0.6,0.04,0.05,0.12,0.0,0.28,"[-60.5, -41.0, -30.0, -13.2, 23.0]",1,-30.8,17.0,-0.1,伊宁
2016,0.2,0.2,0.0,0.2,0.2,0.2,0.29,"[-60.0, -32.0, -22.0, -5.6, 33.0]",5,52.3,25.0,0.19,乌鲁木齐
