,0,1,2,3,4,5,classifier_score,divider,fcst_grade,fcst_y,norm,regressor_score,site
2016,0.53,0.33,0.04,0.01,0.01,0.08,0.17,"[-30.75, -10.6, 17.0, 30.6, 49.0]",0,-27.7,45.0,-0.41,呼玛
2016,0.06,0.1,0.0,0.01,0.09,0.74,0.23,"[-47.5, -13.8, -3.5, 19.2, 53.0]",5,90.8,47.2,-0.13,博克图
2016,0.21,0.43,0.29,0.0,0.02,0.05,0.22,"[-54.0, -11.4, 3.0, 18.0, 52.75]",1,-45.6,32.9,-0.11,海拉尔
2016,0.35,0.2,0.02,0.12,0.3,0.01,0.27,"[-35.5, -18.6, -1.0, 7.0, 29.5]",0,-21.0,49.6,-0.14,图里河
2016,0.26,0.01,0.0,0.0,0.0,0.73,0.19,"[-36.0, -11.2, 9.5, 40.2, 67.0]",5,30.6,53.4,-0.44,嫩江
2016,0.16,0.12,0.19,0.02,0.37,0.14,0.36,"[-60.0, -28.4, 11.0, 21.0, 60.5]",4,51.0,40.6,0.13,齐齐哈尔
2016,0.66,0.01,0.18,0.01,0.04,0.1,0.31,"[-34.0, -11.6, 3.0, 38.4, 58.5]",0,-40.4,58.8,-0.03,海伦
2016,0.27,0.68,0.0,0.0,0.0,0.05,0.27,"[-37.0, -13.2, 8.5, 24.4, 86.0]",1,-28.4,53.4,-0.24,富锦
2016,0.22,0.46,0.1,0.1,0.05,0.07,0.25,"[-31.25, -6.0, 1.5, 17.4, 44.5]",1,5.6,57.6,0.06,佳木斯
2016,0.31,0.21,0.03,0.08,0.11,0.26,0.26,"[-47.5, -26.2, -2.0, 15.4, 52.25]",0,-7.1,53.1,-0.12,鸡西
2016,0.31,0.1,0.07,0.02,0.44,0.06,0.28,"[-42.0, -19.6, 1.0, 13.8, 45.5]",4,-19.9,55.0,0.07,哈尔滨
2016,0.24,0.34,0.04,0.03,0.05,0.3,0.33,"[-47.5, -22.2, 1.5, 20.6, 45.75]",1,13.8,54.6,0.26,牡丹江
2016,0.12,0.13,0.02,0.06,0.25,0.42,0.28,"[-47.0, -33.0, -6.5, 23.0, 73.25]",5,39.1,30.0,-0.12,乌兰浩特
2016,0.26,0.11,0.15,0.24,0.07,0.17,0.32,"[-53.0, -20.4, 3.0, 20.0, 73.0]",0,-3.2,26.7,0.02,通辽
2016,0.31,0.23,0.03,0.38,0.05,0.0,0.27,"[-44.0, -17.6, 0.5, 39.6, 71.0]",3,-2.3,42.8,-0.15,长春
2016,0.29,0.16,0.0,0.32,0.14,0.09,0.26,"[-57.0, -40.0, -26.0, -11.0, 26.0]",3,-33.6,60.4,-0.03,延吉
2016,0.27,0.21,0.08,0.05,0.1,0.29,0.24,"[-40.75, -19.6, -5.0, 16.8, 41.0]",5,-2.4,70.9,-0.17,通化
2016,0.3,0.3,0.27,0.12,0.0,0.01,0.36,"[-24.0, -14.6, -4.0, 14.0, 44.5]",0,-30.9,64.4,-0.03,沈阳
2016,0.04,0.13,0.06,0.05,0.24,0.48,0.18,"[-40.5, -28.0, -18.0, 1.6, 36.0]",5,42.2,41.6,-0.21,朝阳
2016,0.36,0.42,0.07,0.0,0.15,0.0,0.31,"[-33.0, -10.2, 15.0, 30.8, 67.75]",1,-10.5,54.0,0.11,营口
2016,0.15,0.05,0.07,0.28,0.03,0.42,0.33,"[-47.25, -25.8, -14.0, -2.8, 32.0]",5,29.9,99.3,0.21,丹东
2016,0.02,0.18,0.08,0.29,0.11,0.32,0.28,"[-53.5, -36.6, -20.0, 6.2, 34.75]",5,-4.2,60.0,0.06,大连
2016,0.23,0.07,0.15,0.34,0.02,0.19,0.36,"[-55.0, -38.4, -21.5, -7.0, 16.0]",3,137.7,31.2,-0.12,林东
2016,0.65,0.04,0.0,0.01,0.24,0.06,0.36,"[-60.0, -36.0, -18.0, 5.6, 50.0]",0,-2.3,24.9,0.21,锡林浩特
2016,0.0,0.0,0.02,0.0,0.1,0.88,0.25,"[-58.0, -33.2, -18.0, 1.2, 33.0]",5,224.9,25.6,-0.07,朱日和
2016,0.06,0.03,0.06,0.15,0.02,0.68,0.33,"[-48.5, -24.0, -15.0, 2.0, 33.5]",5,93.9,45.8,0.03,多伦
2016,0.14,0.16,0.4,0.0,0.12,0.18,0.28,"[-47.5, -23.8, -7.0, 11.0, 33.75]",2,-11.2,33.2,-0.03,赤峰
2016,0.44,0.28,0.05,0.04,0.13,0.06,0.25,"[-27.5, -13.0, -3.0, 7.8, 46.5]",0,-27.3,50.7,-0.09,承德
2016,0.06,0.0,0.0,0.11,0.03,0.8,0.28,"[-40.0, -25.6, -13.0, -4.0, 32.5]",5,69.8,50.0,-0.04,张家口
2016,0.0,0.33,0.11,0.01,0.01,0.54,0.24,"[-45.0, -28.6, -16.5, 4.4, 36.75]",5,103.5,50.9,-0.13,呼和浩特
2016,0.01,0.0,0.31,0.04,0.08,0.56,0.3,"[-52.5, -27.6, -18.0, 5.4, 32.5]",5,118.5,41.7,-0.08,包头
2016,0.03,0.28,0.08,0.01,0.15,0.45,0.34,"[-66.0, -55.2, -48.0, -31.8, 30.25]",5,106.6,22.9,0.11,陕坝
2016,0.57,0.05,0.26,0.0,0.07,0.05,0.3,"[-49.0, -21.6, -1.0, 30.6, 66.0]",0,-41.2,48.8,-0.08,北京
2016,0.14,0.05,0.0,0.28,0.08,0.45,0.25,"[-48.0, -25.6, -13.5, 11.2, 48.0]",5,38.1,43.3,0.0,天津
2016,0.12,0.19,0.0,0.06,0.32,0.31,0.27,"[-53.5, -28.6, 5.0, 21.6, 60.75]",4,47.9,53.3,0.24,石家庄
2016,0.61,0.19,0.13,0.02,0.05,0.0,0.27,"[-45.0, -16.0, -5.0, 11.4, 56.0]",0,-52.9,42.1,-0.01,德州
2016,0.53,0.22,0.14,0.02,0.04,0.05,0.3,"[-61.0, -26.2, -11.5, 5.6, 37.25]",0,-43.1,53.1,0.13,邢台
2016,0.26,0.21,0.02,0.11,0.04,0.36,0.19,"[-61.25, -44.8, -27.0, -12.4, 29.5]",5,110.9,56.8,0.01,安阳
2016,0.55,0.12,0.17,0.0,0.05,0.11,0.4,"[-58.75, -14.6, 18.0, 33.6, 101.25]",0,1.3,58.5,0.16,烟台
2016,0.41,0.09,0.03,0.01,0.32,0.14,0.15,"[-60.75, -46.4, 0.0, 13.2, 47.75]",0,195.1,70.8,-0.47,青岛
2016,0.0,0.01,0.0,0.04,0.19,0.76,0.26,"[-67.75, -27.4, -7.0, 9.0, 47.5]",5,144.6,57.0,-0.21,潍坊
2016,0.55,0.01,0.0,0.0,0.44,0.0,0.28,"[-60.25, -40.8, -18.0, -5.4, 29.75]",0,-35.1,62.3,0.05,济南
2016,0.05,0.0,0.03,0.0,0.04,0.88,0.27,"[-54.0, -34.6, -13.5, 27.2, 58.25]",5,87.8,70.4,-0.08,临沂
2016,0.42,0.06,0.21,0.03,0.01,0.27,0.26,"[-61.25, -33.8, -9.5, 11.0, 38.75]",0,82.6,71.6,0.04,荷泽
2016,0.32,0.25,0.02,0.1,0.13,0.18,0.39,"[-50.5, -35.2, -13.5, 27.6, 81.0]",0,27.3,77.6,0.3,新浦
2016,0.11,0.06,0.0,0.19,0.0,0.64,0.22,"[-42.25, -24.2, 1.0, 16.6, 52.5]",5,35.3,82.8,-0.32,清江
2016,0.0,0.0,0.0,0.0,0.19,0.81,0.33,"[-49.0, -31.6, -12.0, 13.0, 62.75]",5,130.1,71.9,0.15,徐州
2016,0.1,0.06,0.05,0.0,0.03,0.76,0.26,"[-61.25, -35.0, -19.0, 0.6, 65.0]",5,62.5,84.9,-0.02,蚌埠
2016,0.11,0.44,0.22,0.01,0.18,0.04,0.38,"[-63.75, -32.0, -10.5, -2.0, 22.25]",1,-13.3,78.7,0.1,阜阳
2016,0.01,0.84,0.0,0.14,0.0,0.01,0.19,"[-57.0, -33.8, -17.5, 6.6, 45.75]",1,-40.7,76.4,-0.02,郑州
2016,0.01,0.0,0.16,0.03,0.46,0.34,0.25,"[-54.25, -24.0, -3.5, 5.4, 55.5]",4,174.0,76.4,-0.11,南阳
2016,0.02,0.29,0.04,0.0,0.15,0.5,0.32,"[-53.5, -27.6, -12.0, 5.8, 51.25]",5,3.0,88.8,0.04,信阳
2016,0.12,0.0,0.63,0.25,0.0,0.0,0.11,"[-43.5, -26.6, -16.5, 6.4, 67.25]",2,-27.7,91.4,-0.75,东台
2016,0.95,0.04,0.0,0.01,0.0,0.0,0.08,"[-49.75, -17.2, -4.5, 10.8, 53.25]",0,-57.9,72.9,-0.88,南京
2016,0.47,0.21,0.17,0.0,0.1,0.05,0.36,"[-42.75, -21.2, 6.0, 32.6, 77.5]",0,-53.0,65.5,0.13,合肥
2016,0.36,0.2,0.15,0.15,0.07,0.07,0.32,"[-30.75, -7.0, 11.0, 30.2, 55.5]",0,-27.8,110.9,0.07,上海
2016,0.32,0.29,0.13,0.09,0.02,0.15,0.36,"[-45.75, -12.8, 4.5, 27.4, 69.75]",0,-13.8,123.7,0.04,杭州
2016,0.18,0.7,0.05,0.0,0.02,0.05,0.21,"[-58.5, -23.6, -10.0, 7.6, 48.75]",1,-16.5,66.8,-0.28,安庆
2016,0.27,0.09,0.0,0.0,0.64,0.0,0.23,"[-40.5, -6.4, 7.0, 27.4, 67.0]",4,7.7,81.0,-0.42,屯溪
2016,0.05,0.04,0.09,0.4,0.02,0.4,0.31,"[-35.5, -24.6, -12.0, 8.2, 31.0]",3,59.1,71.6,0.25,九江
2016,0.0,0.02,0.04,0.08,0.09,0.77,0.32,"[-53.75, -33.8, -19.0, 4.0, 53.0]",5,79.5,74.4,-0.01,汉口
2016,0.58,0.07,0.03,0.08,0.14,0.1,0.3,"[-48.0, -27.6, -5.0, 12.4, 54.0]",0,-40.7,67.9,0.06,钟祥
2016,0.07,0.07,0.16,0.0,0.03,0.67,0.28,"[-59.25, -35.0, -23.0, -7.0, 25.25]",5,40.6,69.8,-0.07,岳阳
2016,0.21,0.21,0.11,0.34,0.09,0.04,0.39,"[-50.5, -16.6, -7.5, 5.8, 31.25]",3,3.7,115.6,0.15,宜昌
2016,0.66,0.0,0.0,0.0,0.34,0.0,0.19,"[-59.25, -42.4, -19.0, 0.6, 55.0]",0,-37.8,70.4,-0.66,常德
2016,0.67,0.15,0.08,0.03,0.01,0.06,0.19,"[-45.25, -9.6, 12.0, 26.0, 46.25]",0,-40.9,167.2,0.0,宁波
2016,0.11,0.18,0.03,0.18,0.19,0.31,0.21,"[-45.0, -26.4, -6.0, 7.8, 37.0]",5,7.0,90.5,-0.09,衢县
2016,0.16,0.15,0.04,0.33,0.06,0.26,0.33,"[-50.75, -26.6, -12.5, 3.0, 30.5]",3,18.6,231.8,0.05,温州
2016,0.06,0.06,0.0,0.16,0.25,0.47,0.26,"[-40.5, -18.0, 0.0, 12.2, 32.0]",5,118.1,86.2,-0.11,浦城
2016,0.08,0.13,0.12,0.16,0.28,0.23,0.22,"[-67.25, -32.4, -24.0, -6.2, 34.25]",4,-2.6,154.9,-0.15,福州
2016,0.72,0.23,0.0,0.01,0.0,0.04,0.25,"[-44.25, -20.8, -3.5, 4.6, 32.25]",0,-48.4,98.1,-0.45,永安
2016,0.26,0.06,0.05,0.18,0.16,0.29,0.25,"[-35.25, -20.8, -9.5, 23.4, 45.25]",5,17.7,82.4,0.12,贵溪
2016,0.03,0.06,0.2,0.09,0.38,0.24,0.32,"[-63.75, -36.2, -2.5, 14.2, 43.0]",4,17.9,70.3,0.28,南昌
2016,0.03,0.0,0.31,0.66,0.0,0.0,0.3,"[-53.0, -38.6, -27.5, -3.8, 27.0]",3,-20.4,83.0,-0.4,广昌
2016,0.02,0.14,0.01,0.06,0.06,0.71,0.22,"[-55.75, -31.8, -14.0, 2.6, 33.75]",5,51.3,87.2,-0.47,吉安
2016,0.29,0.05,0.2,0.04,0.22,0.2,0.36,"[-48.0, -33.8, -21.0, -5.6, 24.5]",0,47.7,87.6,0.23,赣州
2016,0.21,0.0,0.0,0.71,0.0,0.08,0.33,"[-63.5, -44.6, -31.5, -1.2, 22.5]",3,-13.9,80.9,-0.34,长沙
2016,0.08,0.06,0.17,0.09,0.25,0.35,0.39,"[-66.0, -42.8, -30.0, -14.0, 13.5]",5,11.1,63.5,0.13,衡阳
2016,0.28,0.13,0.3,0.13,0.06,0.1,0.3,"[-45.0, -31.8, -23.0, -3.8, 38.0]",2,-41.2,86.8,0.28,郴县
2016,0.03,0.06,0.04,0.02,0.42,0.43,0.28,"[-60.75, -45.0, -5.5, 20.0, 45.5]",5,53.3,62.0,0.16,零陵
2016,0.0,0.01,0.0,0.66,0.03,0.3,0.19,"[-56.0, -29.0, -16.0, 9.6, 60.75]",3,39.1,57.4,-0.51,芷江
2016,0.75,0.0,0.0,0.0,0.0,0.25,0.28,"[-77.25, -58.0, -46.0, -9.8, 19.0]",0,-47.4,142.1,0.01,夏门
2016,0.15,0.21,0.05,0.04,0.28,0.27,0.25,"[-37.5, -27.0, -17.0, -6.2, 43.75]",4,-3.4,119.8,0.3,梅县
2016,0.0,0.67,0.0,0.0,0.01,0.32,0.17,"[-53.25, -37.0, -25.0, -4.0, 25.75]",1,-4.3,157.9,-0.19,汕头
2016,0.59,0.35,0.02,0.03,0.0,0.01,0.25,"[-48.5, -23.0, -10.5, -0.4, 17.25]",0,-75.2,99.2,-0.11,曲江
2016,0.01,0.32,0.0,0.0,0.33,0.34,0.3,"[-46.0, -27.0, -16.0, -3.2, 17.25]",5,3.0,156.8,-0.13,河源
2016,0.08,0.28,0.03,0.31,0.23,0.07,0.28,"[-44.5, -28.8, -16.0, 6.6, 25.75]",3,-27.4,193.7,-0.03,广州
2016,0.7,0.1,0.12,0.01,0.06,0.01,0.33,"[-44.5, -24.4, -11.0, 3.8, 40.0]",0,-60.3,253.3,0.27,阳江
2016,0.44,0.08,0.05,0.03,0.1,0.3,0.28,"[-29.5, -17.0, -3.5, 9.0, 31.75]",0,6.5,243.7,0.05,湛江
2016,0.82,0.12,0.02,0.04,0.0,0.0,0.27,"[-33.0, -12.0, -2.0, 15.6, 50.25]",0,-52.1,262.6,-0.07,海口
2016,0.07,0.06,0.08,0.22,0.21,0.36,0.19,"[-62.75, -40.6, -20.0, -4.0, 28.75]",5,33.4,78.1,-0.09,桂林
2016,0.0,0.17,0.0,0.19,0.33,0.3,0.28,"[-60.0, -33.6, -16.0, 3.0, 38.75]",4,55.7,69.6,-0.01,柳州
2016,0.92,0.0,0.03,0.01,0.0,0.04,0.31,"[-43.0, -19.6, -9.0, 10.8, 49.75]",0,-66.7,86.3,-0.21,悟州
2016,0.07,0.05,0.07,0.18,0.06,0.57,0.23,"[-46.5, -15.6, -0.5, 12.0, 35.5]",5,57.4,130.7,0.08,南宁
2016,0.0,0.1,0.0,0.0,0.62,0.28,0.32,"[-42.25, -24.6, -11.5, 9.8, 31.5]",4,39.4,212.2,0.05,北海
2016,0.32,0.1,0.18,0.14,0.05,0.21,0.25,"[-45.0, -24.8, -16.0, -0.4, 24.5]",0,-18.9,108.9,0.09,百色
2016,0.06,0.67,0.0,0.0,0.27,0.0,0.26,"[-44.25, -26.2, -10.5, 11.2, 35.25]",1,-21.9,92.2,-0.25,遵义
2016,0.23,0.3,0.03,0.13,0.22,0.09,0.29,"[-34.25, -16.6, -6.0, 7.0, 36.0]",1,0.9,85.9,0.17,贵阳
2016,0.57,0.21,0.1,0.08,0.01,0.03,0.23,"[-30.0, -10.8, -6.0, 13.2, 38.25]",0,-20.7,92.3,-0.2,毕节
2016,0.84,0.11,0.01,0.02,0.0,0.02,0.21,"[-33.5, -14.8, -8.0, 6.0, 27.5]",0,-55.5,128.7,0.1,兴仁
2016,0.47,0.2,0.0,0.1,0.1,0.13,0.36,"[-42.5, -25.6, -14.5, -1.6, 26.0]",0,18.9,72.7,0.16,榕江
2016,0.44,0.09,0.26,0.01,0.04,0.16,0.28,"[-35.75, -5.4, 10.5, 28.2, 54.0]",0,-18.1,134.8,0.13,恩施
2016,0.37,0.46,0.0,0.15,0.02,0.0,0.28,"[-38.5, -18.4, 8.0, 21.6, 45.0]",1,-42.8,143.0,0.15,达县
2016,0.18,0.42,0.06,0.15,0.13,0.06,0.29,"[-24.75, -7.4, 12.0, 22.2, 51.5]",1,-3.7,97.5,0.07,酉阳
2016,0.74,0.18,0.0,0.0,0.08,0.0,0.27,"[-32.75, 1.4, 18.0, 29.4, 52.25]",0,-35.2,106.3,-0.06,重庆
2016,0.28,0.26,0.03,0.28,0.14,0.01,0.35,"[-27.0, 0.4, 11.0, 24.8, 56.75]",0,-15.4,121.5,-0.01,南充
2016,0.77,0.0,0.0,0.23,0.0,0.0,0.14,"[-36.25, -14.8, -7.5, 8.0, 29.25]",0,-44.4,121.8,-0.29,内江
2016,0.15,0.18,0.01,0.01,0.55,0.1,0.28,"[-44.0, -23.8, -16.0, -2.2, 34.0]",4,9.5,134.5,-0.01,绵阳
2016,0.34,0.08,0.06,0.01,0.3,0.21,0.28,"[-40.25, -16.8, -11.0, 0.6, 38.0]",0,35.2,112.3,0.27,成都
2016,0.17,0.08,0.33,0.01,0.06,0.35,0.27,"[-28.0, -7.8, 0.5, 18.4, 48.25]",5,6.2,106.3,0.04,宜宾
2016,0.57,0.25,0.04,0.04,0.04,0.06,0.22,"[-23.0, -9.8, -6.5, 11.8, 26.0]",0,-17.3,177.9,-0.01,雅安
2016,0.08,0.01,0.34,0.04,0.32,0.21,0.33,"[-28.0, -11.4, -1.5, 4.0, 26.5]",2,22.0,128.1,0.13,康定
2016,0.38,0.61,0.0,0.0,0.0,0.0,0.32,"[-15.25, -6.8, -1.5, 11.8, 28.25]",1,-33.4,151.9,-0.17,西昌
2016,0.03,0.31,0.01,0.01,0.01,0.63,0.22,"[-31.0, -13.8, -12.0, -2.0, 25.25]",5,16.0,192.4,0.08,会理
2016,0.14,0.17,0.24,0.08,0.21,0.16,0.26,"[-30.0, -21.8, -12.5, -4.4, 15.25]",2,1.6,164.0,0.02,丽江
2016,0.32,0.41,0.09,0.11,0.06,0.01,0.37,"[-32.0, -12.4, -8.0, 15.8, 28.0]",1,-20.6,160.9,0.25,大理
2016,0.22,0.19,0.14,0.04,0.11,0.3,0.31,"[-43.25, -25.8, -16.0, -0.4, 13.0]",5,35.0,152.7,0.11,保山
2016,0.09,0.29,0.15,0.05,0.21,0.21,0.27,"[-32.0, -12.0, -6.5, 7.4, 30.5]",1,1.1,112.8,-0.2,昆明
2016,0.19,0.08,0.18,0.19,0.14,0.22,0.33,"[-27.0, -14.4, -7.5, 6.0, 14.25]",5,3.2,151.0,0.26,临沧
2016,0.52,0.12,0.12,0.15,0.02,0.07,0.31,"[-38.0, -15.2, 5.0, 10.0, 28.5]",0,-14.3,91.6,0.16,蒙自
2016,0.0,0.66,0.0,0.05,0.25,0.04,0.2,"[-25.5, -8.0, 1.0, 11.6, 28.5]",1,1.2,136.2,-0.43,景洪
2016,0.51,0.25,0.0,0.05,0.06,0.13,0.26,"[-11.0, 0.4, 16.5, 22.6, 31.25]",0,-39.0,95.1,0.03,甘孜
2016,0.09,0.03,0.01,0.07,0.17,0.63,0.25,"[-48.25, -29.4, -12.0, 0.6, 12.0]",5,50.1,68.6,-0.04,德钦
2016,0.18,0.04,0.07,0.0,0.12,0.59,0.27,"[-20.5, -7.0, -1.0, 5.0, 20.25]",5,6.0,74.3,0.05,昌都
2016,0.19,0.2,0.25,0.03,0.29,0.04,0.43,"[-42.75, -25.4, -17.0, -8.2, 8.25]",4,-19.3,68.5,0.21,拉萨
2016,0.07,0.65,0.0,0.0,0.24,0.04,0.24,"[-39.75, -14.8, -8.5, 8.2, 31.5]",1,-24.0,93.3,-0.17,西安
2016,0.64,0.11,0.12,0.01,0.11,0.01,0.36,"[-33.75, -14.0, -8.5, 8.6, 52.25]",0,-48.9,76.4,-0.02,天水
2016,0.36,0.23,0.27,0.01,0.13,0.0,0.31,"[-23.0, -8.0, 15.0, 22.6, 43.0]",0,-9.5,74.9,0.12,岷县
2016,0.09,0.29,0.05,0.01,0.03,0.53,0.23,"[-39.25, -23.8, -3.0, 8.0, 42.5]",5,32.8,139.3,0.05,汉中
2016,0.06,0.69,0.23,0.02,0.0,0.0,0.19,"[-40.75, -17.0, -4.5, 17.4, 45.25]",1,-19.2,116.1,-0.35,安康
2016,0.2,0.06,0.08,0.07,0.46,0.13,0.26,"[-49.0, -26.0, -7.0, 8.6, 29.0]",4,24.2,107.0,0.23,郧县
2016,0.54,0.0,0.0,0.34,0.11,0.01,0.28,"[-39.25, -18.0, -2.5, 11.0, 35.25]",0,-28.2,63.0,-0.02,长治
2016,0.0,0.02,0.0,0.0,0.02,0.96,0.3,"[-47.0, -20.6, 3.0, 19.0, 49.5]",5,115.1,56.7,0.05,太原
2016,0.35,0.22,0.04,0.19,0.2,0.0,0.31,"[-42.0, -17.8, -8.0, 3.6, 40.0]",0,-38.9,63.6,0.04,临汾
2016,0.02,0.08,0.03,0.07,0.2,0.6,0.33,"[-40.25, -14.4, 0.0, 16.0, 54.75]",5,71.8,53.3,0.26,榆林
2016,0.34,0.09,0.02,0.33,0.13,0.09,0.25,"[-43.0, -16.4, 9.5, 21.0, 45.25]",0,-6.0,74.6,-0.16,延安
2016,0.24,0.25,0.15,0.16,0.2,0.0,0.34,"[-43.25, -16.0, 3.5, 27.4, 58.5]",1,-25.7,78.6,0.08,西峰镇
2016,0.26,0.65,0.0,0.0,0.01,0.08,0.22,"[-31.5, -4.0, 7.0, 32.6, 59.25]",1,-12.2,40.6,-0.38,兰州
2016,0.08,0.0,0.09,0.1,0.43,0.3,0.38,"[-54.5, -37.0, -22.0, 18.4, 51.0]",4,31.2,31.9,0.08,中宁
2016,0.23,0.22,0.08,0.08,0.19,0.2,0.42,"[-48.0, -25.2, -12.0, 18.0, 56.0]",0,35.0,24.5,0.22,银川
2016,0.08,0.33,0.04,0.42,0.0,0.13,0.28,"[-23.5, -12.0, -7.0, 0.0, 11.5]",3,-0.6,61.0,0.16,西宁
2016,0.24,0.01,0.0,0.0,0.14,0.61,0.2,"[-19.0, -7.2, 8.0, 20.8, 42.25]",5,34.4,70.7,-0.25,临夏
2016,0.0,0.04,0.0,0.03,0.02,0.91,0.27,"[-37.5, -12.6, -3.0, 4.6, 23.5]",5,45.6,49.5,-0.03,玛多
2016,0.82,0.08,0.0,0.01,0.0,0.09,0.29,"[-19.0, -6.0, 3.0, 8.6, 25.25]",0,-42.8,72.7,0.08,玉树
2016,0.71,0.02,0.02,0.0,0.24,0.01,0.17,"[-38.0, -20.0, -10.0, 11.2, 36.0]",0,-58.4,24.9,-0.02,武威
2016,0.01,0.08,0.0,0.1,0.62,0.19,0.35,"[-68.0, -42.0, -31.0, -5.2, 43.0]",4,15.3,18.8,0.27,张掖
2016,0.0,0.03,0.21,0.0,0.01,0.75,0.22,"[-91.0, -72.0, -54.0, -35.0, 38.0]",5,165.8,10.8,-0.49,酒泉
2016,,0.02,0.07,,0.28,0.63,0.47,"[-100.0, -100.0, -69.0, -69.0, -31.25]",5,271.7,3.3,-0.13,敦煌
2016,,0.01,,0.03,0.0,0.96,0.52,"[-100.0, -100.0, -100.0, -52.0, -5.0]",5,422.3,2.1,-0.16,吐鲁番
2016,0.2,0.25,0.0,0.01,0.28,0.26,0.22,"[-85.0, -56.0, -41.0, -26.0, 33.0]",4,-40.6,6.8,0.09,库车
2016,0.02,0.06,0.01,0.0,0.33,0.58,0.18,"[-88.75, -70.0, -54.0, -24.0, 37.0]",5,39.5,6.6,-0.19,喀什
2016,,0.11,,,0.61,0.28,0.69,"[-100.0, -100.0, -100.0, -78.4, -45.0]",4,140.5,3.7,0.25,和田
2016,,0.56,,,0.04,0.4,0.67,"[-100.0, -100.0, -100.0, -100.0, -12.0]",1,296.2,1.1,0.0,且末
2016,,0.06,,,0.3,0.64,0.78,"[-100.0, -100.0, -100.0, -100.0, -38.0]",5,445.0,1.6,0.08,若羌
2016,,0.1,0.14,0.04,0.59,0.13,0.42,"[-100.0, -71.0, -41.0, -12.0, 47.0]",4,65.0,3.4,0.06,哈密
2016,0.01,0.0,0.0,0.0,0.0,0.98,0.32,"[-57.75, -27.0, -12.0, 15.6, 46.0]",5,83.1,13.7,0.09,阿勒泰
2016,0.0,0.16,0.0,0.16,0.03,0.65,0.15,"[-60.0, -34.4, -20.0, 5.0, 39.0]",5,106.4,12.4,-0.04,塔城
2016,0.02,0.08,0.11,0.08,0.19,0.52,0.3,"[-77.0, -51.8, -38.0, -24.0, 20.0]",5,35.4,17.0,0.23,乌苏
2016,0.46,0.15,0.07,0.04,0.2,0.08,0.17,"[-60.5, -41.0, -30.0, -13.2, 23.0]",0,-34.8,17.0,-0.09,伊宁
2016,0.06,0.11,0.04,0.04,0.34,0.41,0.24,"[-60.0, -32.0, -22.0, -5.6, 33.0]",5,66.5,25.0,0.2,乌鲁木齐
