,0,1,2,3,4,5,classifier_score,divider,fcst_grade,fcst_y,norm,regressor_score,site
2016,0.0,0.03,0.0,0.03,0.17,0.77,0.35,"[-1, -0.5, 0, 0.5, 1]",5,2.6,-23.4,0.06,呼玛
2016,0.6,0.0,0.03,0.23,0.12,0.02,0.57,"[-1, -0.5, 0, 0.5, 1]",0,-0.6,-18.2,0.21,博克图
2016,0.2,0.0,0.05,0.02,0.18,0.55,0.43,"[-1, -0.5, 0, 0.5, 1]",5,0.5,-21.5,0.09,海拉尔
2016,0.07,0.06,0.2,0.27,0.18,0.22,0.48,"[-1, -0.5, 0, 0.5, 1]",3,0.5,-25.8,0.33,图里河
2016,0.06,,0.06,0.21,0.29,0.38,0.61,"[-1, -0.5, 0, 0.5, 1]",5,1.3,-20.8,0.46,嫩江
2016,0.02,0.07,0.11,0.12,0.07,0.61,0.51,"[-1, -0.5, 0, 0.5, 1]",5,1.4,-15.5,0.28,齐齐哈尔
2016,0.11,0.0,,0.38,0.07,0.44,0.61,"[-1, -0.5, 0, 0.5, 1]",5,1.1,-18.0,0.17,海伦
2016,0.09,0.0,0.0,0.19,0.62,0.1,0.27,"[-1, -0.5, 0, 0.5, 1]",4,0.7,-16.2,-0.06,富锦
2016,0.21,0.2,0.25,,0.11,0.23,0.5,"[-1, -0.5, 0, 0.5, 1]",2,-0.2,-15.3,0.2,佳木斯
2016,0.27,0.0,0.14,0.07,0.07,0.45,0.46,"[-1, -0.5, 0, 0.5, 1]",5,0.1,-13.3,0.16,鸡西
2016,0.1,0.04,0.02,0.16,0.09,0.59,0.55,"[-1, -0.5, 0, 0.5, 1]",5,1.1,-14.3,0.29,哈尔滨
2016,0.0,0.01,0.02,,0.15,0.82,0.37,"[-1, -0.5, 0, 0.5, 1]",5,2.1,-13.4,0.42,牡丹江
2016,0.4,0.0,,0.17,0.12,0.31,0.52,"[-1, -0.5, 0, 0.5, 1]",0,-0.5,-12.4,0.44,乌兰浩特
2016,0.23,0.1,0.04,0.14,0.1,0.39,0.38,"[-1, -0.5, 0, 0.5, 1]",5,0.3,-10.4,0.28,通辽
2016,0.11,0.21,0.03,0.02,0.01,0.62,0.55,"[-1, -0.5, 0, 0.5, 1]",5,0.6,-11.6,0.27,长春
2016,0.0,0.06,0.0,0.0,0.24,0.7,0.43,"[-1, -0.5, 0, 0.5, 1]",5,1.5,-10.7,0.27,延吉
2016,0.07,0.03,0.46,0.15,0.16,0.13,0.47,"[-1, -0.5, 0, 0.5, 1]",2,-0.1,-10.4,0.32,通化
2016,0.12,0.02,0.07,0.18,0.14,0.47,0.45,"[-1, -0.5, 0, 0.5, 1]",5,-0.6,-7.7,0.24,沈阳
2016,0.1,0.06,0.08,0.18,0.27,0.31,0.41,"[-1, -0.5, 0, 0.5, 1]",5,0.4,-6.5,0.39,朝阳
2016,0.05,0.18,0.02,0.0,0.14,0.61,0.51,"[-1, -0.5, 0, 0.5, 1]",5,1.2,-5.1,0.36,营口
2016,0.19,0.04,0.02,0.1,0.03,0.62,0.29,"[-1, -0.5, 0, 0.5, 1]",5,1.0,-4.6,0.16,丹东
2016,0.02,0.0,0.34,0.21,0.18,0.25,0.28,"[-1, -0.5, 0, 0.5, 1]",2,0.0,-0.4,0.07,大连
2016,0.14,0.06,0.04,0.02,0.07,0.67,0.54,"[-1, -0.5, 0, 0.5, 1]",5,0.8,-10.9,0.02,林东
2016,0.37,0.08,0.08,0.28,0.13,0.06,0.27,"[-1, -0.5, 0, 0.5, 1]",0,-1.9,-15.5,0.18,锡林浩特
2016,0.19,0.08,0.26,0.01,0.02,0.44,0.38,"[-1, -0.5, 0, 0.5, 1]",5,0.3,-11.2,0.24,朱日和
2016,0.03,0.02,0.05,0.18,0.3,0.42,0.46,"[-1, -0.5, 0, 0.5, 1]",5,1.1,-13.7,0.38,多伦
2016,0.1,0.19,0.08,0.16,0.03,0.44,0.36,"[-1, -0.5, 0, 0.5, 1]",5,0.0,-7.9,0.19,赤峰
2016,0.21,0.0,0.17,0.18,0.39,0.05,0.34,"[-1, -0.5, 0, 0.5, 1]",4,0.1,-7.4,0.27,承德
2016,0.03,0.18,0.05,0.18,0.04,0.52,0.27,"[-1, -0.5, 0, 0.5, 1]",5,0.5,-6.1,0.27,张家口
2016,0.12,0.02,0.12,0.3,0.01,0.43,0.31,"[-1, -0.5, 0, 0.5, 1]",5,1.2,-9.0,-0.03,呼和浩特
2016,0.2,0.02,0.1,0.17,0.19,0.32,0.28,"[-1, -0.5, 0, 0.5, 1]",5,0.7,-8.6,0.09,包头
2016,0.02,0.2,0.01,0.07,0.06,0.64,0.33,"[-1, -0.5, 0, 0.5, 1]",5,1.3,-7.9,-0.05,陕坝
2016,0.0,0.0,0.01,0.01,0.24,0.74,0.29,"[-1, -0.5, 0, 0.5, 1]",5,0.9,-1.1,0.3,北京
2016,0.01,0.24,0.11,0.07,0.33,0.24,0.33,"[-1, -0.5, 0, 0.5, 1]",4,0.4,-1.2,0.28,天津
2016,0.01,0.0,0.03,0.13,0.07,0.76,0.37,"[-1, -0.5, 0, 0.5, 1]",5,1.3,0.3,-0.33,石家庄
2016,0.0,0.07,0.2,0.0,0.15,0.58,0.32,"[-1, -0.5, 0, 0.5, 1]",5,0.9,0.3,0.13,德州
2016,0.0,0.0,0.05,0.01,0.24,0.7,0.4,"[-1, -0.5, 0, 0.5, 1]",5,1.4,0.8,0.22,邢台
2016,0.01,0.06,0.01,0.14,0.37,0.41,0.32,"[-1, -0.5, 0, 0.5, 1]",5,0.9,0.9,0.38,安阳
2016,0.32,0.07,0.08,0.04,0.28,0.21,0.35,"[-1, -0.5, 0, 0.5, 1]",0,-0.5,1.7,0.26,烟台
2016,0.04,0.01,0.23,0.02,0.35,0.35,0.25,"[-1, -0.5, 0, 0.5, 1]",4,0.5,2.5,0.14,青岛
2016,0.06,0.01,0.09,0.2,0.25,0.39,0.32,"[-1, -0.5, 0, 0.5, 1]",5,0.6,-0.2,0.58,潍坊
2016,0.03,0.0,0.0,0.35,0.08,0.54,0.47,"[-1, -0.5, 0, 0.5, 1]",5,1.0,1.6,0.37,济南
2016,0.0,0.03,0.11,0.33,0.39,0.14,0.24,"[-1, -0.5, 0, 0.5, 1]",4,0.4,1.7,0.41,临沂
2016,0.04,0.01,0.03,0.02,0.04,0.86,0.4,"[-1, -0.5, 0, 0.5, 1]",5,1.5,1.4,0.29,荷泽
2016,0.12,0.17,0.27,0.2,0.1,0.14,0.32,"[-1, -0.5, 0, 0.5, 1]",2,0.1,3.0,0.29,新浦
2016,0.04,0.15,0.01,0.0,0.08,0.72,0.27,"[-1, -0.5, 0, 0.5, 1]",5,1.0,3.5,0.24,清江
2016,0.02,0.05,0.2,0.0,0.0,0.73,0.28,"[-1, -0.5, 0, 0.5, 1]",5,1.0,2.7,0.24,徐州
2016,0.19,0.09,0.04,0.27,0.03,0.38,0.36,"[-1, -0.5, 0, 0.5, 1]",5,0.3,4.3,0.23,蚌埠
2016,0.13,0.13,0.29,0.03,0.17,0.25,0.34,"[-1, -0.5, 0, 0.5, 1]",2,-0.2,3.9,0.33,阜阳
2016,0.0,0.11,0.02,0.11,0.02,0.74,0.43,"[-1, -0.5, 0, 0.5, 1]",5,1.9,2.5,0.25,郑州
2016,0.0,0.0,0.0,0.12,0.05,0.83,0.38,"[-1, -0.5, 0, 0.5, 1]",5,1.3,3.5,0.24,南阳
2016,0.01,0.04,0.05,0.0,0.19,0.71,0.41,"[-1, -0.5, 0, 0.5, 1]",5,1.3,4.6,0.38,信阳
2016,0.08,0.22,0.01,0.03,0.19,0.47,0.32,"[-1, -0.5, 0, 0.5, 1]",5,0.9,4.4,0.13,东台
2016,0.02,0.03,0.16,0.09,0.07,0.63,0.35,"[-1, -0.5, 0, 0.5, 1]",5,1.1,4.9,0.07,南京
2016,0.0,0.17,0.03,,0.35,0.45,0.5,"[-1, -0.5, 0, 0.5, 1]",5,0.6,5.2,0.03,合肥
2016,0.01,0.09,0.09,0.49,0.05,0.27,0.38,"[-1, -0.5, 0, 0.5, 1]",3,0.9,7.1,0.23,上海
2016,0.0,0.29,0.06,0.05,0.03,0.57,0.33,"[-1, -0.5, 0, 0.5, 1]",5,0.7,7.0,0.09,杭州
2016,0.15,0.18,0.07,0.02,0.21,0.37,0.35,"[-1, -0.5, 0, 0.5, 1]",5,-0.1,6.6,0.24,安庆
2016,0.14,0.08,0.0,0.5,0.13,0.15,0.22,"[-1, -0.5, 0, 0.5, 1]",3,0.2,6.0,0.19,屯溪
2016,0.04,0.09,0.09,0.02,0.11,0.65,0.28,"[-1, -0.5, 0, 0.5, 1]",5,0.7,7.2,0.45,九江
2016,0.03,0.0,0.05,0.04,0.09,0.79,0.29,"[-1, -0.5, 0, 0.5, 1]",5,0.9,6.2,0.49,汉口
2016,0.0,0.02,0.0,0.02,0.29,0.67,0.35,"[-1, -0.5, 0, 0.5, 1]",5,1.2,5.8,0.17,钟祥
2016,0.0,0.03,0.03,0.12,0.22,0.6,0.39,"[-1, -0.5, 0, 0.5, 1]",5,1.0,7.5,0.51,岳阳
2016,0.08,0.11,0.11,0.13,0.33,0.24,0.3,"[-1, -0.5, 0, 0.5, 1]",4,0.4,7.3,0.49,宜昌
2016,0.0,0.04,0.21,0.15,0.07,0.53,0.37,"[-1, -0.5, 0, 0.5, 1]",5,0.7,7.4,0.54,常德
2016,0.17,0.0,0.02,0.48,0.12,0.21,0.32,"[-1, -0.5, 0, 0.5, 1]",3,0.3,7.6,0.12,宁波
2016,0.03,0.19,0.1,0.19,0.16,0.33,0.21,"[-1, -0.5, 0, 0.5, 1]",5,0.6,7.4,-0.11,衢县
2016,0.17,0.0,0.1,0.39,0.12,0.22,0.34,"[-1, -0.5, 0, 0.5, 1]",3,0.4,10.6,0.29,温州
2016,0.51,0.02,0.19,0.1,0.01,0.17,0.43,"[-1, -0.5, 0, 0.5, 1]",0,-0.5,8.2,0.38,浦城
2016,0.07,0.11,0.01,0.42,0.12,0.27,0.32,"[-1, -0.5, 0, 0.5, 1]",3,0.5,13.4,0.32,福州
2016,0.02,0.45,0.08,0.01,0.13,0.31,0.36,"[-1, -0.5, 0, 0.5, 1]",1,0.3,10.8,0.37,永安
2016,0.09,0.19,0.11,0.19,0.2,0.22,0.4,"[-1, -0.5, 0, 0.5, 1]",5,0.2,8.5,0.13,贵溪
2016,0.07,0.16,0.35,0.06,0.06,0.3,0.32,"[-1, -0.5, 0, 0.5, 1]",2,-0.1,7.9,0.33,南昌
2016,0.02,0.33,0.07,0.14,0.05,0.39,0.33,"[-1, -0.5, 0, 0.5, 1]",5,0.6,8.5,-0.01,广昌
2016,0.11,0.03,0.06,0.27,0.09,0.44,0.31,"[-1, -0.5, 0, 0.5, 1]",5,0.7,8.7,0.32,吉安
2016,0.03,0.09,0.18,0.16,0.15,0.39,0.33,"[-1, -0.5, 0, 0.5, 1]",5,0.4,10.2,0.17,赣州
2016,0.01,0.09,0.08,0.17,0.19,0.46,0.32,"[-1, -0.5, 0, 0.5, 1]",5,1.1,7.2,0.36,长沙
2016,0.0,0.11,0.09,0.12,0.15,0.53,0.32,"[-1, -0.5, 0, 0.5, 1]",5,1.1,8.5,0.48,衡阳
2016,0.02,0.02,0.0,0.03,0.22,0.71,0.32,"[-1, -0.5, 0, 0.5, 1]",5,1.4,8.0,0.14,郴县
2016,0.01,0.21,0.06,0.18,0.04,0.5,0.33,"[-1, -0.5, 0, 0.5, 1]",5,0.7,8.5,0.5,零陵
2016,0.0,0.07,0.13,0.12,0.24,0.44,0.35,"[-1, -0.5, 0, 0.5, 1]",5,0.6,7.2,0.42,芷江
2016,0.23,0.09,0.03,0.12,0.39,0.14,0.47,"[-1, -0.5, 0, 0.5, 1]",4,0.2,14.8,0.25,夏门
2016,0.22,0.09,0.38,0.24,0.04,0.03,0.31,"[-1, -0.5, 0, 0.5, 1]",2,-0.4,13.7,0.25,梅县
2016,0.06,0.08,0.06,0.13,0.04,0.63,0.41,"[-1, -0.5, 0, 0.5, 1]",5,1.1,16.0,0.23,汕头
2016,0.28,0.24,0.33,0.04,0.06,0.05,0.45,"[-1, -0.5, 0, 0.5, 1]",2,-0.7,11.9,0.39,曲江
2016,0.24,0.33,0.08,0.0,0.16,0.19,0.37,"[-1, -0.5, 0, 0.5, 1]",1,0.4,14.4,0.28,河源
2016,0.01,0.01,0.0,0.05,0.17,0.76,0.2,"[-1, -0.5, 0, 0.5, 1]",5,1.1,15.7,-0.11,广州
2016,0.11,0.14,0.04,0.31,0.13,0.27,0.38,"[-1, -0.5, 0, 0.5, 1]",3,0.4,16.8,0.47,阳江
2016,0.5,0.0,0.02,0.2,0.05,0.23,0.31,"[-1, -0.5, 0, 0.5, 1]",0,-0.7,17.6,0.0,湛江
2016,0.51,0.06,0.06,0.15,0.11,0.11,0.31,"[-1, -0.5, 0, 0.5, 1]",0,-0.7,19.4,0.4,海口
2016,0.05,0.02,0.01,0.16,0.29,0.47,0.25,"[-1, -0.5, 0, 0.5, 1]",5,0.9,10.6,-0.02,桂林
2016,0.47,0.31,0.09,0.09,0.02,0.02,0.3,"[-1, -0.5, 0, 0.5, 1]",0,-1.1,11.9,-0.07,柳州
2016,0.37,0.2,0.0,0.09,0.31,0.03,0.27,"[-1, -0.5, 0, 0.5, 1]",0,0.0,13.8,0.05,悟州
2016,0.65,0.08,0.05,0.08,0.05,0.09,0.43,"[-1, -0.5, 0, 0.5, 1]",0,-1.1,14.7,-0.05,南宁
2016,0.58,0.21,0.07,0.04,0.06,0.04,0.32,"[-1, -0.5, 0, 0.5, 1]",0,-1.1,16.6,-0.05,北海
2016,0.96,0.01,0.03,0.0,0.0,0.0,0.35,"[-1, -0.5, 0, 0.5, 1]",0,-1.6,14.7,-0.07,百色
2016,0.0,0.0,0.13,0.12,0.21,0.54,0.35,"[-1, -0.5, 0, 0.5, 1]",5,1.0,6.3,0.34,遵义
2016,0.15,0.23,0.15,0.17,0.08,0.22,0.38,"[-1, -0.5, 0, 0.5, 1]",1,0.0,6.8,0.01,贵阳
2016,0.04,0.21,0.09,0.18,0.18,0.3,0.33,"[-1, -0.5, 0, 0.5, 1]",5,0.3,4.7,0.3,毕节
2016,0.13,0.01,0.24,0.17,0.14,0.31,0.45,"[-1, -0.5, 0, 0.5, 1]",5,0.4,8.1,0.34,兴仁
2016,0.0,0.03,0.01,0.37,0.14,0.45,0.27,"[-1, -0.5, 0, 0.5, 1]",5,1.0,9.7,0.11,榕江
2016,0.02,0.05,0.11,0.66,0.08,0.08,0.41,"[-1, -0.5, 0, 0.5, 1]",3,0.3,6.7,0.5,恩施
2016,0.02,0.15,0.18,0.23,0.28,0.14,0.11,"[-1, -0.5, 0, 0.5, 1]",4,0.3,7.6,0.37,达县
2016,0.02,0.08,0.07,0.03,0.5,0.3,0.42,"[-1, -0.5, 0, 0.5, 1]",4,0.9,6.2,0.44,酉阳
2016,0.0,0.0,0.15,0.25,0.04,0.56,0.36,"[-1, -0.5, 0, 0.5, 1]",5,0.8,9.1,0.36,重庆
2016,0.0,0.01,0.15,0.09,0.09,0.66,0.35,"[-1, -0.5, 0, 0.5, 1]",5,0.7,7.8,0.29,南充
2016,0.0,0.05,0.03,0.02,0.31,0.59,0.25,"[-1, -0.5, 0, 0.5, 1]",5,1.0,8.5,0.43,内江
2016,0.04,0.04,0.11,0.28,0.3,0.23,0.25,"[-1, -0.5, 0, 0.5, 1]",4,0.6,6.9,0.19,绵阳
2016,0.0,0.02,0.11,0.07,0.44,0.36,0.33,"[-1, -0.5, 0, 0.5, 1]",4,0.8,7.2,0.37,成都
2016,0.0,0.04,0.0,0.25,0.56,0.15,0.17,"[-1, -0.5, 0, 0.5, 1]",4,0.8,9.3,0.33,宜宾
2016,0.06,0.01,0.06,0.17,0.21,0.49,0.28,"[-1, -0.5, 0, 0.5, 1]",5,0.7,7.8,0.33,雅安
2016,0.1,0.18,0.05,0.12,0.3,0.25,0.34,"[-1, -0.5, 0, 0.5, 1]",4,0.4,-0.5,0.33,康定
2016,0.3,0.18,0.14,0.2,0.03,0.15,0.3,"[-1, -0.5, 0, 0.5, 1]",0,-1.5,10.0,0.16,西昌
2016,0.01,0.01,0.04,0.48,0.23,0.23,0.29,"[-1, -0.5, 0, 0.5, 1]",3,0.4,7.6,0.32,会理
2016,0.0,0.09,0.0,0.24,0.18,0.49,0.37,"[-1, -0.5, 0, 0.5, 1]",5,0.7,6.6,0.23,丽江
2016,0.0,0.03,0.04,0.37,0.31,0.25,0.32,"[-1, -0.5, 0, 0.5, 1]",3,0.6,8.4,0.3,大理
2016,0.01,0.01,0.1,0.12,0.37,0.39,0.3,"[-1, -0.5, 0, 0.5, 1]",5,0.9,9.7,0.31,保山
2016,0.06,0.01,0.34,0.03,0.12,0.44,0.33,"[-1, -0.5, 0, 0.5, 1]",5,0.3,8.9,0.46,昆明
2016,0.06,0.1,0.0,0.15,0.5,0.19,0.33,"[-1, -0.5, 0, 0.5, 1]",4,0.6,11.8,0.34,临沧
2016,0.05,0.09,0.15,0.12,0.09,0.5,0.39,"[-1, -0.5, 0, 0.5, 1]",5,1.0,12.7,0.27,蒙自
2016,0.05,0.01,0.03,0.08,0.23,0.6,0.26,"[-1, -0.5, 0, 0.5, 1]",5,1.0,17.0,0.17,景洪
2016,0.02,0.03,0.12,0.16,0.27,0.4,0.35,"[-1, -0.5, 0, 0.5, 1]",5,0.9,-3.8,0.35,甘孜
2016,0.01,0.04,0.27,0.1,0.31,0.27,0.19,"[-1, -0.5, 0, 0.5, 1]",4,0.5,-0.6,0.17,德钦
2016,0.01,0.05,0.04,0.04,0.52,0.34,0.32,"[-1, -0.5, 0, 0.5, 1]",4,0.9,-1.5,0.36,昌都
2016,0.01,0.02,0.02,0.2,0.27,0.48,0.5,"[-1, -0.5, 0, 0.5, 1]",5,1.0,-0.5,0.32,拉萨
2016,0.05,0.07,0.08,0.08,0.1,0.62,0.27,"[-1, -0.5, 0, 0.5, 1]",5,0.9,1.7,0.1,西安
2016,0.04,0.0,0.32,0.21,0.42,0.01,0.33,"[-1, -0.5, 0, 0.5, 1]",4,0.2,-0.4,0.46,天水
2016,0.03,0.06,0.05,0.03,0.58,0.25,0.25,"[-1, -0.5, 0, 0.5, 1]",4,0.6,-4.7,0.27,岷县
2016,0.0,0.02,0.03,0.07,0.58,0.3,0.29,"[-1, -0.5, 0, 0.5, 1]",4,0.7,3.8,0.31,汉中
2016,0.0,0.03,0.05,0.42,0.09,0.41,0.38,"[-1, -0.5, 0, 0.5, 1]",3,0.8,4.9,0.36,安康
2016,0.08,0.0,0.14,0.27,0.02,0.49,0.4,"[-1, -0.5, 0, 0.5, 1]",5,0.9,4.6,0.41,郧县
2016,0.02,0.0,0.13,0.07,0.6,0.18,0.22,"[-1, -0.5, 0, 0.5, 1]",4,0.7,-2.8,0.22,长治
2016,0.17,0.06,0.02,0.01,0.11,0.63,0.35,"[-1, -0.5, 0, 0.5, 1]",5,0.7,-3.2,0.13,太原
2016,0.02,0.0,0.17,0.27,0.21,0.33,0.37,"[-1, -0.5, 0, 0.5, 1]",5,0.6,-0.7,0.45,临汾
2016,0.14,0.03,0.25,0.03,0.26,0.29,0.33,"[-1, -0.5, 0, 0.5, 1]",5,0.7,-6.5,0.18,榆林
2016,0.11,0.0,0.09,0.05,0.43,0.32,0.27,"[-1, -0.5, 0, 0.5, 1]",4,0.7,-3.2,0.12,延安
2016,0.0,0.03,0.0,0.03,0.11,0.83,0.41,"[-1, -0.5, 0, 0.5, 1]",5,1.7,-2.6,0.45,西峰镇
2016,0.03,0.15,0.02,0.12,0.25,0.43,0.37,"[-1, -0.5, 0, 0.5, 1]",5,1.2,-3.2,0.35,兰州
2016,0.02,0.01,0.0,0.07,0.19,0.71,0.4,"[-1, -0.5, 0, 0.5, 1]",5,1.1,-4.4,0.27,中宁
2016,0.0,0.01,0.02,0.06,0.66,0.25,0.36,"[-1, -0.5, 0, 0.5, 1]",4,0.7,-5.2,0.26,银川
2016,0.2,0.35,0.03,0.32,0.08,0.02,0.36,"[-1, -0.5, 0, 0.5, 1]",1,-0.2,-5.8,0.14,西宁
2016,0.0,0.13,0.12,0.06,0.28,0.41,0.39,"[-1, -0.5, 0, 0.5, 1]",5,1.0,-4.6,0.23,临夏
2016,0.04,0.11,0.04,0.13,0.03,0.65,0.4,"[-1, -0.5, 0, 0.5, 1]",5,1.6,-14.5,0.16,玛多
2016,0.03,0.17,0.0,0.33,0.06,0.41,0.37,"[-1, -0.5, 0, 0.5, 1]",5,0.6,-6.2,0.09,玉树
2016,0.11,0.13,,0.03,0.19,0.54,0.53,"[-1, -0.5, 0, 0.5, 1]",5,1.3,-5.5,0.43,武威
2016,0.33,0.17,0.18,0.14,0.0,0.18,0.56,"[-1, -0.5, 0, 0.5, 1]",0,-0.3,-7.3,0.39,张掖
2016,0.29,0.06,0.09,0.31,0.03,0.22,0.38,"[-1, -0.5, 0, 0.5, 1]",3,0.0,-7.3,0.26,酒泉
2016,0.29,0.13,0.02,0.05,0.29,0.22,0.46,"[-1, -0.5, 0, 0.5, 1]",0,-0.2,-6.4,0.24,敦煌
2016,0.0,0.0,0.07,0.02,0.17,0.74,0.43,"[-1, -0.5, 0, 0.5, 1]",5,2.3,-5.0,0.05,吐鲁番
2016,0.02,0.01,0.01,0.17,0.3,0.49,0.39,"[-1, -0.5, 0, 0.5, 1]",5,1.1,-5.2,0.24,库车
2016,0.34,0.19,0.03,0.24,0.08,0.12,0.32,"[-1, -0.5, 0, 0.5, 1]",0,-1.4,-2.8,0.35,喀什
2016,0.01,0.03,0.0,0.0,0.52,0.44,0.37,"[-1, -0.5, 0, 0.5, 1]",4,1.6,-2.3,0.11,和田
2016,0.12,0.0,0.15,0.0,0.17,0.56,0.52,"[-1, -0.5, 0, 0.5, 1]",5,0.8,-5.6,0.47,且末
2016,0.35,0.01,0.01,0.03,0.17,0.43,0.3,"[-1, -0.5, 0, 0.5, 1]",5,0.7,-5.6,0.27,若羌
2016,0.1,0.01,0.33,0.01,0.21,0.34,0.45,"[-1, -0.5, 0, 0.5, 1]",5,0.8,-8.0,0.16,哈密
2016,0.17,0.08,0.05,0.36,0.11,0.23,0.54,"[-1, -0.5, 0, 0.5, 1]",3,0.4,-12.6,0.4,阿勒泰
2016,0.01,0.0,0.02,0.01,0.15,0.81,0.47,"[-1, -0.5, 0, 0.5, 1]",5,1.8,-7.6,0.27,塔城
2016,0.01,0.0,0.17,0.08,0.1,0.64,0.59,"[-1, -0.5, 0, 0.5, 1]",5,0.8,-10.4,0.04,乌苏
2016,0.02,0.0,0.04,0.03,0.15,0.76,0.42,"[-1, -0.5, 0, 0.5, 1]",5,3.5,-4.9,0.22,伊宁
2016,0.02,0.0,0.15,0.0,0.22,0.61,0.57,"[-1, -0.5, 0, 0.5, 1]",5,1.3,-9.3,0.3,乌鲁木齐
